[gd_resource type="Environment" load_steps=2 format=2]

[sub_resource type="ProceduralSky" id=1]


[resource]

background_mode = 1
background_sky = SubResource( 1 )
ambient_light_color = Color( 0.639216, 0.611765, 0.54902, 1 )
ambient_light_energy = 0.38
ambient_light_sky_contribution = 0.0

