[gd_scene load_steps=4 format=2]

[ext_resource path="res://Player.gd" type="Script" id=1]
[ext_resource path="res://models/character/character.dae" type="PackedScene" id=2]

[sub_resource type="CapsuleShape" id=1]


[node name="Player" type="Spatial"]
script = ExtResource( 1 )

[node name="Body" type="KinematicBody" parent="."]

[node name="CollisionShape" type="CollisionShape" parent="Body"]
transform = Transform( 0.5, 0, 0, 0, -2.18557e-008, -1, 0, 0.5, -4.37114e-008, 0, 2, 0 )
shape = SubResource( 1 )

[node name="AudioPlayer" type="AudioStreamPlayer3D" parent="Body"]
unit_db = 80.0

[node name="Scene Root" parent="Body" instance=ExtResource( 2 )]
transform = Transform( 0.5, 0, 0, 0, 0.5, 0, 0, 0, 0.5, 0, 0, 0 )

