<?xml version="1.0" encoding="utf-8"?>
<COLLADA xmlns="http://www.collada.org/2005/11/COLLADASchema" version="1.4.1">
<asset>
	<contributor>
		<author>Anonymous</author>
		<authoring_tool>Collada Exporter for Blender 2.6+, by Juan Linietsky (juan@codenix.com)</authoring_tool>
	</contributor>
	<created>2019-01-26T00:37:29Z</created>
	<modified>2019-01-26T00:37:29Z</modified>
	<unit meter="1.0" name="meter"/>
	<up_axis>Z_UP</up_axis>
</asset>
<library_effects>
	<effect id="id-fx-2" name="Wood-fx">
		<profile_COMMON>
			<technique sid="common">
				<blinn>
					<emission>
						<color>  0.0 0.0 0.0 1.0 </color>
					</emission>
					<ambient>
						<color>  0.0 0.0 0.0 1.0 </color>
					</ambient>
					<diffuse>
						<color>  0.5013297632534766 0.09600280070309042 0.008530670531551099 1.0 </color>
					</diffuse>
					<specular>
						<color>  0.5 0.5 0.5 1.0 </color>
					</specular>
					<shininess>
						<float>50</float>
					</shininess>
					<reflective>
						<color>  1.0 1.0 1.0 1.0 </color>
					</reflective>
					<index_of_refraction>
						<float>4.0</float>
					</index_of_refraction>
				</blinn>
				<extra>
					<technique profile="FCOLLADA">
					</technique>
					<technique profile="GOOGLEEARTH">
						<double_sided>0</double_sided>
					</technique>
				</extra>
			</technique>
		</profile_COMMON>
	</effect>
</library_effects>
<library_materials>
	<material id="id-material-3" name="Wood">
		<instance_effect url="#id-fx-2"/>
	</material>
</library_materials>
<library_geometries>
	<geometry id="id-mesh-4" name="Cube.002">
		<mesh>
			<source id="id-mesh-4-positions">
				<float_array id="id-mesh-4-positions-array" count="1218"> -1.0 -1.0 0.7610998153686523 -1.0 1.0 -1.0 -1.0 -1.0 -1.0 -1.0 1.0 0.7610998153686523 1.0 1.0 -1.0 -1.0 1.0 -1.0 1.0 1.0 0.7610998153686523 1.0 -1.0 -1.0 1.0 1.0 -1.0 1.0 -1.0 0.7610998153686523 -1.0 -1.0 -1.0 1.0 -1.0 -1.0 1.0 1.0 -1.0 -1.0 -1.0 -1.0 -1.0 1.0 -1.0 -1.0 1.0 0.7610998153686523 1.0 -1.0 0.7610998153686523 1.0 1.0 0.7610998153686523 -53.98174285888672 1.0 -0.9999998211860657 -53.98174285888672 -1.0 0.7610998749732971 -53.98174285888672 -1.0 -0.9999998211860657 -55.98174285888672 1.0 -0.9999998211860657 -53.98174285888672 1.0 0.7610998749732971 -53.98174285888672 1.0 -0.9999998211860657 -55.98174285888672 -1.0 -0.9999998211860657 -55.98174285888672 1.0 0.7610998749732971 -55.98174285888672 1.0 -0.9999998211860657 -53.98174285888672 -1.0 -0.9999998211860657 -55.98174285888672 -1.0 0.7610998749732971 -55.98174285888672 -1.0 -0.9999998211860657 -53.98174285888672 -1.0 -0.9999998211860657 -55.98174285888672 1.0 -0.9999998211860657 -53.98174285888672 1.0 -0.9999998211860657 -55.98174285888672 -1.0 0.7610998749732971 -53.98174285888672 1.0 0.7610998749732971 -55.98174285888672 1.0 0.7610998749732971 -0.9999980926513672 -24.487117767333984 -0.9999998211860657 -0.9999980926513672 -22.487117767333984 0.7610998749732971 -0.9999980926513672 -22.487117767333984 -0.9999998211860657 1.0000019073486328 -24.487117767333984 -0.9999998211860657 -0.9999980926513672 -24.487117767333984 0.7610998749732971 -0.9999980926513672 -24.487117767333984 -0.9999998211860657 1.0000019073486328 -22.487117767333984 -0.9999998211860657 1.0000019073486328 -24.487117767333984 0.7610998749732971 1.0000019073486328 -24.487117767333984 -0.9999998211860657 -0.9999980926513672 -22.487117767333984 -0.9999998211860657 1.0000019073486328 -22.487117767333984 0.7610998749732971 1.0000019073486328 -22.487117767333984 -0.9999998211860657 -0.9999980926513672 -22.487117767333984 -0.9999998211860657 1.0000019073486328 -24.487117767333984 -0.9999998211860657 -0.9999980926513672 -24.487117767333984 -0.9999998211860657 1.0000019073486328 -22.487117767333984 0.7610998749732971 -0.9999980926513672 -24.487117767333984 0.7610998749732971 1.0000019073486328 -24.487117767333984 0.7610998749732971 -53.98174285888672 -22.487117767333984 0.7610999345779419 -53.98174285888672 -24.487117767333984 -0.9999996423721313 -53.98174285888672 -22.487117767333984 -0.9999996423721313 -53.98174285888672 -24.487117767333984 0.7610999345779419 -55.98174285888672 -24.487117767333984 -0.9999996423721313 -53.98174285888672 -24.487117767333984 -0.9999996423721313 -55.98174285888672 -24.487117767333984 0.7610999345779419 -55.98174285888672 -22.487117767333984 -0.9999996423721313 -55.98174285888672 -24.487117767333984 -0.9999996423721313 -55.98174285888672 -22.487117767333984 0.7610999345779419 -53.98174285888672 -22.487117767333984 -0.9999996423721313 -55.98174285888672 -22.487117767333984 -0.9999996423721313 -55.98174285888672 -24.487117767333984 -0.9999996423721313 -53.98174285888672 -22.487117767333984 -0.9999996423721313 -53.98174285888672 -24.487117767333984 -0.9999996423721313 -53.98174285888672 -24.487117767333984 0.7610999345779419 -55.98174285888672 -22.487117767333984 0.7610999345779419 -55.98174285888672 -24.487117767333984 0.7610999345779419 -1.9558067321777344 -27.90216827392578 0.7949453592300415 -53.02593231201172 -27.90216827392578 0.7040109634399414 -1.9558067321777344 -27.90216827392578 0.7040109634399414 4.111932754516602 1.3125972747802734 0.7949453592300415 4.111932754516602 -24.799715042114258 0.7040109634399414 4.111932754516602 1.3125972747802734 0.7040109634399414 -53.02593231201172 1.3125972747802734 0.8057494759559631 -1.9558067321777344 -24.799715042114258 0.8057494759559631 -1.9558067321777344 1.3125972747802734 0.8057494759559631 -59.09367370605469 -24.799715042114258 0.7949453592300415 -59.09367370605469 1.3125972747802734 0.7040109634399414 -59.09367370605469 -24.799715042114258 0.7040109634399414 -53.02593231201172 4.415050506591797 0.7949453592300415 -1.9558067321777344 4.415050506591797 0.7040109634399414 -53.02593231201172 4.415050506591797 0.7040109634399414 -53.02593231201172 -24.799715042114258 0.6932068467140198 -56.529144287109375 -26.590917587280273 0.6977732181549072 -57.31647491455078 -24.799715042114258 0.69637131690979 -53.02593231201172 -27.90216827392578 0.7040109634399414 -56.529144287109375 -26.590917587280273 0.6977732181549072 -53.02593231201172 -26.993480682373047 0.69637131690979 -57.31647491455078 -24.799715042114258 0.69637131690979 -57.31647491455078 -26.993480682373047 0.7040109634399414 -59.09367370605469 -24.799715042114258 0.7040109634399414 -53.02593231201172 -27.90216827392578 0.7949453592300415 -56.529144287109375 -26.590917587280273 0.8011831045150757 -57.31647491455078 -26.993480682373047 0.7949453592300415 -53.02593231201172 -24.799715042114258 0.8057494759559631 -56.529144287109375 -26.590917587280273 0.8011831045150757 -53.02593231201172 -26.993480682373047 0.8025850057601929 -57.31647491455078 -26.993480682373047 0.7949453592300415 -57.31647491455078 -24.799715042114258 0.8025850057601929 -59.09367370605469 -24.799715042114258 0.7949453592300415 -53.02593231201172 1.3125972747802734 0.6932068467140198 -56.529144287109375 3.103799819946289 0.6977732181549072 -53.02593231201172 3.5063629150390625 0.69637131690979 -57.31647491455078 3.5063629150390625 0.7040109634399414 -57.31647491455078 1.3125972747802734 0.69637131690979 -59.09367370605469 1.3125972747802734 0.7040109634399414 -53.02593231201172 4.415050506591797 0.7040109634399414 -56.529144287109375 3.103799819946289 0.6977732181549072 -57.31647491455078 3.5063629150390625 0.7040109634399414 -53.02593231201172 1.3125972747802734 0.8057494759559631 -56.529144287109375 3.103799819946289 0.8011831045150757 -57.31647491455078 1.3125972747802734 0.8025850057601929 -53.02593231201172 4.415050506591797 0.7949453592300415 -56.529144287109375 3.103799819946289 0.8011831045150757 -53.02593231201172 3.5063629150390625 0.8025850057601929 -57.31647491455078 1.3125972747802734 0.8025850057601929 -57.31647491455078 3.5063629150390625 0.7949453592300415 -59.09367370605469 1.3125972747802734 0.7949453592300415 -1.9558067321777344 -24.799715042114258 0.6932068467140198 1.5474052429199219 -26.590917587280273 0.6977732181549072 -1.9558067321777344 -26.993480682373047 0.69637131690979 2.3347339630126953 -26.993480682373047 0.7040109634399414 2.3347339630126953 -24.799715042114258 0.69637131690979 4.111932754516602 -24.799715042114258 0.7040109634399414 -1.9558067321777344 -27.90216827392578 0.7040109634399414 1.5474052429199219 -26.590917587280273 0.6977732181549072 2.3347339630126953 -26.993480682373047 0.7040109634399414 -1.9558067321777344 -24.799715042114258 0.8057494759559631 1.5474052429199219 -26.590917587280273 0.8011831045150757 2.3347339630126953 -24.799715042114258 0.8025850057601929 -1.9558067321777344 -27.90216827392578 0.7949453592300415 1.5474052429199219 -26.590917587280273 0.8011831045150757 -1.9558067321777344 -26.993480682373047 0.8025850057601929 2.3347339630126953 -24.799715042114258 0.8025850057601929 2.3347339630126953 -26.993480682373047 0.7949453592300415 4.111932754516602 -24.799715042114258 0.7949453592300415 -1.9558067321777344 1.3125972747802734 0.6932068467140198 1.5474052429199219 3.103799819946289 0.6977732181549072 2.3347339630126953 1.3125972747802734 0.69637131690979 -1.9558067321777344 4.415050506591797 0.7040109634399414 1.5474052429199219 3.103799819946289 0.6977732181549072 -1.9558067321777344 3.5063629150390625 0.69637131690979 2.3347339630126953 1.3125972747802734 0.69637131690979 2.3347339630126953 3.5063629150390625 0.7040109634399414 4.111932754516602 1.3125972747802734 0.7040109634399414 -1.9558067321777344 1.3125972747802734 0.8057494759559631 1.5474052429199219 3.103799819946289 0.8011831045150757 -1.9558067321777344 3.5063629150390625 0.8025850057601929 2.3347339630126953 3.5063629150390625 0.7949453592300415 2.3347339630126953 1.3125972747802734 0.8025850057601929 4.111932754516602 1.3125972747802734 0.7949453592300415 -1.9558067321777344 4.415050506591797 0.7949453592300415 1.5474052429199219 3.103799819946289 0.8011831045150757 2.3347339630126953 3.5063629150390625 0.7949453592300415 -53.02593231201172 -24.799715042114258 0.6932068467140198 -57.31647491455078 1.3125972747802734 0.69637131690979 -53.02593231201172 1.3125972747802734 0.6932068467140198 -57.31647491455078 -24.799715042114258 0.69637131690979 -59.09367370605469 1.3125972747802734 0.7040109634399414 -57.31647491455078 1.3125972747802734 0.69637131690979 -53.02593231201172 -27.90216827392578 0.7949453592300415 -57.31647491455078 -26.993480682373047 0.7040109634399414 -53.02593231201172 -27.90216827392578 0.7040109634399414 -57.31647491455078 -26.993480682373047 0.7949453592300415 -59.09367370605469 -24.799715042114258 0.7040109634399414 -57.31647491455078 -26.993480682373047 0.7040109634399414 -53.02593231201172 1.3125972747802734 0.8057494759559631 -57.31647491455078 -24.799715042114258 0.8025850057601929 -53.02593231201172 -24.799715042114258 0.8057494759559631 -57.31647491455078 1.3125972747802734 0.8025850057601929 -59.09367370605469 -24.799715042114258 0.7949453592300415 -57.31647491455078 -24.799715042114258 0.8025850057601929 -53.02593231201172 4.415050506591797 0.7040109634399414 -57.31647491455078 3.5063629150390625 0.7949453592300415 -53.02593231201172 4.415050506591797 0.7949453592300415 -57.31647491455078 3.5063629150390625 0.7040109634399414 -59.09367370605469 1.3125972747802734 0.7949453592300415 -57.31647491455078 3.5063629150390625 0.7949453592300415 -53.02593231201172 1.3125972747802734 0.6932068467140198 -1.9558067321777344 3.5063629150390625 0.69637131690979 -1.9558067321777344 1.3125972747802734 0.6932068467140198 -53.02593231201172 3.5063629150390625 0.69637131690979 -1.9558067321777344 4.415050506591797 0.7040109634399414 -1.9558067321777344 3.5063629150390625 0.69637131690979 -1.9558067321777344 1.3125972747802734 0.8057494759559631 -53.02593231201172 3.5063629150390625 0.8025850057601929 -53.02593231201172 1.3125972747802734 0.8057494759559631 -1.9558067321777344 3.5063629150390625 0.8025850057601929 -53.02593231201172 4.415050506591797 0.7949453592300415 -53.02593231201172 3.5063629150390625 0.8025850057601929 4.111932754516602 1.3125972747802734 0.7040109634399414 2.3347339630126953 3.5063629150390625 0.7949453592300415 4.111932754516602 1.3125972747802734 0.7949453592300415 2.3347339630126953 3.5063629150390625 0.7040109634399414 -1.9558067321777344 4.415050506591797 0.7949453592300415 2.3347339630126953 3.5063629150390625 0.7949453592300415 -1.9558067321777344 1.3125972747802734 0.6932068467140198 2.3347339630126953 -24.799715042114258 0.69637131690979 -1.9558067321777344 -24.799715042114258 0.6932068467140198 2.3347339630126953 1.3125972747802734 0.69637131690979 4.111932754516602 -24.799715042114258 0.7040109634399414 2.3347339630126953 -24.799715042114258 0.69637131690979 -1.9558067321777344 -24.799715042114258 0.8057494759559631 2.3347339630126953 1.3125972747802734 0.8025850057601929 -1.9558067321777344 1.3125972747802734 0.8057494759559631 2.3347339630126953 -24.799715042114258 0.8025850057601929 4.111932754516602 1.3125972747802734 0.7949453592300415 2.3347339630126953 1.3125972747802734 0.8025850057601929 -1.9558067321777344 -27.90216827392578 0.7040109634399414 2.3347339630126953 -26.993480682373047 0.7949453592300415 -1.9558067321777344 -27.90216827392578 0.7949453592300415 2.3347339630126953 -26.993480682373047 0.7040109634399414 4.111932754516602 -24.799715042114258 0.7949453592300415 2.3347339630126953 -26.993480682373047 0.7949453592300415 -1.9558067321777344 -24.799715042114258 0.6932068467140198 -53.02593231201172 -26.993480682373047 0.69637131690979 -53.02593231201172 -24.799715042114258 0.6932068467140198 -1.9558067321777344 -26.993480682373047 0.69637131690979 -53.02593231201172 -27.90216827392578 0.7040109634399414 -53.02593231201172 -26.993480682373047 0.69637131690979 -53.02593231201172 -24.799715042114258 0.8057494759559631 -1.9558067321777344 -26.993480682373047 0.8025850057601929 -1.9558067321777344 -24.799715042114258 0.8057494759559631 -53.02593231201172 -26.993480682373047 0.8025850057601929 -1.9558067321777344 -27.90216827392578 0.7949453592300415 -1.9558067321777344 -26.993480682373047 0.8025850057601929 -1.9558067321777344 1.3125972747802734 0.6932068467140198 -53.02593231201172 -24.799715042114258 0.6932068467140198 -53.02593231201172 1.3125972747802734 0.6932068467140198 -1.0 1.0 0.7610998153686523 1.0 1.0 0.7610998153686523 1.0 -1.0 0.7610998153686523 -1.0 -1.0 0.7610998153686523 1.0 -1.0 -1.0 -1.0 -1.0 0.7610998153686523 -53.98174285888672 1.0 0.7610998749732971 -55.98174285888672 1.0 0.7610998749732971 -55.98174285888672 -1.0 0.7610998749732971 -53.98174285888672 -1.0 0.7610998749732971 -55.98174285888672 -1.0 -0.9999998211860657 -53.98174285888672 -1.0 0.7610998749732971 -0.9999980926513672 -24.487117767333984 0.7610998749732971 1.0000019073486328 -24.487117767333984 0.7610998749732971 1.0000019073486328 -22.487117767333984 0.7610998749732971 -0.9999980926513672 -22.487117767333984 0.7610998749732971 1.0000019073486328 -22.487117767333984 -0.9999998211860657 -0.9999980926513672 -22.487117767333984 0.7610998749732971 -53.98174285888672 -24.487117767333984 0.7610999345779419 -55.98174285888672 -24.487117767333984 0.7610999345779419 -55.98174285888672 -22.487117767333984 0.7610999345779419 -53.98174285888672 -22.487117767333984 0.7610999345779419 -55.98174285888672 -22.487117767333984 -0.9999996423721313 -53.98174285888672 -22.487117767333984 0.7610999345779419 -53.02593231201172 -27.90216827392578 0.7949453592300415 4.111932754516602 -24.799715042114258 0.7949453592300415 -53.02593231201172 -24.799715042114258 0.8057494759559631 -59.09367370605469 1.3125972747802734 0.7949453592300415 -1.9558067321777344 4.415050506591797 0.7949453592300415 -53.02593231201172 -24.799715042114258 0.6932068467140198 -53.02593231201172 -26.993480682373047 0.69637131690979 -56.529144287109375 -26.590917587280273 0.6977732181549072 -53.02593231201172 -27.90216827392578 0.7040109634399414 -57.31647491455078 -26.993480682373047 0.7040109634399414 -56.529144287109375 -26.590917587280273 0.6977732181549072 -57.31647491455078 -24.799715042114258 0.69637131690979 -56.529144287109375 -26.590917587280273 0.6977732181549072 -57.31647491455078 -26.993480682373047 0.7040109634399414 -53.02593231201172 -27.90216827392578 0.7949453592300415 -53.02593231201172 -26.993480682373047 0.8025850057601929 -56.529144287109375 -26.590917587280273 0.8011831045150757 -53.02593231201172 -24.799715042114258 0.8057494759559631 -57.31647491455078 -24.799715042114258 0.8025850057601929 -56.529144287109375 -26.590917587280273 0.8011831045150757 -57.31647491455078 -26.993480682373047 0.7949453592300415 -56.529144287109375 -26.590917587280273 0.8011831045150757 -57.31647491455078 -24.799715042114258 0.8025850057601929 -53.02593231201172 1.3125972747802734 0.6932068467140198 -57.31647491455078 1.3125972747802734 0.69637131690979 -56.529144287109375 3.103799819946289 0.6977732181549072 -57.31647491455078 3.5063629150390625 0.7040109634399414 -56.529144287109375 3.103799819946289 0.6977732181549072 -57.31647491455078 1.3125972747802734 0.69637131690979 -53.02593231201172 4.415050506591797 0.7040109634399414 -53.02593231201172 3.5063629150390625 0.69637131690979 -56.529144287109375 3.103799819946289 0.6977732181549072 -53.02593231201172 1.3125972747802734 0.8057494759559631 -53.02593231201172 3.5063629150390625 0.8025850057601929 -56.529144287109375 3.103799819946289 0.8011831045150757 -53.02593231201172 4.415050506591797 0.7949453592300415 -57.31647491455078 3.5063629150390625 0.7949453592300415 -56.529144287109375 3.103799819946289 0.8011831045150757 -57.31647491455078 1.3125972747802734 0.8025850057601929 -56.529144287109375 3.103799819946289 0.8011831045150757 -57.31647491455078 3.5063629150390625 0.7949453592300415 -1.9558067321777344 -24.799715042114258 0.6932068467140198 2.3347339630126953 -24.799715042114258 0.69637131690979 1.5474052429199219 -26.590917587280273 0.6977732181549072 2.3347339630126953 -26.993480682373047 0.7040109634399414 1.5474052429199219 -26.590917587280273 0.6977732181549072 2.3347339630126953 -24.799715042114258 0.69637131690979 -1.9558067321777344 -27.90216827392578 0.7040109634399414 -1.9558067321777344 -26.993480682373047 0.69637131690979 1.5474052429199219 -26.590917587280273 0.6977732181549072 -1.9558067321777344 -24.799715042114258 0.8057494759559631 -1.9558067321777344 -26.993480682373047 0.8025850057601929 1.5474052429199219 -26.590917587280273 0.8011831045150757 -1.9558067321777344 -27.90216827392578 0.7949453592300415 2.3347339630126953 -26.993480682373047 0.7949453592300415 1.5474052429199219 -26.590917587280273 0.8011831045150757 2.3347339630126953 -24.799715042114258 0.8025850057601929 1.5474052429199219 -26.590917587280273 0.8011831045150757 2.3347339630126953 -26.993480682373047 0.7949453592300415 -1.9558067321777344 1.3125972747802734 0.6932068467140198 -1.9558067321777344 3.5063629150390625 0.69637131690979 1.5474052429199219 3.103799819946289 0.6977732181549072 -1.9558067321777344 4.415050506591797 0.7040109634399414 2.3347339630126953 3.5063629150390625 0.7040109634399414 1.5474052429199219 3.103799819946289 0.6977732181549072 2.3347339630126953 1.3125972747802734 0.69637131690979 1.5474052429199219 3.103799819946289 0.6977732181549072 2.3347339630126953 3.5063629150390625 0.7040109634399414 -1.9558067321777344 1.3125972747802734 0.8057494759559631 2.3347339630126953 1.3125972747802734 0.8025850057601929 1.5474052429199219 3.103799819946289 0.8011831045150757 2.3347339630126953 3.5063629150390625 0.7949453592300415 1.5474052429199219 3.103799819946289 0.8011831045150757 2.3347339630126953 1.3125972747802734 0.8025850057601929 -1.9558067321777344 4.415050506591797 0.7949453592300415 -1.9558067321777344 3.5063629150390625 0.8025850057601929 1.5474052429199219 3.103799819946289 0.8011831045150757 -53.02593231201172 -24.799715042114258 0.6932068467140198 -57.31647491455078 -24.799715042114258 0.69637131690979 -57.31647491455078 1.3125972747802734 0.69637131690979 -57.31647491455078 -24.799715042114258 0.69637131690979 -59.09367370605469 -24.799715042114258 0.7040109634399414 -59.09367370605469 1.3125972747802734 0.7040109634399414 -53.02593231201172 -27.90216827392578 0.7949453592300415 -57.31647491455078 -26.993480682373047 0.7949453592300415 -57.31647491455078 -26.993480682373047 0.7040109634399414 -57.31647491455078 -26.993480682373047 0.7949453592300415 -59.09367370605469 -24.799715042114258 0.7949453592300415 -59.09367370605469 -24.799715042114258 0.7040109634399414 -53.02593231201172 1.3125972747802734 0.8057494759559631 -57.31647491455078 1.3125972747802734 0.8025850057601929 -57.31647491455078 -24.799715042114258 0.8025850057601929 -57.31647491455078 1.3125972747802734 0.8025850057601929 -59.09367370605469 1.3125972747802734 0.7949453592300415 -59.09367370605469 -24.799715042114258 0.7949453592300415 -53.02593231201172 4.415050506591797 0.7040109634399414 -57.31647491455078 3.5063629150390625 0.7040109634399414 -57.31647491455078 3.5063629150390625 0.7949453592300415 -57.31647491455078 3.5063629150390625 0.7040109634399414 -59.09367370605469 1.3125972747802734 0.7040109634399414 -59.09367370605469 1.3125972747802734 0.7949453592300415 -53.02593231201172 1.3125972747802734 0.6932068467140198 -53.02593231201172 3.5063629150390625 0.69637131690979 -1.9558067321777344 3.5063629150390625 0.69637131690979 -53.02593231201172 3.5063629150390625 0.69637131690979 -53.02593231201172 4.415050506591797 0.7040109634399414 -1.9558067321777344 4.415050506591797 0.7040109634399414 -1.9558067321777344 1.3125972747802734 0.8057494759559631 -1.9558067321777344 3.5063629150390625 0.8025850057601929 -53.02593231201172 3.5063629150390625 0.8025850057601929 -1.9558067321777344 3.5063629150390625 0.8025850057601929 -1.9558067321777344 4.415050506591797 0.7949453592300415 -53.02593231201172 4.415050506591797 0.7949453592300415 4.111932754516602 1.3125972747802734 0.7040109634399414 2.3347339630126953 3.5063629150390625 0.7040109634399414 2.3347339630126953 3.5063629150390625 0.7949453592300415 2.3347339630126953 3.5063629150390625 0.7040109634399414 -1.9558067321777344 4.415050506591797 0.7040109634399414 -1.9558067321777344 4.415050506591797 0.7949453592300415 2.3347339630126953 1.3125972747802734 0.69637131690979 2.3347339630126953 1.3125972747802734 0.69637131690979 4.111932754516602 1.3125972747802734 0.7040109634399414 4.111932754516602 -24.799715042114258 0.7040109634399414 -1.9558067321777344 -24.799715042114258 0.8057494759559631 2.3347339630126953 -24.799715042114258 0.8025850057601929 2.3347339630126953 1.3125972747802734 0.8025850057601929 2.3347339630126953 -24.799715042114258 0.8025850057601929 4.111932754516602 -24.799715042114258 0.7949453592300415 4.111932754516602 1.3125972747802734 0.7949453592300415 -1.9558067321777344 -27.90216827392578 0.7040109634399414 2.3347339630126953 -26.993480682373047 0.7040109634399414 2.3347339630126953 -26.993480682373047 0.7949453592300415 2.3347339630126953 -26.993480682373047 0.7040109634399414 4.111932754516602 -24.799715042114258 0.7040109634399414 4.111932754516602 -24.799715042114258 0.7949453592300415 -1.9558067321777344 -24.799715042114258 0.6932068467140198 -1.9558067321777344 -26.993480682373047 0.69637131690979 -53.02593231201172 -26.993480682373047 0.69637131690979 -1.9558067321777344 -26.993480682373047 0.69637131690979 -1.9558067321777344 -27.90216827392578 0.7040109634399414 -53.02593231201172 -27.90216827392578 0.7040109634399414 -53.02593231201172 -24.799715042114258 0.8057494759559631 -53.02593231201172 -26.993480682373047 0.8025850057601929 -1.9558067321777344 -26.993480682373047 0.8025850057601929 -53.02593231201172 -26.993480682373047 0.8025850057601929 -53.02593231201172 -27.90216827392578 0.7949453592300415 -1.9558067321777344 -27.90216827392578 0.7949453592300415 -1.9558067321777344 -24.799715042114258 0.6932068467140198</float_array>
				<technique_common>
				<accessor source="#id-mesh-4-positions-array" count="406" stride="3">
					<param name="X" type="float"/>
					<param name="Y" type="float"/>
					<param name="Z" type="float"/>
				</accessor>
				</technique_common>
			</source>
			<source id="id-mesh-4-normals">
				<float_array id="id-mesh-4-normals-array" count="1218"> -1.0 0.0 0.0 -1.0 0.0 0.0 -1.0 0.0 0.0 0.0 1.0 0.0 0.0 1.0 0.0 0.0 1.0 0.0 1.0 0.0 0.0 1.0 0.0 0.0 1.0 0.0 0.0 0.0 -1.0 0.0 0.0 -1.0 0.0 0.0 -1.0 0.0 0.0 0.0 -1.0 0.0 0.0 -1.0 0.0 0.0 -1.0 0.0 0.0 1.0 0.0 0.0 1.0 0.0 0.0 1.0 1.0 0.0 0.0 1.0 0.0 0.0 1.0 0.0 0.0 0.0 1.0 0.0 0.0 1.0 0.0 0.0 1.0 0.0 -1.0 0.0 0.0 -1.0 0.0 0.0 -1.0 0.0 0.0 0.0 -1.0 0.0 0.0 -1.0 0.0 0.0 -1.0 0.0 0.0 0.0 -1.0 0.0 0.0 -1.0 0.0 0.0 -1.0 0.0 0.0 1.0 0.0 0.0 1.0 0.0 0.0 1.0 -1.0 0.0 0.0 -1.0 0.0 0.0 -1.0 0.0 0.0 0.0 -1.0 0.0 0.0 -1.0 0.0 0.0 -1.0 0.0 1.0 0.0 0.0 1.0 0.0 0.0 1.0 0.0 0.0 0.0 1.0 0.0 0.0 1.0 0.0 0.0 1.0 0.0 0.0 0.0 -1.0 0.0 0.0 -1.0 0.0 0.0 -1.0 0.0 0.0 1.0 0.0 0.0 1.0 0.0 0.0 1.0 1.0 0.0 0.0 1.0 0.0 0.0 1.0 0.0 0.0 0.0 -1.0 0.0 0.0 -1.0 0.0 0.0 -1.0 0.0 -1.0 0.0 0.0 -1.0 0.0 0.0 -1.0 0.0 0.0 0.0 1.0 0.0 0.0 1.0 0.0 0.0 1.0 0.0 0.0 0.0 -1.0 0.0 0.0 -1.0 0.0 0.0 -1.0 0.0 0.0 1.0 0.0 0.0 1.0 0.0 0.0 1.0 0.0 -1.0 0.0 0.0 -1.0 0.0 0.0 -1.0 0.0 1.0 0.0 0.0 1.0 0.0 0.0 1.0 0.0 0.0 0.0 0.0 1.0 0.0 0.0 1.0 0.0 0.0 1.0 -1.0 0.0 0.0 -1.0 0.0 0.0 -1.0 0.0 0.0 0.0 1.0 0.0 0.0 1.0 0.0 0.0 1.0 0.0 -0.0007375712739303708 -0.001106849405914545 -0.9999991655349731 -0.0007375712739303708 -0.001106849405914545 -0.9999991655349731 -0.0007375712739303708 -0.001106849405914545 -0.9999991655349731 -0.0013662008568644524 -0.008407008834183216 -0.9999637603759766 -0.0013662008568644524 -0.008407008834183216 -0.9999637603759766 -0.0013662008568644524 -0.008407008834183216 -0.9999637603759766 -0.0042986455373466015 -0.0034823950845748186 -0.9999847412109375 -0.0042986455373466015 -0.0034823950845748186 -0.9999847412109375 -0.0042986455373466015 -0.0034823950845748186 -0.9999847412109375 -0.002320376457646489 -0.010955987498164177 0.9999372363090515 -0.002320376457646489 -0.010955987498164177 0.9999372363090515 -0.002320376457646489 -0.010955987498164177 0.9999372363090515 -0.000565935974009335 -0.0014424812979996204 0.9999988675117493 -0.000565935974009335 -0.0014424812979996204 0.9999988675117493 -0.000565935974009335 -0.0014424812979996204 0.9999988675117493 -0.0042986455373466015 -0.0034823950845748186 0.9999847412109375 -0.0042986455373466015 -0.0034823950845748186 0.9999847412109375 -0.0042986455373466015 -0.0034823950845748186 0.9999847412109375 -0.0005659204325638711 0.0014424812979996204 -0.9999988675117493 -0.0005659204325638711 0.0014424812979996204 -0.9999988675117493 -0.0005659204325638711 0.0014424812979996204 -0.9999988675117493 -0.004298646003007889 0.003482395550236106 -0.9999847412109375 -0.004298646003007889 0.003482395550236106 -0.9999847412109375 -0.004298646003007889 0.003482395550236106 -0.9999847412109375 -0.002320372499525547 0.01095596794039011 -0.9999372363090515 -0.002320372499525547 0.01095596794039011 -0.9999372363090515 -0.002320372499525547 0.01095596794039011 -0.9999372363090515 -0.0007375701097771525 0.0011068476596847177 0.9999991059303284 -0.0007375701097771525 0.0011068476596847177 0.9999991059303284 -0.0007375701097771525 0.0011068476596847177 0.9999991059303284 -0.0013662049314007163 0.00840703397989273 0.9999637007713318 -0.0013662049314007163 0.00840703397989273 0.9999637007713318 -0.0013662049314007163 0.00840703397989273 0.9999637007713318 -0.004298646003007889 0.003482395550236106 0.9999847412109375 -0.004298646003007889 0.003482395550236106 0.9999847412109375 -0.004298646003007889 0.003482395550236106 0.9999847412109375 0.0005659204325638711 -0.001442481530830264 -0.9999988675117493 0.0005659204325638711 -0.001442481530830264 -0.9999988675117493 0.0005659204325638711 -0.001442481530830264 -0.9999988675117493 0.0042986455373466015 -0.0034823815803974867 -0.9999847412109375 0.0042986455373466015 -0.0034823815803974867 -0.9999847412109375 0.0042986455373466015 -0.0034823815803974867 -0.9999847412109375 0.002320379950106144 -0.010955995880067348 -0.9999372363090515 0.002320379950106144 -0.010955995880067348 -0.9999372363090515 0.002320379950106144 -0.010955995880067348 -0.9999372363090515 0.0007375716231763363 -0.0011068506864830852 0.9999991059303284 0.0007375716231763363 -0.0011068506864830852 0.9999991059303284 0.0007375716231763363 -0.0011068506864830852 0.9999991059303284 0.0013662008568644524 -0.008407012559473515 0.9999637603759766 0.0013662008568644524 -0.008407012559473515 0.9999637603759766 0.0013662008568644524 -0.008407012559473515 0.9999637603759766 0.0042986455373466015 -0.0034823815803974867 0.9999847412109375 0.0042986455373466015 -0.0034823815803974867 0.9999847412109375 0.0042986455373466015 -0.0034823815803974867 0.9999847412109375 0.0007375705172307789 0.0011068490566685796 -0.9999991655349731 0.0007375705172307789 0.0011068490566685796 -0.9999991655349731 0.0007375705172307789 0.0011068490566685796 -0.9999991655349731 0.0013662049314007163 0.008407036773860455 -0.9999637007713318 0.0013662049314007163 0.008407036773860455 -0.9999637007713318 0.0013662049314007163 0.008407036773860455 -0.9999637007713318 0.004298646003007889 0.003482382046058774 -0.9999847412109375 0.004298646003007889 0.003482382046058774 -0.9999847412109375 0.004298646003007889 0.003482382046058774 -0.9999847412109375 0.000565935974009335 0.001442481530830264 0.9999988675117493 0.000565935974009335 0.001442481530830264 0.9999988675117493 0.000565935974009335 0.001442481530830264 0.9999988675117493 0.004298646003007889 0.003482382046058774 0.9999847412109375 0.004298646003007889 0.003482382046058774 0.9999847412109375 0.004298646003007889 0.003482382046058774 0.9999847412109375 0.0023203750606626272 0.010955972597002983 0.9999372363090515 0.0023203750606626272 0.010955972597002983 0.9999372363090515 0.0023203750606626272 0.010955972597002983 0.9999372363090515 -0.0007375320419669151 0.0 -0.9999997019767761 -0.0007375320419669151 0.0 -0.9999997019767761 -0.0007375320419669151 0.0 -0.9999997019767761 -0.004298678133636713 0.0 -0.9999908208847046 -0.004298678133636713 0.0 -0.9999908208847046 -0.004298678133636713 0.0 -0.9999908208847046 -0.20719262957572937 -0.9783002138137817 0.0 -0.20719262957572937 -0.9783002138137817 0.0 -0.20719262957572937 -0.9783002138137817 0.0 -0.7770206332206726 -0.6294751763343811 0.0 -0.7770206332206726 -0.6294751763343811 0.0 -0.7770206332206726 -0.6294751763343811 0.0 -0.0007375320419669151 0.0 0.9999997615814209 -0.0007375320419669151 0.0 0.9999997615814209 -0.0007375320419669151 0.0 0.9999997615814209 -0.004298677202314138 0.0 0.9999907612800598 -0.004298677202314138 0.0 0.9999907612800598 -0.004298677202314138 0.0 0.9999907612800598 -0.20719291269779205 0.978300154209137 0.0 -0.20719291269779205 0.978300154209137 0.0 -0.20719291269779205 0.978300154209137 0.0 -0.7770202159881592 0.6294755935668945 0.0 -0.7770202159881592 0.6294755935668945 0.0 -0.7770202159881592 0.6294755935668945 0.0 0.0 0.0014424817636609077 -0.9999989867210388 0.0 0.0014424817636609077 -0.9999989867210388 0.0 0.0014424817636609077 -0.9999989867210388 0.0 0.008407042361795902 -0.999964714050293 0.0 0.008407042361795902 -0.999964714050293 0.0 0.008407042361795902 -0.999964714050293 0.0 0.0014424817636609077 0.9999989867210388 0.0 0.0014424817636609077 0.9999989867210388 0.0 0.0014424817636609077 0.9999989867210388 0.0 0.008407043293118477 0.999964714050293 0.0 0.008407043293118477 0.999964714050293 0.0 0.008407043293118477 0.999964714050293 0.7770205140113831 0.6294751167297363 0.0 0.7770205140113831 0.6294751167297363 0.0 0.7770205140113831 0.6294751167297363 0.0 0.20719291269779205 0.978300154209137 0.0 0.20719291269779205 0.978300154209137 0.0 0.20719291269779205 0.978300154209137 0.0 0.0007375323330052197 0.0 -0.9999997019767761 0.0007375323330052197 0.0 -0.9999997019767761 0.0007375323330052197 0.0 -0.9999997019767761 0.004298677202314138 0.0 -0.9999907612800598 0.004298677202314138 0.0 -0.9999907612800598 0.004298677202314138 0.0 -0.9999907612800598 0.0007375323330052197 0.0 0.9999997019767761 0.0007375323330052197 0.0 0.9999997019767761 0.0007375323330052197 0.0 0.9999997019767761 0.004298678133636713 0.0 0.9999908208847046 0.004298678133636713 0.0 0.9999908208847046 0.004298678133636713 0.0 0.9999908208847046 0.20719291269779205 -0.978300154209137 0.0 0.20719291269779205 -0.978300154209137 0.0 0.20719291269779205 -0.978300154209137 0.0 0.7770206332206726 -0.6294750571250916 0.0 0.7770206332206726 -0.6294750571250916 0.0 0.7770206332206726 -0.6294750571250916 0.0 0.0 -0.0014424786204472184 -0.9999989867210388 0.0 -0.0014424786204472184 -0.9999989867210388 0.0 -0.0014424786204472184 -0.9999989867210388 0.0 -0.008407052606344223 -0.9999645948410034 0.0 -0.008407052606344223 -0.9999645948410034 0.0 -0.008407052606344223 -0.9999645948410034 0.0 -0.0014424786204472184 0.9999989867210388 0.0 -0.0014424786204472184 0.9999989867210388 0.0 -0.0014424786204472184 0.9999989867210388 0.0 -0.008407052606344223 0.9999645948410034 0.0 -0.008407052606344223 0.9999645948410034 0.0 -0.008407052606344223 0.9999645948410034 0.0 0.0 -1.0 0.0 0.0 -1.0 0.0 0.0 -1.0 -1.0 0.0 0.0 0.0 1.0 0.0 1.0 0.0 0.0 0.0 -1.0 0.0 0.0 0.0 -1.0 0.0 0.0 1.0 1.0 0.0 0.0 0.0 1.0 0.0 -1.0 0.0 0.0 0.0 -1.0 0.0 0.0 0.0 -1.0 0.0 0.0 1.0 -1.0 0.0 0.0 0.0 -1.0 0.0 1.0 0.0 0.0 0.0 1.0 0.0 0.0 0.0 -1.0 0.0 0.0 1.0 1.0 0.0 0.0 0.0 -1.0 0.0 -1.0 0.0 0.0 0.0 1.0 0.0 0.0 0.0 -1.0 0.0 0.0 1.0 0.0 -1.0 0.0 1.0 0.0 0.0 0.0 0.0 1.0 -1.0 0.0 0.0 0.0 1.0 0.0 -0.0005659204325638711 -0.0014424812979996204 -0.9999988675117493 -0.0005659204325638711 -0.0014424812979996204 -0.9999988675117493 -0.0005659204325638711 -0.0014424812979996204 -0.9999988675117493 -0.002320376457646489 -0.010955987498164177 -0.9999372363090515 -0.002320376457646489 -0.010955987498164177 -0.9999372363090515 -0.002320376457646489 -0.010955987498164177 -0.9999372363090515 -0.006141867954283953 -0.0034823231399059296 -0.9999750852584839 -0.006141867954283953 -0.0034823231399059296 -0.9999750852584839 -0.006141867954283953 -0.0034823231399059296 -0.9999750852584839 -0.0013662008568644524 -0.008407008834183216 0.9999637603759766 -0.0013662008568644524 -0.008407008834183216 0.9999637603759766 -0.0013662008568644524 -0.008407008834183216 0.9999637603759766 -0.0007375712739303708 -0.001106849405914545 0.9999991655349731 -0.0007375712739303708 -0.001106849405914545 0.9999991655349731 -0.0007375712739303708 -0.001106849405914545 0.9999991655349731 -0.0061419024132192135 -0.0034823231399059296 0.9999750852584839 -0.0061419024132192135 -0.0034823231399059296 0.9999750852584839 -0.0061419024132192135 -0.0034823231399059296 0.9999750852584839 -0.0007375701097771525 0.0011068476596847177 -0.9999991059303284 -0.0007375701097771525 0.0011068476596847177 -0.9999991059303284 -0.0007375701097771525 0.0011068476596847177 -0.9999991059303284 -0.0061419024132192135 0.0034823231399059296 -0.9999750852584839 -0.0061419024132192135 0.0034823231399059296 -0.9999750852584839 -0.0061419024132192135 0.0034823231399059296 -0.9999750852584839 -0.0013662049314007163 0.00840703397989273 -0.9999637007713318 -0.0013662049314007163 0.00840703397989273 -0.9999637007713318 -0.0013662049314007163 0.00840703397989273 -0.9999637007713318 -0.000565935974009335 0.0014424812979996204 0.9999988675117493 -0.000565935974009335 0.0014424812979996204 0.9999988675117493 -0.000565935974009335 0.0014424812979996204 0.9999988675117493 -0.002320372499525547 0.01095596794039011 0.9999372363090515 -0.002320372499525547 0.01095596794039011 0.9999372363090515 -0.002320372499525547 0.01095596794039011 0.9999372363090515 -0.006141936872154474 0.0034823231399059296 0.9999750852584839 -0.006141936872154474 0.0034823231399059296 0.9999750852584839 -0.006141936872154474 0.0034823231399059296 0.9999750852584839 0.0007375716231763363 -0.0011068506864830852 -0.9999991059303284 0.0007375716231763363 -0.0011068506864830852 -0.9999991059303284 0.0007375716231763363 -0.0011068506864830852 -0.9999991059303284 0.006141929887235165 -0.0034823566675186157 -0.9999750852584839 0.006141929887235165 -0.0034823566675186157 -0.9999750852584839 0.006141929887235165 -0.0034823566675186157 -0.9999750852584839 0.0013662008568644524 -0.008407012559473515 -0.9999637603759766 0.0013662008568644524 -0.008407012559473515 -0.9999637603759766 0.0013662008568644524 -0.008407012559473515 -0.9999637603759766 0.000565935974009335 -0.001442481530830264 0.9999988675117493 0.000565935974009335 -0.001442481530830264 0.9999988675117493 0.000565935974009335 -0.001442481530830264 0.9999988675117493 0.002320379950106144 -0.010955995880067348 0.9999372363090515 0.002320379950106144 -0.010955995880067348 0.9999372363090515 0.002320379950106144 -0.010955995880067348 0.9999372363090515 0.006141964346170425 -0.0034823569003492594 0.9999750852584839 0.006141964346170425 -0.0034823569003492594 0.9999750852584839 0.006141964346170425 -0.0034823569003492594 0.9999750852584839 0.0005659204325638711 0.001442481530830264 -0.9999988675117493 0.0005659204325638711 0.001442481530830264 -0.9999988675117493 0.0005659204325638711 0.001442481530830264 -0.9999988675117493 0.0023203750606626272 0.010955972597002983 -0.9999372363090515 0.0023203750606626272 0.010955972597002983 -0.9999372363090515 0.0023203750606626272 0.010955972597002983 -0.9999372363090515 0.006141881458461285 0.003482348984107375 -0.9999750256538391 0.006141881458461285 0.003482348984107375 -0.9999750256538391 0.006141881458461285 0.003482348984107375 -0.9999750256538391 0.0007375705172307789 0.0011068490566685796 0.9999991655349731 0.0007375705172307789 0.0011068490566685796 0.9999991655349731 0.0007375705172307789 0.0011068490566685796 0.9999991655349731 0.006141915917396545 0.0034823487512767315 0.9999750256538391 0.006141915917396545 0.0034823487512767315 0.9999750256538391 0.006141915917396545 0.0034823487512767315 0.9999750256538391 0.0013662049314007163 0.008407036773860455 0.9999637007713318 0.0013662049314007163 0.008407036773860455 0.9999637007713318 0.0013662049314007163 0.008407036773860455 0.9999637007713318 -0.0007375320419669151 0.0 -0.9999997615814209 -0.0007375320419669151 0.0 -0.9999997615814209 -0.0007375320419669151 0.0 -0.9999997615814209 -0.004298677202314138 0.0 -0.9999907612800598 -0.004298677202314138 0.0 -0.9999907612800598 -0.004298677202314138 0.0 -0.9999907612800598 -0.20719291269779205 -0.978300154209137 0.0 -0.20719291269779205 -0.978300154209137 0.0 -0.20719291269779205 -0.978300154209137 0.0 -0.7770202159881592 -0.6294755935668945 0.0 -0.7770202159881592 -0.6294755935668945 0.0 -0.7770202159881592 -0.6294755935668945 0.0 -0.0007375660934485495 0.0 0.9999997019767761 -0.0007375660934485495 0.0 0.9999997019767761 -0.0007375660934485495 0.0 0.9999997019767761 -0.004298596177250147 0.0 0.9999908208847046 -0.004298596177250147 0.0 0.9999908208847046 -0.004298596177250147 0.0 0.9999908208847046 -0.20719262957572937 0.9783002138137817 0.0 -0.20719262957572937 0.9783002138137817 0.0 -0.20719262957572937 0.9783002138137817 0.0 -0.7770206332206726 0.6294751763343811 0.0 -0.7770206332206726 0.6294751763343811 0.0 -0.7770206332206726 0.6294751763343811 0.0 0.0 0.0014424817636609077 -0.9999988675117493 0.0 0.0014424817636609077 -0.9999988675117493 0.0 0.0014424817636609077 -0.9999988675117493 0.0 0.008407043293118477 -0.999964714050293 0.0 0.008407043293118477 -0.999964714050293 0.0 0.008407043293118477 -0.999964714050293 0.0 0.0014424817636609077 0.9999988675117493 0.0 0.0014424817636609077 0.9999988675117493 0.0 0.0014424817636609077 0.9999988675117493 0.0 0.008407042361795902 0.999964714050293 0.0 0.008407042361795902 0.999964714050293 0.0 0.008407042361795902 0.999964714050293 0.7770211100578308 0.6294746994972229 0.0 0.7770211100578308 0.6294746994972229 0.0 0.7770211100578308 0.6294746994972229 0.0 0.20719262957572937 0.9783002138137817 0.0 0.20719262957572937 0.9783002138137817 0.0 0.20719262957572937 0.9783002138137817 0.0 0.0007375323330052197 0.0 -0.9999997019767761 0.004298678133636713 0.0 -0.9999908208847046 0.004298678133636713 0.0 -0.9999908208847046 0.004298678133636713 0.0 -0.9999908208847046 0.0007375663844868541 0.0 0.9999997019767761 0.0007375663844868541 0.0 0.9999997019767761 0.0007375663844868541 0.0 0.9999997019767761 0.004298595245927572 0.0 0.9999907612800598 0.004298595245927572 0.0 0.9999907612800598 0.004298595245927572 0.0 0.9999907612800598 0.20719262957572937 -0.9783002138137817 0.0 0.20719262957572937 -0.9783002138137817 0.0 0.20719262957572937 -0.9783002138137817 0.0 0.7770209908485413 -0.6294747591018677 0.0 0.7770209908485413 -0.6294747591018677 0.0 0.7770209908485413 -0.6294747591018677 0.0 0.0 -0.001442484906874597 -0.9999989867210388 0.0 -0.001442484906874597 -0.9999989867210388 0.0 -0.001442484906874597 -0.9999989867210388 0.0 -0.008407008834183216 -0.9999646544456482 0.0 -0.008407008834183216 -0.9999646544456482 0.0 -0.008407008834183216 -0.9999646544456482 0.0 -0.001442484906874597 0.9999989867210388 0.0 -0.001442484906874597 0.9999989867210388 0.0 -0.001442484906874597 0.9999989867210388 0.0 -0.00840700976550579 0.9999646544456482 0.0 -0.00840700976550579 0.9999646544456482 0.0 -0.00840700976550579 0.9999646544456482 0.0 0.0 -1.0</float_array>
				<technique_common>
				<accessor source="#id-mesh-4-normals-array" count="406" stride="3">
					<param name="X" type="float"/>
					<param name="Y" type="float"/>
					<param name="Z" type="float"/>
				</accessor>
				</technique_common>
			</source>
			<vertices id="id-mesh-4-vertices">
				<input semantic="POSITION" source="#id-mesh-4-positions"/>
			</vertices>
			<triangles count="156" material="id-trimat-5">
				<input semantic="VERTEX" source="#id-mesh-4-vertices" offset="0"/>
				<input semantic="NORMAL" source="#id-mesh-4-normals" offset="0"/>
				<p> 0 1 2 3 4 5 6 7 8 9 10 11 12 13 14 15 16 17 18 19 20 21 22 23 24 25 26 27 28 29 30 31 32 33 34 35 36 37 38 39 40 41 42 43 44 45 46 47 48 49 50 51 52 53 54 55 56 57 58 59 60 61 62 63 64 65 66 67 68 69 70 71 72 73 74 75 76 77 78 79 80 81 82 83 84 85 86 87 88 89 90 91 92 93 94 95 96 97 98 99 100 101 102 103 104 105 106 107 108 109 110 111 112 113 114 115 116 117 118 119 120 121 122 123 124 125 126 127 128 129 130 131 132 133 134 135 136 137 138 139 140 141 142 143 144 145 146 147 148 149 150 151 152 153 154 155 156 157 158 159 160 161 162 163 164 165 166 167 168 169 170 171 172 173 174 175 176 177 178 179 180 181 182 183 184 185 186 187 188 189 190 191 192 193 194 195 196 197 198 199 200 201 202 203 204 205 206 207 208 209 210 211 212 213 214 215 216 217 218 219 220 221 222 223 224 225 226 227 228 229 230 231 232 233 0 234 1 3 235 4 6 236 7 9 237 10 12 238 13 15 239 16 18 240 19 21 241 22 24 242 25 27 243 28 30 244 31 33 245 34 36 246 37 39 247 40 42 248 43 45 249 46 48 250 49 51 251 52 54 252 55 57 253 58 60 254 61 63 255 64 66 256 67 69 257 70 72 258 73 75 259 76 78 260 79 81 261 82 84 262 85 263 264 265 266 267 268 269 270 271 272 273 274 275 276 277 278 279 280 281 282 283 284 285 286 287 288 289 290 291 292 293 294 295 296 297 298 299 300 301 302 303 304 305 306 307 308 309 310 311 312 313 314 315 316 317 318 319 320 321 322 323 324 325 326 327 328 329 330 331 332 333 334 335 336 337 338 339 340 341 342 343 344 345 346 347 348 349 350 351 352 353 354 355 356 357 358 359 360 361 362 363 364 365 366 367 368 369 370 371 372 373 374 375 376 201 377 202 378 379 380 381 382 383 384 385 386 387 388 389 390 391 392 393 394 395 396 397 398 399 400 401 402 403 404 231 405 232 </p>
			</triangles>
		</mesh>
	</geometry>
</library_geometries>
<library_visual_scenes>
	<visual_scene id="id-scene-1" name="scene">
		<node id="Table" name="Table" type="NODE">
			<matrix sid="transform"> 0.12707188725471497 0.0 0.0 3.493316888809204 0.0 0.12707188725471497 0.0 1.4922761917114258 0.0 0.0 1.8463046550750732 1.839184284210205 0.0 0.0 0.0 1.0  </matrix>
			<instance_geometry url="#id-mesh-4">
				<bind_material>
					<technique_common>
						<instance_material symbol="id-trimat-5" target="#id-material-3"/>
					</technique_common>
				</bind_material>
			</instance_geometry>
		</node>
	</visual_scene>
</library_visual_scenes>
<scene>
	<instance_visual_scene url="#id-scene-1" />
</scene>
</COLLADA>
