[gd_scene load_steps=4 format=2]

[ext_resource path="res://models/table/Wood.material" type="Material" id=1]

[sub_resource type="BoxShape" id=1]

extents = Vector3( 4.10525, 1.66806, 2.10716 )

[sub_resource type="ArrayMesh" id=2]

surfaces/0 = {
"aabb": AABB( -59.0937, -1, -4.41505, 63.2056, 1.80575, 32.3172 ),
"array_data": PoolByteArray( 0, 0, 128, 191, 112, 215, 66, 63, 0, 0, 128, 63, 129, 0, 0, 0, 0, 0, 128, 191, 0, 0, 128, 191, 0, 0, 128, 191, 129, 0, 0, 0, 0, 0, 128, 191, 0, 0, 128, 191, 0, 0, 128, 63, 129, 0, 0, 0, 0, 0, 128, 191, 112, 215, 66, 63, 0, 0, 128, 191, 0, 0, 129, 0, 0, 0, 128, 63, 0, 0, 128, 191, 0, 0, 128, 191, 0, 0, 129, 0, 0, 0, 128, 191, 0, 0, 128, 191, 0, 0, 128, 191, 0, 0, 129, 0, 0, 0, 128, 63, 112, 215, 66, 63, 0, 0, 128, 191, 127, 0, 0, 0, 0, 0, 128, 63, 0, 0, 128, 191, 0, 0, 128, 63, 127, 0, 0, 0, 0, 0, 128, 63, 0, 0, 128, 191, 0, 0, 128, 191, 127, 0, 0, 0, 0, 0, 128, 63, 112, 215, 66, 63, 0, 0, 128, 63, 0, 0, 127, 0, 0, 0, 128, 191, 0, 0, 128, 191, 0, 0, 128, 63, 0, 0, 127, 0, 0, 0, 128, 63, 0, 0, 128, 191, 0, 0, 128, 63, 0, 0, 127, 0, 0, 0, 128, 63, 0, 0, 128, 191, 0, 0, 128, 191, 0, 129, 0, 0, 0, 0, 128, 191, 0, 0, 128, 191, 0, 0, 128, 63, 0, 129, 0, 0, 0, 0, 128, 191, 0, 0, 128, 191, 0, 0, 128, 191, 0, 129, 0, 0, 0, 0, 128, 191, 112, 215, 66, 63, 0, 0, 128, 191, 0, 127, 0, 0, 0, 0, 128, 63, 112, 215, 66, 63, 0, 0, 128, 63, 0, 127, 0, 0, 0, 0, 128, 63, 112, 215, 66, 63, 0, 0, 128, 191, 0, 127, 0, 0, 78, 237, 87, 194, 253, 255, 127, 191, 0, 0, 128, 191, 127, 0, 0, 0, 78, 237, 87, 194, 113, 215, 66, 63, 0, 0, 128, 63, 127, 0, 0, 0, 78, 237, 87, 194, 253, 255, 127, 191, 0, 0, 128, 63, 127, 0, 0, 0, 78, 237, 95, 194, 253, 255, 127, 191, 0, 0, 128, 191, 0, 0, 129, 0, 78, 237, 87, 194, 113, 215, 66, 63, 0, 0, 128, 191, 0, 0, 129, 0, 78, 237, 87, 194, 253, 255, 127, 191, 0, 0, 128, 191, 0, 0, 129, 0, 78, 237, 95, 194, 253, 255, 127, 191, 0, 0, 128, 63, 129, 0, 0, 0, 78, 237, 95, 194, 113, 215, 66, 63, 0, 0, 128, 191, 129, 0, 0, 0, 78, 237, 95, 194, 253, 255, 127, 191, 0, 0, 128, 191, 129, 0, 0, 0, 78, 237, 87, 194, 253, 255, 127, 191, 0, 0, 128, 63, 0, 0, 127, 0, 78, 237, 95, 194, 113, 215, 66, 63, 0, 0, 128, 63, 0, 0, 127, 0, 78, 237, 95, 194, 253, 255, 127, 191, 0, 0, 128, 63, 0, 0, 127, 0, 78, 237, 87, 194, 253, 255, 127, 191, 0, 0, 128, 63, 0, 129, 0, 0, 78, 237, 95, 194, 253, 255, 127, 191, 0, 0, 128, 191, 0, 129, 0, 0, 78, 237, 87, 194, 253, 255, 127, 191, 0, 0, 128, 191, 0, 129, 0, 0, 78, 237, 95, 194, 113, 215, 66, 63, 0, 0, 128, 63, 0, 127, 0, 0, 78, 237, 87, 194, 113, 215, 66, 63, 0, 0, 128, 191, 0, 127, 0, 0, 78, 237, 95, 194, 113, 215, 66, 63, 0, 0, 128, 191, 0, 127, 0, 0, 224, 255, 127, 191, 253, 255, 127, 191, 158, 229, 195, 65, 129, 0, 0, 0, 224, 255, 127, 191, 113, 215, 66, 63, 158, 229, 179, 65, 129, 0, 0, 0, 224, 255, 127, 191, 253, 255, 127, 191, 158, 229, 179, 65, 129, 0, 0, 0, 16, 0, 128, 63, 253, 255, 127, 191, 158, 229, 195, 65, 0, 0, 127, 0, 224, 255, 127, 191, 113, 215, 66, 63, 158, 229, 195, 65, 0, 0, 127, 0, 224, 255, 127, 191, 253, 255, 127, 191, 158, 229, 195, 65, 0, 0, 127, 0, 16, 0, 128, 63, 253, 255, 127, 191, 158, 229, 179, 65, 127, 0, 0, 0, 16, 0, 128, 63, 113, 215, 66, 63, 158, 229, 195, 65, 127, 0, 0, 0, 16, 0, 128, 63, 253, 255, 127, 191, 158, 229, 195, 65, 127, 0, 0, 0, 224, 255, 127, 191, 253, 255, 127, 191, 158, 229, 179, 65, 0, 0, 129, 0, 16, 0, 128, 63, 113, 215, 66, 63, 158, 229, 179, 65, 0, 0, 129, 0, 16, 0, 128, 63, 253, 255, 127, 191, 158, 229, 179, 65, 0, 0, 129, 0, 224, 255, 127, 191, 253, 255, 127, 191, 158, 229, 179, 65, 0, 129, 0, 0, 16, 0, 128, 63, 253, 255, 127, 191, 158, 229, 195, 65, 0, 129, 0, 0, 224, 255, 127, 191, 253, 255, 127, 191, 158, 229, 195, 65, 0, 129, 0, 0, 16, 0, 128, 63, 113, 215, 66, 63, 158, 229, 179, 65, 0, 127, 0, 0, 224, 255, 127, 191, 113, 215, 66, 63, 158, 229, 195, 65, 0, 127, 0, 0, 16, 0, 128, 63, 113, 215, 66, 63, 158, 229, 195, 65, 0, 127, 0, 0, 78, 237, 87, 194, 114, 215, 66, 63, 158, 229, 179, 65, 127, 0, 0, 0, 78, 237, 87, 194, 250, 255, 127, 191, 158, 229, 195, 65, 127, 0, 0, 0, 78, 237, 87, 194, 250, 255, 127, 191, 158, 229, 179, 65, 127, 0, 0, 0, 78, 237, 87, 194, 114, 215, 66, 63, 158, 229, 195, 65, 0, 0, 127, 0, 78, 237, 95, 194, 250, 255, 127, 191, 158, 229, 195, 65, 0, 0, 127, 0, 78, 237, 87, 194, 250, 255, 127, 191, 158, 229, 195, 65, 0, 0, 127, 0, 78, 237, 95, 194, 114, 215, 66, 63, 158, 229, 195, 65, 129, 0, 0, 0, 78, 237, 95, 194, 250, 255, 127, 191, 158, 229, 179, 65, 129, 0, 0, 0, 78, 237, 95, 194, 250, 255, 127, 191, 158, 229, 195, 65, 129, 0, 0, 0, 78, 237, 95, 194, 114, 215, 66, 63, 158, 229, 179, 65, 0, 0, 129, 0, 78, 237, 87, 194, 250, 255, 127, 191, 158, 229, 179, 65, 0, 0, 129, 0, 78, 237, 95, 194, 250, 255, 127, 191, 158, 229, 179, 65, 0, 0, 129, 0, 78, 237, 95, 194, 250, 255, 127, 191, 158, 229, 195, 65, 0, 129, 0, 0, 78, 237, 87, 194, 250, 255, 127, 191, 158, 229, 179, 65, 0, 129, 0, 0, 78, 237, 87, 194, 250, 255, 127, 191, 158, 229, 195, 65, 0, 129, 0, 0, 78, 237, 87, 194, 114, 215, 66, 63, 158, 229, 195, 65, 0, 127, 0, 0, 78, 237, 95, 194, 114, 215, 66, 63, 158, 229, 179, 65, 0, 127, 0, 0, 78, 237, 95, 194, 114, 215, 66, 63, 158, 229, 195, 65, 0, 127, 0, 0, 224, 87, 250, 191, 138, 129, 75, 63, 164, 55, 223, 65, 0, 0, 127, 0, 142, 26, 84, 194, 16, 58, 52, 63, 164, 55, 223, 65, 0, 0, 127, 0, 224, 87, 250, 191, 16, 58, 52, 63, 164, 55, 223, 65, 0, 0, 127, 0, 244, 148, 131, 64, 138, 129, 75, 63, 48, 3, 168, 191, 127, 0, 0, 0, 244, 148, 131, 64, 16, 58, 52, 63, 209, 101, 198, 65, 127, 0, 0, 0, 244, 148, 131, 64, 16, 58, 52, 63, 48, 3, 168, 191, 127, 0, 0, 0, 142, 26, 84, 194, 153, 69, 78, 63, 48, 3, 168, 191, 0, 127, 0, 0, 224, 87, 250, 191, 153, 69, 78, 63, 209, 101, 198, 65, 0, 127, 0, 0, 224, 87, 250, 191, 153, 69, 78, 63, 48, 3, 168, 191, 0, 127, 0, 0, 236, 95, 108, 194, 138, 129, 75, 63, 209, 101, 198, 65, 129, 0, 0, 0, 236, 95, 108, 194, 16, 58, 52, 63, 48, 3, 168, 191, 129, 0, 0, 0, 236, 95, 108, 194, 16, 58, 52, 63, 209, 101, 198, 65, 129, 0, 0, 0, 142, 26, 84, 194, 138, 129, 75, 63, 24, 72, 141, 192, 0, 0, 129, 0, 224, 87, 250, 191, 16, 58, 52, 63, 24, 72, 141, 192, 0, 0, 129, 0, 142, 26, 84, 194, 16, 58, 52, 63, 24, 72, 141, 192, 0, 0, 129, 0, 142, 26, 84, 194, 1, 118, 49, 63, 209, 101, 198, 65, 0, 130, 0, 0, 216, 29, 98, 194, 68, 161, 50, 63, 51, 186, 212, 65, 0, 130, 0, 0, 18, 68, 101, 194, 100, 69, 50, 63, 209, 101, 198, 65, 0, 130, 0, 0, 142, 26, 84, 194, 16, 58, 52, 63, 164, 55, 223, 65, 0, 130, 1, 0, 216, 29, 98, 194, 68, 161, 50, 63, 51, 186, 212, 65, 0, 130, 1, 0, 142, 26, 84, 194, 100, 69, 50, 63, 166, 242, 215, 65, 0, 130, 1, 0, 18, 68, 101, 194, 100, 69, 50, 63, 209, 101, 198, 65, 0, 130, 0, 0, 18, 68, 101, 194, 16, 58, 52, 63, 166, 242, 215, 65, 0, 130, 0, 0, 236, 95, 108, 194, 16, 58, 52, 63, 209, 101, 198, 65, 0, 130, 0, 0, 142, 26, 84, 194, 138, 129, 75, 63, 164, 55, 223, 65, 0, 126, 1, 0, 216, 29, 98, 194, 86, 26, 77, 63, 51, 186, 212, 65, 0, 126, 1, 0, 18, 68, 101, 194, 138, 129, 75, 63, 166, 242, 215, 65, 0, 126, 1, 0, 142, 26, 84, 194, 153, 69, 78, 63, 209, 101, 198, 65, 0, 126, 0, 0, 216, 29, 98, 194, 86, 26, 77, 63, 51, 186, 212, 65, 0, 126, 0, 0, 142, 26, 84, 194, 54, 118, 77, 63, 166, 242, 215, 65, 0, 126, 0, 0, 18, 68, 101, 194, 138, 129, 75, 63, 166, 242, 215, 65, 0, 126, 0, 0, 18, 68, 101, 194, 54, 118, 77, 63, 209, 101, 198, 65, 0, 126, 0, 0, 236, 95, 108, 194, 138, 129, 75, 63, 209, 101, 198, 65, 0, 126, 0, 0, 142, 26, 84, 194, 1, 118, 49, 63, 48, 3, 168, 191, 0, 130, 0, 0, 216, 29, 98, 194, 68, 161, 50, 63, 168, 164, 70, 192, 0, 130, 0, 0, 142, 26, 84, 194, 100, 69, 50, 63, 64, 104, 96, 192, 0, 130, 0, 0, 18, 68, 101, 194, 16, 58, 52, 63, 64, 104, 96, 192, 0, 130, 0, 0, 18, 68, 101, 194, 100, 69, 50, 63, 48, 3, 168, 191, 0, 130, 0, 0, 236, 95, 108, 194, 16, 58, 52, 63, 48, 3, 168, 191, 0, 130, 0, 0, 142, 26, 84, 194, 16, 58, 52, 63, 24, 72, 141, 192, 0, 130, 255, 0, 216, 29, 98, 194, 68, 161, 50, 63, 168, 164, 70, 192, 0, 130, 255, 0, 18, 68, 101, 194, 16, 58, 52, 63, 64, 104, 96, 192, 0, 130, 255, 0, 142, 26, 84, 194, 153, 69, 78, 63, 48, 3, 168, 191, 0, 126, 0, 0, 216, 29, 98, 194, 86, 26, 77, 63, 168, 164, 70, 192, 0, 126, 0, 0, 18, 68, 101, 194, 54, 118, 77, 63, 48, 3, 168, 191, 0, 126, 0, 0, 142, 26, 84, 194, 138, 129, 75, 63, 24, 72, 141, 192, 0, 126, 255, 0, 216, 29, 98, 194, 86, 26, 77, 63, 168, 164, 70, 192, 0, 126, 255, 0, 142, 26, 84, 194, 54, 118, 77, 63, 64, 104, 96, 192, 0, 126, 255, 0, 18, 68, 101, 194, 54, 118, 77, 63, 48, 3, 168, 191, 0, 126, 0, 0, 18, 68, 101, 194, 138, 129, 75, 63, 64, 104, 96, 192, 0, 126, 0, 0, 236, 95, 108, 194, 138, 129, 75, 63, 48, 3, 168, 191, 0, 126, 0, 0, 224, 87, 250, 191, 1, 118, 49, 63, 209, 101, 198, 65, 0, 130, 0, 0, 96, 17, 198, 63, 68, 161, 50, 63, 51, 186, 212, 65, 0, 130, 0, 0, 224, 87, 250, 191, 100, 69, 50, 63, 166, 242, 215, 65, 0, 130, 0, 0, 72, 108, 21, 64, 16, 58, 52, 63, 166, 242, 215, 65, 0, 130, 0, 0, 72, 108, 21, 64, 100, 69, 50, 63, 209, 101, 198, 65, 0, 130, 0, 0, 244, 148, 131, 64, 16, 58, 52, 63, 209, 101, 198, 65, 0, 130, 0, 0, 224, 87, 250, 191, 16, 58, 52, 63, 164, 55, 223, 65, 0, 130, 1, 0, 96, 17, 198, 63, 68, 161, 50, 63, 51, 186, 212, 65, 0, 130, 1, 0, 72, 108, 21, 64, 16, 58, 52, 63, 166, 242, 215, 65, 0, 130, 1, 0, 224, 87, 250, 191, 153, 69, 78, 63, 209, 101, 198, 65, 0, 126, 0, 0, 96, 17, 198, 63, 86, 26, 77, 63, 51, 186, 212, 65, 0, 126, 0, 0, 72, 108, 21, 64, 54, 118, 77, 63, 209, 101, 198, 65, 0, 126, 0, 0, 224, 87, 250, 191, 138, 129, 75, 63, 164, 55, 223, 65, 0, 126, 1, 0, 96, 17, 198, 63, 86, 26, 77, 63, 51, 186, 212, 65, 0, 126, 1, 0, 224, 87, 250, 191, 54, 118, 77, 63, 166, 242, 215, 65, 0, 126, 1, 0, 72, 108, 21, 64, 54, 118, 77, 63, 209, 101, 198, 65, 0, 126, 0, 0, 72, 108, 21, 64, 138, 129, 75, 63, 166, 242, 215, 65, 0, 126, 0, 0, 244, 148, 131, 64, 138, 129, 75, 63, 209, 101, 198, 65, 0, 126, 0, 0, 224, 87, 250, 191, 1, 118, 49, 63, 48, 3, 168, 191, 0, 130, 0, 0, 96, 17, 198, 63, 68, 161, 50, 63, 168, 164, 70, 192, 0, 130, 0, 0, 72, 108, 21, 64, 100, 69, 50, 63, 48, 3, 168, 191, 0, 130, 0, 0, 224, 87, 250, 191, 16, 58, 52, 63, 24, 72, 141, 192, 0, 130, 255, 0, 96, 17, 198, 63, 68, 161, 50, 63, 168, 164, 70, 192, 0, 130, 255, 0, 224, 87, 250, 191, 100, 69, 50, 63, 64, 104, 96, 192, 0, 130, 255, 0, 72, 108, 21, 64, 100, 69, 50, 63, 48, 3, 168, 191, 0, 130, 0, 0, 72, 108, 21, 64, 16, 58, 52, 63, 64, 104, 96, 192, 0, 130, 0, 0, 244, 148, 131, 64, 16, 58, 52, 63, 48, 3, 168, 191, 0, 130, 0, 0, 224, 87, 250, 191, 153, 69, 78, 63, 48, 3, 168, 191, 0, 126, 0, 0, 96, 17, 198, 63, 86, 26, 77, 63, 168, 164, 70, 192, 0, 126, 0, 0, 224, 87, 250, 191, 54, 118, 77, 63, 64, 104, 96, 192, 0, 126, 0, 0, 72, 108, 21, 64, 138, 129, 75, 63, 64, 104, 96, 192, 0, 126, 0, 0, 72, 108, 21, 64, 54, 118, 77, 63, 48, 3, 168, 191, 0, 126, 0, 0, 244, 148, 131, 64, 138, 129, 75, 63, 48, 3, 168, 191, 0, 126, 0, 0, 224, 87, 250, 191, 138, 129, 75, 63, 24, 72, 141, 192, 0, 126, 255, 0, 96, 17, 198, 63, 86, 26, 77, 63, 168, 164, 70, 192, 0, 126, 255, 0, 72, 108, 21, 64, 138, 129, 75, 63, 64, 104, 96, 192, 0, 126, 255, 0, 142, 26, 84, 194, 1, 118, 49, 63, 209, 101, 198, 65, 0, 130, 0, 0, 18, 68, 101, 194, 100, 69, 50, 63, 48, 3, 168, 191, 0, 130, 0, 0, 142, 26, 84, 194, 1, 118, 49, 63, 48, 3, 168, 191, 0, 130, 0, 0, 18, 68, 101, 194, 100, 69, 50, 63, 209, 101, 198, 65, 0, 130, 0, 0, 236, 95, 108, 194, 16, 58, 52, 63, 48, 3, 168, 191, 0, 130, 0, 0, 18, 68, 101, 194, 100, 69, 50, 63, 48, 3, 168, 191, 0, 130, 0, 0, 142, 26, 84, 194, 138, 129, 75, 63, 164, 55, 223, 65, 230, 0, 124, 0, 18, 68, 101, 194, 16, 58, 52, 63, 166, 242, 215, 65, 230, 0, 124, 0, 142, 26, 84, 194, 16, 58, 52, 63, 164, 55, 223, 65, 230, 0, 124, 0, 18, 68, 101, 194, 138, 129, 75, 63, 166, 242, 215, 65, 158, 0, 79, 0, 236, 95, 108, 194, 16, 58, 52, 63, 209, 101, 198, 65, 158, 0, 79, 0, 18, 68, 101, 194, 16, 58, 52, 63, 166, 242, 215, 65, 158, 0, 79, 0, 142, 26, 84, 194, 153, 69, 78, 63, 48, 3, 168, 191, 0, 126, 0, 0, 18, 68, 101, 194, 54, 118, 77, 63, 209, 101, 198, 65, 0, 126, 0, 0, 142, 26, 84, 194, 153, 69, 78, 63, 209, 101, 198, 65, 0, 126, 0, 0, 18, 68, 101, 194, 54, 118, 77, 63, 48, 3, 168, 191, 0, 126, 0, 0, 236, 95, 108, 194, 138, 129, 75, 63, 209, 101, 198, 65, 0, 126, 0, 0, 18, 68, 101, 194, 54, 118, 77, 63, 209, 101, 198, 65, 0, 126, 0, 0, 142, 26, 84, 194, 16, 58, 52, 63, 24, 72, 141, 192, 230, 0, 132, 0, 18, 68, 101, 194, 138, 129, 75, 63, 64, 104, 96, 192, 230, 0, 132, 0, 142, 26, 84, 194, 138, 129, 75, 63, 24, 72, 141, 192, 230, 0, 132, 0, 18, 68, 101, 194, 16, 58, 52, 63, 64, 104, 96, 192, 158, 0, 177, 0, 236, 95, 108, 194, 138, 129, 75, 63, 48, 3, 168, 191, 158, 0, 177, 0, 18, 68, 101, 194, 138, 129, 75, 63, 64, 104, 96, 192, 158, 0, 177, 0, 142, 26, 84, 194, 1, 118, 49, 63, 48, 3, 168, 191, 0, 130, 0, 0, 224, 87, 250, 191, 100, 69, 50, 63, 64, 104, 96, 192, 0, 130, 0, 0, 224, 87, 250, 191, 1, 118, 49, 63, 48, 3, 168, 191, 0, 130, 0, 0, 142, 26, 84, 194, 100, 69, 50, 63, 64, 104, 96, 192, 0, 130, 255, 0, 224, 87, 250, 191, 16, 58, 52, 63, 24, 72, 141, 192, 0, 130, 255, 0, 224, 87, 250, 191, 100, 69, 50, 63, 64, 104, 96, 192, 0, 130, 255, 0, 224, 87, 250, 191, 153, 69, 78, 63, 48, 3, 168, 191, 0, 126, 0, 0, 142, 26, 84, 194, 54, 118, 77, 63, 64, 104, 96, 192, 0, 126, 0, 0, 142, 26, 84, 194, 153, 69, 78, 63, 48, 3, 168, 191, 0, 126, 0, 0, 224, 87, 250, 191, 54, 118, 77, 63, 64, 104, 96, 192, 0, 126, 255, 0, 142, 26, 84, 194, 138, 129, 75, 63, 24, 72, 141, 192, 0, 126, 255, 0, 142, 26, 84, 194, 54, 118, 77, 63, 64, 104, 96, 192, 0, 126, 255, 0, 244, 148, 131, 64, 16, 58, 52, 63, 48, 3, 168, 191, 98, 0, 177, 0, 72, 108, 21, 64, 138, 129, 75, 63, 64, 104, 96, 192, 98, 0, 177, 0, 244, 148, 131, 64, 138, 129, 75, 63, 48, 3, 168, 191, 98, 0, 177, 0, 72, 108, 21, 64, 16, 58, 52, 63, 64, 104, 96, 192, 26, 0, 132, 0, 224, 87, 250, 191, 138, 129, 75, 63, 24, 72, 141, 192, 26, 0, 132, 0, 72, 108, 21, 64, 138, 129, 75, 63, 64, 104, 96, 192, 26, 0, 132, 0, 224, 87, 250, 191, 1, 118, 49, 63, 48, 3, 168, 191, 0, 130, 0, 0, 72, 108, 21, 64, 100, 69, 50, 63, 209, 101, 198, 65, 0, 130, 0, 0, 224, 87, 250, 191, 1, 118, 49, 63, 209, 101, 198, 65, 0, 130, 0, 0, 72, 108, 21, 64, 100, 69, 50, 63, 48, 3, 168, 191, 0, 130, 0, 0, 244, 148, 131, 64, 16, 58, 52, 63, 209, 101, 198, 65, 0, 130, 0, 0, 72, 108, 21, 64, 100, 69, 50, 63, 209, 101, 198, 65, 0, 130, 0, 0, 224, 87, 250, 191, 153, 69, 78, 63, 209, 101, 198, 65, 0, 126, 0, 0, 72, 108, 21, 64, 54, 118, 77, 63, 48, 3, 168, 191, 0, 126, 0, 0, 224, 87, 250, 191, 153, 69, 78, 63, 48, 3, 168, 191, 0, 126, 0, 0, 72, 108, 21, 64, 54, 118, 77, 63, 209, 101, 198, 65, 0, 126, 0, 0, 244, 148, 131, 64, 138, 129, 75, 63, 48, 3, 168, 191, 0, 126, 0, 0, 72, 108, 21, 64, 54, 118, 77, 63, 48, 3, 168, 191, 0, 126, 0, 0, 224, 87, 250, 191, 16, 58, 52, 63, 164, 55, 223, 65, 26, 0, 124, 0, 72, 108, 21, 64, 138, 129, 75, 63, 166, 242, 215, 65, 26, 0, 124, 0, 224, 87, 250, 191, 138, 129, 75, 63, 164, 55, 223, 65, 26, 0, 124, 0, 72, 108, 21, 64, 16, 58, 52, 63, 166, 242, 215, 65, 98, 0, 79, 0, 244, 148, 131, 64, 138, 129, 75, 63, 209, 101, 198, 65, 98, 0, 79, 0, 72, 108, 21, 64, 138, 129, 75, 63, 166, 242, 215, 65, 98, 0, 79, 0, 224, 87, 250, 191, 1, 118, 49, 63, 209, 101, 198, 65, 0, 130, 0, 0, 142, 26, 84, 194, 100, 69, 50, 63, 166, 242, 215, 65, 0, 130, 0, 0, 142, 26, 84, 194, 1, 118, 49, 63, 209, 101, 198, 65, 0, 130, 0, 0, 224, 87, 250, 191, 100, 69, 50, 63, 166, 242, 215, 65, 0, 130, 1, 0, 142, 26, 84, 194, 16, 58, 52, 63, 164, 55, 223, 65, 0, 130, 1, 0, 142, 26, 84, 194, 100, 69, 50, 63, 166, 242, 215, 65, 0, 130, 1, 0, 142, 26, 84, 194, 153, 69, 78, 63, 209, 101, 198, 65, 0, 126, 0, 0, 224, 87, 250, 191, 54, 118, 77, 63, 166, 242, 215, 65, 0, 126, 0, 0, 224, 87, 250, 191, 153, 69, 78, 63, 209, 101, 198, 65, 0, 126, 0, 0, 142, 26, 84, 194, 54, 118, 77, 63, 166, 242, 215, 65, 0, 126, 1, 0, 224, 87, 250, 191, 138, 129, 75, 63, 164, 55, 223, 65, 0, 126, 1, 0, 224, 87, 250, 191, 54, 118, 77, 63, 166, 242, 215, 65, 0, 126, 1, 0, 224, 87, 250, 191, 1, 118, 49, 63, 48, 3, 168, 191, 0, 129, 0, 0, 142, 26, 84, 194, 1, 118, 49, 63, 209, 101, 198, 65, 0, 129, 0, 0, 142, 26, 84, 194, 1, 118, 49, 63, 48, 3, 168, 191, 0, 129, 0, 0, 0, 0, 128, 191, 112, 215, 66, 63, 0, 0, 128, 191, 129, 0, 0, 0, 0, 0, 128, 63, 112, 215, 66, 63, 0, 0, 128, 191, 0, 0, 129, 0, 0, 0, 128, 63, 112, 215, 66, 63, 0, 0, 128, 63, 127, 0, 0, 0, 0, 0, 128, 191, 112, 215, 66, 63, 0, 0, 128, 63, 0, 0, 127, 0, 0, 0, 128, 63, 0, 0, 128, 191, 0, 0, 128, 63, 0, 129, 0, 0, 0, 0, 128, 191, 112, 215, 66, 63, 0, 0, 128, 63, 0, 127, 0, 0, 78, 237, 87, 194, 113, 215, 66, 63, 0, 0, 128, 191, 127, 0, 0, 0, 78, 237, 95, 194, 113, 215, 66, 63, 0, 0, 128, 191, 0, 0, 129, 0, 78, 237, 95, 194, 113, 215, 66, 63, 0, 0, 128, 63, 129, 0, 0, 0, 78, 237, 87, 194, 113, 215, 66, 63, 0, 0, 128, 63, 0, 0, 127, 0, 78, 237, 95, 194, 253, 255, 127, 191, 0, 0, 128, 63, 0, 129, 0, 0, 78, 237, 87, 194, 113, 215, 66, 63, 0, 0, 128, 63, 0, 127, 0, 0, 224, 255, 127, 191, 113, 215, 66, 63, 158, 229, 195, 65, 129, 0, 0, 0, 16, 0, 128, 63, 113, 215, 66, 63, 158, 229, 195, 65, 0, 0, 127, 0, 16, 0, 128, 63, 113, 215, 66, 63, 158, 229, 179, 65, 127, 0, 0, 0, 224, 255, 127, 191, 113, 215, 66, 63, 158, 229, 179, 65, 0, 0, 129, 0, 16, 0, 128, 63, 253, 255, 127, 191, 158, 229, 179, 65, 0, 129, 0, 0, 224, 255, 127, 191, 113, 215, 66, 63, 158, 229, 179, 65, 0, 127, 0, 0, 78, 237, 87, 194, 114, 215, 66, 63, 158, 229, 195, 65, 127, 0, 0, 0, 78, 237, 95, 194, 114, 215, 66, 63, 158, 229, 195, 65, 0, 0, 127, 0, 78, 237, 95, 194, 114, 215, 66, 63, 158, 229, 179, 65, 129, 0, 0, 0, 78, 237, 87, 194, 114, 215, 66, 63, 158, 229, 179, 65, 0, 0, 129, 0, 78, 237, 95, 194, 250, 255, 127, 191, 158, 229, 179, 65, 0, 129, 0, 0, 78, 237, 87, 194, 114, 215, 66, 63, 158, 229, 179, 65, 0, 127, 0, 0, 142, 26, 84, 194, 138, 129, 75, 63, 164, 55, 223, 65, 0, 0, 127, 0, 244, 148, 131, 64, 138, 129, 75, 63, 209, 101, 198, 65, 127, 0, 0, 0, 142, 26, 84, 194, 153, 69, 78, 63, 209, 101, 198, 65, 0, 127, 0, 0, 236, 95, 108, 194, 138, 129, 75, 63, 48, 3, 168, 191, 129, 0, 0, 0, 224, 87, 250, 191, 138, 129, 75, 63, 24, 72, 141, 192, 0, 0, 129, 0, 142, 26, 84, 194, 1, 118, 49, 63, 209, 101, 198, 65, 0, 130, 0, 0, 142, 26, 84, 194, 100, 69, 50, 63, 166, 242, 215, 65, 0, 130, 0, 0, 216, 29, 98, 194, 68, 161, 50, 63, 51, 186, 212, 65, 0, 130, 0, 0, 142, 26, 84, 194, 16, 58, 52, 63, 164, 55, 223, 65, 0, 130, 1, 0, 18, 68, 101, 194, 16, 58, 52, 63, 166, 242, 215, 65, 0, 130, 1, 0, 216, 29, 98, 194, 68, 161, 50, 63, 51, 186, 212, 65, 0, 130, 1, 0, 18, 68, 101, 194, 100, 69, 50, 63, 209, 101, 198, 65, 0, 130, 0, 0, 216, 29, 98, 194, 68, 161, 50, 63, 51, 186, 212, 65, 0, 130, 0, 0, 18, 68, 101, 194, 16, 58, 52, 63, 166, 242, 215, 65, 0, 130, 0, 0, 142, 26, 84, 194, 138, 129, 75, 63, 164, 55, 223, 65, 0, 126, 1, 0, 142, 26, 84, 194, 54, 118, 77, 63, 166, 242, 215, 65, 0, 126, 1, 0, 216, 29, 98, 194, 86, 26, 77, 63, 51, 186, 212, 65, 0, 126, 1, 0, 142, 26, 84, 194, 153, 69, 78, 63, 209, 101, 198, 65, 0, 126, 0, 0, 18, 68, 101, 194, 54, 118, 77, 63, 209, 101, 198, 65, 0, 126, 0, 0, 216, 29, 98, 194, 86, 26, 77, 63, 51, 186, 212, 65, 0, 126, 0, 0, 18, 68, 101, 194, 138, 129, 75, 63, 166, 242, 215, 65, 0, 126, 0, 0, 216, 29, 98, 194, 86, 26, 77, 63, 51, 186, 212, 65, 0, 126, 0, 0, 18, 68, 101, 194, 54, 118, 77, 63, 209, 101, 198, 65, 0, 126, 0, 0, 142, 26, 84, 194, 1, 118, 49, 63, 48, 3, 168, 191, 0, 130, 0, 0, 18, 68, 101, 194, 100, 69, 50, 63, 48, 3, 168, 191, 0, 130, 0, 0, 216, 29, 98, 194, 68, 161, 50, 63, 168, 164, 70, 192, 0, 130, 0, 0, 18, 68, 101, 194, 16, 58, 52, 63, 64, 104, 96, 192, 0, 130, 0, 0, 216, 29, 98, 194, 68, 161, 50, 63, 168, 164, 70, 192, 0, 130, 0, 0, 18, 68, 101, 194, 100, 69, 50, 63, 48, 3, 168, 191, 0, 130, 0, 0, 142, 26, 84, 194, 16, 58, 52, 63, 24, 72, 141, 192, 0, 130, 255, 0, 142, 26, 84, 194, 100, 69, 50, 63, 64, 104, 96, 192, 0, 130, 255, 0, 216, 29, 98, 194, 68, 161, 50, 63, 168, 164, 70, 192, 0, 130, 255, 0, 142, 26, 84, 194, 153, 69, 78, 63, 48, 3, 168, 191, 0, 126, 0, 0, 142, 26, 84, 194, 54, 118, 77, 63, 64, 104, 96, 192, 0, 126, 0, 0, 216, 29, 98, 194, 86, 26, 77, 63, 168, 164, 70, 192, 0, 126, 0, 0, 142, 26, 84, 194, 138, 129, 75, 63, 24, 72, 141, 192, 0, 126, 255, 0, 18, 68, 101, 194, 138, 129, 75, 63, 64, 104, 96, 192, 0, 126, 255, 0, 216, 29, 98, 194, 86, 26, 77, 63, 168, 164, 70, 192, 0, 126, 255, 0, 18, 68, 101, 194, 54, 118, 77, 63, 48, 3, 168, 191, 0, 126, 0, 0, 216, 29, 98, 194, 86, 26, 77, 63, 168, 164, 70, 192, 0, 126, 0, 0, 18, 68, 101, 194, 138, 129, 75, 63, 64, 104, 96, 192, 0, 126, 0, 0, 224, 87, 250, 191, 1, 118, 49, 63, 209, 101, 198, 65, 0, 130, 0, 0, 72, 108, 21, 64, 100, 69, 50, 63, 209, 101, 198, 65, 0, 130, 0, 0, 96, 17, 198, 63, 68, 161, 50, 63, 51, 186, 212, 65, 0, 130, 0, 0, 72, 108, 21, 64, 16, 58, 52, 63, 166, 242, 215, 65, 0, 130, 0, 0, 96, 17, 198, 63, 68, 161, 50, 63, 51, 186, 212, 65, 0, 130, 0, 0, 72, 108, 21, 64, 100, 69, 50, 63, 209, 101, 198, 65, 0, 130, 0, 0, 224, 87, 250, 191, 16, 58, 52, 63, 164, 55, 223, 65, 0, 130, 1, 0, 224, 87, 250, 191, 100, 69, 50, 63, 166, 242, 215, 65, 0, 130, 1, 0, 96, 17, 198, 63, 68, 161, 50, 63, 51, 186, 212, 65, 0, 130, 1, 0, 224, 87, 250, 191, 153, 69, 78, 63, 209, 101, 198, 65, 0, 126, 0, 0, 224, 87, 250, 191, 54, 118, 77, 63, 166, 242, 215, 65, 0, 126, 0, 0, 96, 17, 198, 63, 86, 26, 77, 63, 51, 186, 212, 65, 0, 126, 0, 0, 224, 87, 250, 191, 138, 129, 75, 63, 164, 55, 223, 65, 0, 126, 1, 0, 72, 108, 21, 64, 138, 129, 75, 63, 166, 242, 215, 65, 0, 126, 1, 0, 96, 17, 198, 63, 86, 26, 77, 63, 51, 186, 212, 65, 0, 126, 1, 0, 72, 108, 21, 64, 54, 118, 77, 63, 209, 101, 198, 65, 0, 126, 0, 0, 96, 17, 198, 63, 86, 26, 77, 63, 51, 186, 212, 65, 0, 126, 0, 0, 72, 108, 21, 64, 138, 129, 75, 63, 166, 242, 215, 65, 0, 126, 0, 0, 224, 87, 250, 191, 1, 118, 49, 63, 48, 3, 168, 191, 0, 130, 0, 0, 224, 87, 250, 191, 100, 69, 50, 63, 64, 104, 96, 192, 0, 130, 0, 0, 96, 17, 198, 63, 68, 161, 50, 63, 168, 164, 70, 192, 0, 130, 0, 0, 224, 87, 250, 191, 16, 58, 52, 63, 24, 72, 141, 192, 0, 130, 255, 0, 72, 108, 21, 64, 16, 58, 52, 63, 64, 104, 96, 192, 0, 130, 255, 0, 96, 17, 198, 63, 68, 161, 50, 63, 168, 164, 70, 192, 0, 130, 255, 0, 72, 108, 21, 64, 100, 69, 50, 63, 48, 3, 168, 191, 0, 130, 0, 0, 96, 17, 198, 63, 68, 161, 50, 63, 168, 164, 70, 192, 0, 130, 0, 0, 72, 108, 21, 64, 16, 58, 52, 63, 64, 104, 96, 192, 0, 130, 0, 0, 224, 87, 250, 191, 153, 69, 78, 63, 48, 3, 168, 191, 0, 126, 0, 0, 72, 108, 21, 64, 54, 118, 77, 63, 48, 3, 168, 191, 0, 126, 0, 0, 96, 17, 198, 63, 86, 26, 77, 63, 168, 164, 70, 192, 0, 126, 0, 0, 72, 108, 21, 64, 138, 129, 75, 63, 64, 104, 96, 192, 0, 126, 0, 0, 96, 17, 198, 63, 86, 26, 77, 63, 168, 164, 70, 192, 0, 126, 0, 0, 72, 108, 21, 64, 54, 118, 77, 63, 48, 3, 168, 191, 0, 126, 0, 0, 224, 87, 250, 191, 138, 129, 75, 63, 24, 72, 141, 192, 0, 126, 255, 0, 224, 87, 250, 191, 54, 118, 77, 63, 64, 104, 96, 192, 0, 126, 255, 0, 96, 17, 198, 63, 86, 26, 77, 63, 168, 164, 70, 192, 0, 126, 255, 0, 142, 26, 84, 194, 1, 118, 49, 63, 209, 101, 198, 65, 0, 130, 0, 0, 18, 68, 101, 194, 100, 69, 50, 63, 209, 101, 198, 65, 0, 130, 0, 0, 18, 68, 101, 194, 100, 69, 50, 63, 48, 3, 168, 191, 0, 130, 0, 0, 18, 68, 101, 194, 100, 69, 50, 63, 209, 101, 198, 65, 0, 130, 0, 0, 236, 95, 108, 194, 16, 58, 52, 63, 209, 101, 198, 65, 0, 130, 0, 0, 236, 95, 108, 194, 16, 58, 52, 63, 48, 3, 168, 191, 0, 130, 0, 0, 142, 26, 84, 194, 138, 129, 75, 63, 164, 55, 223, 65, 230, 0, 124, 0, 18, 68, 101, 194, 138, 129, 75, 63, 166, 242, 215, 65, 230, 0, 124, 0, 18, 68, 101, 194, 16, 58, 52, 63, 166, 242, 215, 65, 230, 0, 124, 0, 18, 68, 101, 194, 138, 129, 75, 63, 166, 242, 215, 65, 158, 0, 79, 0, 236, 95, 108, 194, 138, 129, 75, 63, 209, 101, 198, 65, 158, 0, 79, 0, 236, 95, 108, 194, 16, 58, 52, 63, 209, 101, 198, 65, 158, 0, 79, 0, 142, 26, 84, 194, 153, 69, 78, 63, 48, 3, 168, 191, 0, 126, 0, 0, 18, 68, 101, 194, 54, 118, 77, 63, 48, 3, 168, 191, 0, 126, 0, 0, 18, 68, 101, 194, 54, 118, 77, 63, 209, 101, 198, 65, 0, 126, 0, 0, 18, 68, 101, 194, 54, 118, 77, 63, 48, 3, 168, 191, 0, 126, 0, 0, 236, 95, 108, 194, 138, 129, 75, 63, 48, 3, 168, 191, 0, 126, 0, 0, 236, 95, 108, 194, 138, 129, 75, 63, 209, 101, 198, 65, 0, 126, 0, 0, 142, 26, 84, 194, 16, 58, 52, 63, 24, 72, 141, 192, 230, 0, 132, 0, 18, 68, 101, 194, 16, 58, 52, 63, 64, 104, 96, 192, 230, 0, 132, 0, 18, 68, 101, 194, 138, 129, 75, 63, 64, 104, 96, 192, 230, 0, 132, 0, 18, 68, 101, 194, 16, 58, 52, 63, 64, 104, 96, 192, 158, 0, 177, 0, 236, 95, 108, 194, 16, 58, 52, 63, 48, 3, 168, 191, 158, 0, 177, 0, 236, 95, 108, 194, 138, 129, 75, 63, 48, 3, 168, 191, 158, 0, 177, 0, 142, 26, 84, 194, 1, 118, 49, 63, 48, 3, 168, 191, 0, 130, 0, 0, 142, 26, 84, 194, 100, 69, 50, 63, 64, 104, 96, 192, 0, 130, 0, 0, 224, 87, 250, 191, 100, 69, 50, 63, 64, 104, 96, 192, 0, 130, 0, 0, 142, 26, 84, 194, 100, 69, 50, 63, 64, 104, 96, 192, 0, 130, 255, 0, 142, 26, 84, 194, 16, 58, 52, 63, 24, 72, 141, 192, 0, 130, 255, 0, 224, 87, 250, 191, 16, 58, 52, 63, 24, 72, 141, 192, 0, 130, 255, 0, 224, 87, 250, 191, 153, 69, 78, 63, 48, 3, 168, 191, 0, 126, 0, 0, 224, 87, 250, 191, 54, 118, 77, 63, 64, 104, 96, 192, 0, 126, 0, 0, 142, 26, 84, 194, 54, 118, 77, 63, 64, 104, 96, 192, 0, 126, 0, 0, 224, 87, 250, 191, 54, 118, 77, 63, 64, 104, 96, 192, 0, 126, 255, 0, 224, 87, 250, 191, 138, 129, 75, 63, 24, 72, 141, 192, 0, 126, 255, 0, 142, 26, 84, 194, 138, 129, 75, 63, 24, 72, 141, 192, 0, 126, 255, 0, 244, 148, 131, 64, 16, 58, 52, 63, 48, 3, 168, 191, 98, 0, 177, 0, 72, 108, 21, 64, 16, 58, 52, 63, 64, 104, 96, 192, 98, 0, 177, 0, 72, 108, 21, 64, 138, 129, 75, 63, 64, 104, 96, 192, 98, 0, 177, 0, 72, 108, 21, 64, 16, 58, 52, 63, 64, 104, 96, 192, 26, 0, 132, 0, 224, 87, 250, 191, 16, 58, 52, 63, 24, 72, 141, 192, 26, 0, 132, 0, 224, 87, 250, 191, 138, 129, 75, 63, 24, 72, 141, 192, 26, 0, 132, 0, 72, 108, 21, 64, 100, 69, 50, 63, 48, 3, 168, 191, 0, 130, 0, 0, 72, 108, 21, 64, 100, 69, 50, 63, 48, 3, 168, 191, 0, 130, 0, 0, 244, 148, 131, 64, 16, 58, 52, 63, 48, 3, 168, 191, 0, 130, 0, 0, 244, 148, 131, 64, 16, 58, 52, 63, 209, 101, 198, 65, 0, 130, 0, 0, 224, 87, 250, 191, 153, 69, 78, 63, 209, 101, 198, 65, 0, 126, 0, 0, 72, 108, 21, 64, 54, 118, 77, 63, 209, 101, 198, 65, 0, 126, 0, 0, 72, 108, 21, 64, 54, 118, 77, 63, 48, 3, 168, 191, 0, 126, 0, 0, 72, 108, 21, 64, 54, 118, 77, 63, 209, 101, 198, 65, 0, 126, 0, 0, 244, 148, 131, 64, 138, 129, 75, 63, 209, 101, 198, 65, 0, 126, 0, 0, 244, 148, 131, 64, 138, 129, 75, 63, 48, 3, 168, 191, 0, 126, 0, 0, 224, 87, 250, 191, 16, 58, 52, 63, 164, 55, 223, 65, 26, 0, 124, 0, 72, 108, 21, 64, 16, 58, 52, 63, 166, 242, 215, 65, 26, 0, 124, 0, 72, 108, 21, 64, 138, 129, 75, 63, 166, 242, 215, 65, 26, 0, 124, 0, 72, 108, 21, 64, 16, 58, 52, 63, 166, 242, 215, 65, 98, 0, 79, 0, 244, 148, 131, 64, 16, 58, 52, 63, 209, 101, 198, 65, 98, 0, 79, 0, 244, 148, 131, 64, 138, 129, 75, 63, 209, 101, 198, 65, 98, 0, 79, 0, 224, 87, 250, 191, 1, 118, 49, 63, 209, 101, 198, 65, 0, 130, 0, 0, 224, 87, 250, 191, 100, 69, 50, 63, 166, 242, 215, 65, 0, 130, 0, 0, 142, 26, 84, 194, 100, 69, 50, 63, 166, 242, 215, 65, 0, 130, 0, 0, 224, 87, 250, 191, 100, 69, 50, 63, 166, 242, 215, 65, 0, 130, 1, 0, 224, 87, 250, 191, 16, 58, 52, 63, 164, 55, 223, 65, 0, 130, 1, 0, 142, 26, 84, 194, 16, 58, 52, 63, 164, 55, 223, 65, 0, 130, 1, 0, 142, 26, 84, 194, 153, 69, 78, 63, 209, 101, 198, 65, 0, 126, 0, 0, 142, 26, 84, 194, 54, 118, 77, 63, 166, 242, 215, 65, 0, 126, 0, 0, 224, 87, 250, 191, 54, 118, 77, 63, 166, 242, 215, 65, 0, 126, 0, 0, 142, 26, 84, 194, 54, 118, 77, 63, 166, 242, 215, 65, 0, 126, 1, 0, 142, 26, 84, 194, 138, 129, 75, 63, 164, 55, 223, 65, 0, 126, 1, 0, 224, 87, 250, 191, 138, 129, 75, 63, 164, 55, 223, 65, 0, 126, 1, 0, 224, 87, 250, 191, 1, 118, 49, 63, 209, 101, 198, 65, 0, 129, 0, 0 ),
"array_index_data": PoolByteArray( 0, 0, 2, 0, 1, 0, 3, 0, 5, 0, 4, 0, 6, 0, 8, 0, 7, 0, 9, 0, 11, 0, 10, 0, 12, 0, 14, 0, 13, 0, 15, 0, 17, 0, 16, 0, 18, 0, 20, 0, 19, 0, 21, 0, 23, 0, 22, 0, 24, 0, 26, 0, 25, 0, 27, 0, 29, 0, 28, 0, 30, 0, 32, 0, 31, 0, 33, 0, 35, 0, 34, 0, 36, 0, 38, 0, 37, 0, 39, 0, 41, 0, 40, 0, 42, 0, 44, 0, 43, 0, 45, 0, 47, 0, 46, 0, 48, 0, 50, 0, 49, 0, 51, 0, 53, 0, 52, 0, 54, 0, 56, 0, 55, 0, 57, 0, 59, 0, 58, 0, 60, 0, 62, 0, 61, 0, 63, 0, 65, 0, 64, 0, 66, 0, 68, 0, 67, 0, 69, 0, 71, 0, 70, 0, 72, 0, 74, 0, 73, 0, 75, 0, 77, 0, 76, 0, 78, 0, 80, 0, 79, 0, 81, 0, 83, 0, 82, 0, 84, 0, 86, 0, 85, 0, 87, 0, 89, 0, 88, 0, 90, 0, 92, 0, 91, 0, 93, 0, 95, 0, 94, 0, 96, 0, 98, 0, 97, 0, 99, 0, 101, 0, 100, 0, 102, 0, 104, 0, 103, 0, 105, 0, 107, 0, 106, 0, 108, 0, 110, 0, 109, 0, 111, 0, 113, 0, 112, 0, 114, 0, 116, 0, 115, 0, 117, 0, 119, 0, 118, 0, 120, 0, 122, 0, 121, 0, 123, 0, 125, 0, 124, 0, 126, 0, 128, 0, 127, 0, 129, 0, 131, 0, 130, 0, 132, 0, 134, 0, 133, 0, 135, 0, 137, 0, 136, 0, 138, 0, 140, 0, 139, 0, 141, 0, 143, 0, 142, 0, 144, 0, 146, 0, 145, 0, 147, 0, 149, 0, 148, 0, 150, 0, 152, 0, 151, 0, 153, 0, 155, 0, 154, 0, 156, 0, 158, 0, 157, 0, 159, 0, 161, 0, 160, 0, 162, 0, 164, 0, 163, 0, 165, 0, 167, 0, 166, 0, 168, 0, 170, 0, 169, 0, 171, 0, 173, 0, 172, 0, 174, 0, 176, 0, 175, 0, 177, 0, 179, 0, 178, 0, 180, 0, 182, 0, 181, 0, 183, 0, 185, 0, 184, 0, 186, 0, 188, 0, 187, 0, 189, 0, 191, 0, 190, 0, 192, 0, 194, 0, 193, 0, 195, 0, 197, 0, 196, 0, 198, 0, 200, 0, 199, 0, 201, 0, 203, 0, 202, 0, 204, 0, 206, 0, 205, 0, 207, 0, 209, 0, 208, 0, 210, 0, 212, 0, 211, 0, 213, 0, 215, 0, 214, 0, 216, 0, 218, 0, 217, 0, 219, 0, 221, 0, 220, 0, 222, 0, 224, 0, 223, 0, 225, 0, 227, 0, 226, 0, 228, 0, 230, 0, 229, 0, 231, 0, 233, 0, 232, 0, 0, 0, 1, 0, 234, 0, 3, 0, 4, 0, 235, 0, 6, 0, 7, 0, 236, 0, 9, 0, 10, 0, 237, 0, 12, 0, 13, 0, 238, 0, 15, 0, 16, 0, 239, 0, 18, 0, 19, 0, 240, 0, 21, 0, 22, 0, 241, 0, 24, 0, 25, 0, 242, 0, 27, 0, 28, 0, 243, 0, 30, 0, 31, 0, 244, 0, 33, 0, 34, 0, 245, 0, 36, 0, 37, 0, 246, 0, 39, 0, 40, 0, 247, 0, 42, 0, 43, 0, 248, 0, 45, 0, 46, 0, 249, 0, 48, 0, 49, 0, 250, 0, 51, 0, 52, 0, 251, 0, 54, 0, 55, 0, 252, 0, 57, 0, 58, 0, 253, 0, 60, 0, 61, 0, 254, 0, 63, 0, 64, 0, 255, 0, 66, 0, 67, 0, 0, 1, 69, 0, 70, 0, 1, 1, 72, 0, 73, 0, 2, 1, 75, 0, 76, 0, 3, 1, 78, 0, 79, 0, 4, 1, 81, 0, 82, 0, 5, 1, 84, 0, 85, 0, 6, 1, 7, 1, 9, 1, 8, 1, 10, 1, 12, 1, 11, 1, 13, 1, 15, 1, 14, 1, 16, 1, 18, 1, 17, 1, 19, 1, 21, 1, 20, 1, 22, 1, 24, 1, 23, 1, 25, 1, 27, 1, 26, 1, 28, 1, 30, 1, 29, 1, 31, 1, 33, 1, 32, 1, 34, 1, 36, 1, 35, 1, 37, 1, 39, 1, 38, 1, 40, 1, 42, 1, 41, 1, 43, 1, 45, 1, 44, 1, 46, 1, 48, 1, 47, 1, 49, 1, 51, 1, 50, 1, 52, 1, 54, 1, 53, 1, 55, 1, 57, 1, 56, 1, 58, 1, 60, 1, 59, 1, 61, 1, 63, 1, 62, 1, 64, 1, 66, 1, 65, 1, 67, 1, 69, 1, 68, 1, 70, 1, 72, 1, 71, 1, 73, 1, 75, 1, 74, 1, 76, 1, 78, 1, 77, 1, 79, 1, 81, 1, 80, 1, 82, 1, 84, 1, 83, 1, 85, 1, 87, 1, 86, 1, 88, 1, 90, 1, 89, 1, 91, 1, 93, 1, 92, 1, 94, 1, 96, 1, 95, 1, 97, 1, 99, 1, 98, 1, 100, 1, 102, 1, 101, 1, 103, 1, 105, 1, 104, 1, 106, 1, 108, 1, 107, 1, 109, 1, 111, 1, 110, 1, 112, 1, 114, 1, 113, 1, 115, 1, 117, 1, 116, 1, 118, 1, 120, 1, 119, 1, 201, 0, 202, 0, 121, 1, 122, 1, 124, 1, 123, 1, 125, 1, 127, 1, 126, 1, 128, 1, 130, 1, 129, 1, 131, 1, 133, 1, 132, 1, 134, 1, 136, 1, 135, 1, 137, 1, 139, 1, 138, 1, 140, 1, 142, 1, 141, 1, 143, 1, 145, 1, 144, 1, 146, 1, 148, 1, 147, 1, 231, 0, 232, 0, 149, 1 ),
"blend_shape_data": [  ],
"format": 97539,
"index_count": 468,
"material": ExtResource( 1 ),
"name": "Wood",
"primitive": 4,
"skeleton_aabb": [  ],
"vertex_count": 406
}

[node name="Table" type="Spatial"]

[node name="Spatial" type="Spatial" parent="."]
transform = Transform( 0.45, 0, 0, 0, 0.45, 0, 0, 0, 0.45, 0, 0, 0 )

[node name="StaticBody" type="StaticBody" parent="Spatial"]

[node name="CollisionShape" type="CollisionShape" parent="Spatial/StaticBody"]
transform = Transform( 1, 0, 0, 0, 1, 0, 0, 0, 1, 0, 1.70679, 0 )
shape = SubResource( 1 )

[node name="Table" type="MeshInstance" parent="Spatial"]
transform = Transform( 0.127072, 0, 0, 0, 1.8463, 0, 0, 0, 0.127072, 3.49332, 1.83918, -1.49228 )
mesh = SubResource( 2 )
material/0 = null

[node name="AnimationPlayer" type="AnimationPlayer" parent="Spatial"]

