<?xml version="1.0" encoding="utf-8"?>
<COLLADA xmlns="http://www.collada.org/2005/11/COLLADASchema" version="1.4.1">
<asset>
	<contributor>
		<author>Anonymous</author>
		<authoring_tool>Collada Exporter for Blender 2.6+, by Juan Linietsky (juan@codenix.com)</authoring_tool>
	</contributor>
	<created>2019-01-27T11:39:20Z</created>
	<modified>2019-01-27T11:39:20Z</modified>
	<unit meter="1.0" name="meter"/>
	<up_axis>Z_UP</up_axis>
</asset>
<library_effects>
	<effect id="id-fx-2" name="Walls-fx">
		<profile_COMMON>
			<technique sid="common">
				<blinn>
					<emission>
						<color>  0.0 0.0 0.0 1.0 </color>
					</emission>
					<ambient>
						<color>  0.0 0.0 0.0 1.0 </color>
					</ambient>
					<diffuse>
						<color>  0.6400000190734865 0.6400000190734865 0.6400000190734865 1.0 </color>
					</diffuse>
					<specular>
						<color>  0.5 0.5 0.5 1.0 </color>
					</specular>
					<shininess>
						<float>50</float>
					</shininess>
					<reflective>
						<color>  1.0 1.0 1.0 1.0 </color>
					</reflective>
					<index_of_refraction>
						<float>4.0</float>
					</index_of_refraction>
				</blinn>
				<extra>
					<technique profile="FCOLLADA">
					</technique>
					<technique profile="GOOGLEEARTH">
						<double_sided>0</double_sided>
					</technique>
				</extra>
			</technique>
		</profile_COMMON>
	</effect>
	<effect id="id-fx-10" name="Floor_Kitchen-fx">
		<profile_COMMON>
			<technique sid="common">
				<blinn>
					<emission>
						<color>  0.0 0.0 0.0 1.0 </color>
					</emission>
					<ambient>
						<color>  0.0 0.0 0.0 1.0 </color>
					</ambient>
					<diffuse>
						<color>  0.800000011920929 0.800000011920929 0.800000011920929 1.0 </color>
					</diffuse>
					<specular>
						<color>  0.5 0.5 0.5 1.0 </color>
					</specular>
					<shininess>
						<float>50</float>
					</shininess>
					<reflective>
						<color>  1.0 1.0 1.0 1.0 </color>
					</reflective>
					<index_of_refraction>
						<float>4.0</float>
					</index_of_refraction>
				</blinn>
				<extra>
					<technique profile="FCOLLADA">
					</technique>
					<technique profile="GOOGLEEARTH">
						<double_sided>0</double_sided>
					</technique>
				</extra>
			</technique>
		</profile_COMMON>
	</effect>
	<effect id="id-fx-12" name="Floor_Bathroom-fx">
		<profile_COMMON>
			<technique sid="common">
				<blinn>
					<emission>
						<color>  0.0 0.0 0.0 1.0 </color>
					</emission>
					<ambient>
						<color>  0.0 0.0 0.0 1.0 </color>
					</ambient>
					<diffuse>
						<color>  0.800000011920929 0.800000011920929 0.800000011920929 1.0 </color>
					</diffuse>
					<specular>
						<color>  0.5 0.5 0.5 1.0 </color>
					</specular>
					<shininess>
						<float>50</float>
					</shininess>
					<reflective>
						<color>  1.0 1.0 1.0 1.0 </color>
					</reflective>
					<index_of_refraction>
						<float>4.0</float>
					</index_of_refraction>
				</blinn>
				<extra>
					<technique profile="FCOLLADA">
					</technique>
					<technique profile="GOOGLEEARTH">
						<double_sided>0</double_sided>
					</technique>
				</extra>
			</technique>
		</profile_COMMON>
	</effect>
	<effect id="id-fx-14" name="Floor-fx">
		<profile_COMMON>
			<technique sid="common">
				<blinn>
					<emission>
						<color>  0.0 0.0 0.0 1.0 </color>
					</emission>
					<ambient>
						<color>  0.0 0.0 0.0 1.0 </color>
					</ambient>
					<diffuse>
						<color>  0.6400000190734865 0.6400000190734865 0.6400000190734865 1.0 </color>
					</diffuse>
					<specular>
						<color>  0.5 0.5 0.5 1.0 </color>
					</specular>
					<shininess>
						<float>50</float>
					</shininess>
					<reflective>
						<color>  1.0 1.0 1.0 1.0 </color>
					</reflective>
					<index_of_refraction>
						<float>4.0</float>
					</index_of_refraction>
				</blinn>
				<extra>
					<technique profile="FCOLLADA">
					</technique>
					<technique profile="GOOGLEEARTH">
						<double_sided>0</double_sided>
					</technique>
				</extra>
			</technique>
		</profile_COMMON>
	</effect>
	<effect id="id-fx-16" name="Floor_Bedroom-fx">
		<profile_COMMON>
			<technique sid="common">
				<blinn>
					<emission>
						<color>  0.0 0.0 0.0 1.0 </color>
					</emission>
					<ambient>
						<color>  0.0 0.0 0.0 1.0 </color>
					</ambient>
					<diffuse>
						<color>  0.640000066757203 0.15758924719079204 0.028560668655643884 1.0 </color>
					</diffuse>
					<specular>
						<color>  0.5 0.5 0.5 1.0 </color>
					</specular>
					<shininess>
						<float>50</float>
					</shininess>
					<reflective>
						<color>  1.0 1.0 1.0 1.0 </color>
					</reflective>
					<index_of_refraction>
						<float>4.0</float>
					</index_of_refraction>
				</blinn>
				<extra>
					<technique profile="FCOLLADA">
					</technique>
					<technique profile="GOOGLEEARTH">
						<double_sided>0</double_sided>
					</technique>
				</extra>
			</technique>
		</profile_COMMON>
	</effect>
</library_effects>
<library_materials>
	<material id="id-material-3" name="Walls">
		<instance_effect url="#id-fx-2"/>
	</material>
	<material id="id-material-11" name="Floor_Kitchen">
		<instance_effect url="#id-fx-10"/>
	</material>
	<material id="id-material-13" name="Floor_Bathroom">
		<instance_effect url="#id-fx-12"/>
	</material>
	<material id="id-material-15" name="Floor">
		<instance_effect url="#id-fx-14"/>
	</material>
	<material id="id-material-17" name="Floor_Bedroom">
		<instance_effect url="#id-fx-16"/>
	</material>
</library_materials>
<library_geometries>
	<geometry id="id-mesh-4" name="Cube.001">
		<mesh>
			<source id="id-mesh-4-positions">
				<float_array id="id-mesh-4-positions-array" count="180"> -38.008689880371094 -2.473158121109009 -1.0 -40.008689880371094 -2.179727792739868 -1.0 -38.008689880371094 -2.179727792739868 -1.0 -40.008689880371094 -2.179727792739868 1.0 -38.008689880371094 -2.473158359527588 1.0 -38.008689880371094 -2.1797280311584473 1.0 -38.008689880371094 -2.1797280311584473 1.0 -38.008689880371094 -2.473158121109009 -1.0 -38.008689880371094 -2.179727792739868 -1.0 -38.008689880371094 -2.473158359527588 1.0 -40.008689880371094 -2.473158121109009 -1.0 -38.008689880371094 -2.473158121109009 -1.0 -40.008689880371094 -2.473158121109009 1.0 -40.008689880371094 -2.179727792739868 -1.0 -40.008689880371094 -2.473158121109009 -1.0 -38.008689880371094 -2.179727792739868 -1.0 -40.008689880371094 -2.179727792739868 1.0 -38.008689880371094 -2.1797280311584473 1.0 -38.00868225097656 -1.258488416671753 -1.0 -40.00868225097656 0.491999089717865 -1.0 -38.00868225097656 0.49199873208999634 -1.0 -38.00868225097656 0.4919983744621277 1.0 -40.00868225097656 -1.2584880590438843 1.0 -38.00868225097656 -1.2584888935089111 1.0 -38.00868225097656 0.4919983744621277 1.0 -38.00868225097656 -1.258488416671753 -1.0 -38.00868225097656 0.49199873208999634 -1.0 -38.00868225097656 -1.2584888935089111 1.0 -40.00868225097656 -1.2584882974624634 -1.0 -38.00868225097656 -1.258488416671753 -1.0 -40.00868225097656 -1.2584880590438843 1.0 -40.00868225097656 0.491999089717865 -1.0 -40.00868225097656 -1.2584882974624634 -1.0 -38.00868225097656 0.49199873208999634 -1.0 -40.00868225097656 0.4919987916946411 1.0 -38.00868225097656 0.4919983744621277 1.0 -40.008689880371094 -2.473158121109009 -1.0 -40.008689880371094 -2.473158121109009 1.0 -38.008689880371094 -2.473158359527588 1.0 -38.008689880371094 -2.473158359527588 1.0 -40.008689880371094 -2.473158121109009 1.0 -40.008689880371094 -2.473158121109009 -1.0 -40.008689880371094 -2.179727792739868 1.0 -38.008689880371094 -2.179727792739868 -1.0 -40.008689880371094 -2.179727792739868 -1.0 -40.008689880371094 -2.179727792739868 1.0 -38.00868225097656 -1.258488416671753 -1.0 -40.00868225097656 -1.2584882974624634 -1.0 -40.00868225097656 0.491999089717865 -1.0 -38.00868225097656 0.4919983744621277 1.0 -40.00868225097656 0.4919987916946411 1.0 -40.00868225097656 -1.2584880590438843 1.0 -38.00868225097656 -1.2584888935089111 1.0 -38.00868225097656 -1.2584888935089111 1.0 -40.00868225097656 -1.2584880590438843 1.0 -40.00868225097656 -1.2584882974624634 -1.0 -40.00868225097656 0.4919987916946411 1.0 -38.00868225097656 0.49199873208999634 -1.0 -40.00868225097656 0.491999089717865 -1.0 -40.00868225097656 0.4919987916946411 1.0</float_array>
				<technique_common>
				<accessor source="#id-mesh-4-positions-array" count="60" stride="3">
					<param name="X" type="float"/>
					<param name="Y" type="float"/>
					<param name="Z" type="float"/>
				</accessor>
				</technique_common>
			</source>
			<source id="id-mesh-4-normals">
				<float_array id="id-mesh-4-normals-array" count="180"> 0.0 0.0 -1.0 0.0 0.0 -1.0 0.0 0.0 -1.0 0.0 0.0 1.0 0.0 0.0 1.0 0.0 0.0 1.0 1.0 0.0 0.0 1.0 0.0 0.0 1.0 0.0 0.0 0.0 -1.0 -2.384185791015625e-07 0.0 -1.0 -2.384185791015625e-07 0.0 -1.0 -2.384185791015625e-07 -1.0 0.0 0.0 -1.0 0.0 0.0 -1.0 0.0 0.0 1.1920928955078125e-07 1.0 2.384185791015625e-07 1.1920928955078125e-07 1.0 2.384185791015625e-07 1.1920928955078125e-07 1.0 2.384185791015625e-07 6.810063979401093e-08 0.0 -1.0 6.810063979401093e-08 0.0 -1.0 6.810063979401093e-08 0.0 -1.0 -6.810063979401093e-08 0.0 1.0 -6.810063979401093e-08 0.0 1.0 -6.810063979401093e-08 0.0 1.0 1.0 0.0 0.0 1.0 0.0 0.0 1.0 0.0 0.0 -5.960464477539063e-08 -1.0 -2.384185791015625e-07 -5.960464477539063e-08 -1.0 -2.384185791015625e-07 -5.960464477539063e-08 -1.0 -2.384185791015625e-07 -1.0 0.0 0.0 -1.0 0.0 0.0 -1.0 0.0 0.0 2.086162567138672e-07 1.0 1.7881393432617188e-07 2.086162567138672e-07 1.0 1.7881393432617188e-07 2.086162567138672e-07 1.0 1.7881393432617188e-07 0.0 0.0 -1.0 0.0 0.0 1.0 1.0 0.0 0.0 -1.1920928955078125e-07 -1.0 0.0 -1.1920928955078125e-07 -1.0 0.0 -1.1920928955078125e-07 -1.0 0.0 -1.0 0.0 0.0 0.0 1.0 0.0 0.0 1.0 0.0 0.0 1.0 0.0 -6.810061847772886e-08 0.0 -0.9999999403953552 -6.810061847772886e-08 0.0 -0.9999999403953552 -6.810061847772886e-08 0.0 -0.9999999403953552 0.0 0.0 1.0 0.0 0.0 1.0 0.0 0.0 1.0 1.0 0.0 0.0 -4.172325134277344e-07 -1.0 2.384185791015625e-07 -4.172325134277344e-07 -1.0 2.384185791015625e-07 -4.172325134277344e-07 -1.0 2.384185791015625e-07 -1.0 0.0 0.0 1.7881393432617188e-07 1.0 1.4901161193847656e-07 1.7881393432617188e-07 1.0 1.4901161193847656e-07 1.7881393432617188e-07 1.0 1.4901161193847656e-07</float_array>
				<technique_common>
				<accessor source="#id-mesh-4-normals-array" count="60" stride="3">
					<param name="X" type="float"/>
					<param name="Y" type="float"/>
					<param name="Z" type="float"/>
				</accessor>
				</technique_common>
			</source>
			<source id="id-mesh-4-texcoord-0">
				<float_array id="id-mesh-4-texcoord-0-array" count="120"> 0.9377158880233765 0.21250000596046448 0.9512445330619812 0.20000000298023224 0.9512445330619812 0.21250000596046448 0.951244592666626 0.20000000298023224 0.9377158880233765 0.1875000149011612 0.9512445330619812 0.1875000149011612 0.9377158880233765 0.16249999403953552 0.9512445330619812 0.17499999701976776 0.9377158880233765 0.17500001192092896 0.7612431049346924 0.20000006258487701 0.8166059851646423 0.1875000298023224 0.8166059851646423 0.20000006258487701 0.9512445330619812 0.1875000149011612 0.9377158880233765 0.17500001192092896 0.9512445330619812 0.17499999701976776 0.9377158880233765 0.19999998807907104 0.8823530077934265 0.2124999761581421 0.8823530077934265 0.19999998807907104 0.9828113913536072 0.125 0.9377158880233765 0.13750000298023224 0.9377158880233765 0.125 0.9828113913536072 0.14999999105930328 0.9377158880233765 0.16249999403953552 0.9377158880233765 0.14999999105930328 0.9828113913536072 0.07499995827674866 0.9377158880233765 0.06249998137354851 0.9828113913536072 0.062499962747097015 0.8823530077934265 0.13750000298023224 0.9377158880233765 0.14999999105930328 0.8823530077934265 0.14999999105930328 0.9377158880233765 0.08750002086162567 0.9828113913536072 0.10000000894069672 0.9377158880233765 0.10000000894069672 0.9930787682533264 0.0 0.9377158880233765 0.012499997392296791 0.9377158880233765 0.0 0.9377158880233765 0.20000000298023224 0.9377159476280212 0.20000000298023224 0.9512445330619812 0.16249999403953552 0.7612431049346924 0.20000006258487701 0.7612431049346924 0.1875000298023224 0.8166059851646423 0.1875000298023224 0.9377158880233765 0.1875000149011612 0.9377158880233765 0.19999998807907104 0.9377158880233765 0.2124999761581421 0.8823530077934265 0.2124999761581421 0.9828113913536072 0.125 0.9828113913536072 0.13750000298023224 0.9377158880233765 0.13750000298023224 0.9828113913536072 0.14999999105930328 0.9828113913536072 0.16249999403953552 0.9377158880233765 0.16249999403953552 0.9377158880233765 0.07499998062849045 0.8823530077934265 0.13750000298023224 0.9377158880233765 0.13750000298023224 0.9377158880233765 0.14999999105930328 0.9828113913536072 0.08750000596046448 0.9930787682533264 0.0 0.9930787682533264 0.012499997392296791 0.9377158880233765 0.012499997392296791</float_array>
				<technique_common>
				<accessor source="#id-mesh-4-texcoord-0-array" count="60" stride="2">
					<param name="S" type="float"/>
					<param name="T" type="float"/>
				</accessor>
				</technique_common>
			</source>
			<source id="id-mesh-4-texcoord-1">
				<float_array id="id-mesh-4-texcoord-1-array" count="120"> 1.0 0.0 0.0 1.0 0.0 0.0 1.0 0.0 0.0 1.0 0.0 0.0 1.0 0.0 0.0 1.0 0.0 0.0 1.0 0.0 0.0 1.0 0.0 0.0 1.0 0.0 0.0 1.0 0.0 0.0 1.0 0.0 0.0 1.0 0.0 0.0 1.0 0.0 0.0 1.0 0.0 0.0 0.0 0.0 1.0 1.0 0.0 1.0 1.0 0.0 0.0 1.0 0.0 0.0 1.0 0.0 0.0 1.0 0.0 0.0 1.0 0.0 0.0 1.0 0.0 0.0 1.0 0.0 0.0 1.0 0.0 0.0 1.0 1.0 1.0 1.0 1.0 1.0 1.0 0.0 1.0 1.0 0.0 1.0 1.0 1.0 1.0 0.0 1.0 1.0 0.0 1.0 1.0 0.0 1.0 1.0 0.0 1.0 0.0 0.0 1.0 0.0 1.0 1.0 1.0 1.0 1.0 0.0 1.0 1.0 0.0 1.0 1.0 1.0 1.0 0.0 1.0 1.0 0.0 1.0</float_array>
				<technique_common>
				<accessor source="#id-mesh-4-texcoord-1-array" count="60" stride="2">
					<param name="S" type="float"/>
					<param name="T" type="float"/>
				</accessor>
				</technique_common>
			</source>
			<vertices id="id-mesh-4-vertices">
				<input semantic="POSITION" source="#id-mesh-4-positions"/>
			</vertices>
			<triangles count="24" material="id-trimat-5">
				<input semantic="VERTEX" source="#id-mesh-4-vertices" offset="0"/>
				<input semantic="NORMAL" source="#id-mesh-4-normals" offset="0"/>
				<input semantic="TEXCOORD" source="#id-mesh-4-texcoord-0" offset="0" set="0"/>
				<input semantic="TEXCOORD" source="#id-mesh-4-texcoord-1" offset="0" set="1"/>
				<p> 0 1 2 3 4 5 6 7 8 9 10 11 12 13 14 15 16 17 18 19 20 21 22 23 24 25 26 27 28 29 30 31 32 33 34 35 0 36 1 3 37 4 6 38 7 39 40 41 12 42 13 43 44 45 46 47 48 49 50 51 24 52 25 53 54 55 30 56 31 57 58 59 </p>
			</triangles>
		</mesh>
	</geometry>
	<geometry id="id-mesh-6" name="Cube.002">
		<mesh>
			<source id="id-mesh-6-positions">
				<float_array id="id-mesh-6-positions-array" count="192"> 0.9999994039535522 -1.2586350440979004 -1.0 -0.9999996423721313 1.0000003576278687 -1.0 1.0 0.9999999403953552 -1.0 -0.9999999403953552 1.0 1.0 0.9999987483024597 -1.2586357593536377 1.0 1.0000004768371582 0.999999463558197 1.0 1.0000004768371582 0.999999463558197 1.0 0.9999994039535522 -1.2586350440979004 -1.0 1.0 0.9999999403953552 -1.0 0.9999987483024597 -1.2586357593536377 1.0 -1.0000007152557373 -1.2586349248886108 -1.0 0.9999994039535522 -1.2586350440979004 -1.0 -1.0000007152557373 -1.2586349248886108 -1.0 -0.9999999403953552 1.0 1.0 -0.9999996423721313 1.0000003576278687 -1.0 1.0 0.9999999403953552 -1.0 -0.9999999403953552 1.0 1.0 1.0000004768371582 0.999999463558197 1.0 0.9999978542327881 -1.2586350440979004 -1.0 -1.0 1.0000003576278687 -1.0 0.9999995231628418 0.9999999403953552 -1.0 -1.000000238418579 1.0 1.0 0.9999971985816956 -1.2586357593536377 1.0 0.9999998807907104 0.999999463558197 1.0 0.9999998807907104 0.999999463558197 1.0 0.9999978542327881 -1.2586350440979004 -1.0 0.9999995231628418 0.9999999403953552 -1.0 0.9999971985816956 -1.2586357593536377 1.0 -1.0000020265579224 -1.2586349248886108 -1.0 0.9999978542327881 -1.2586350440979004 -1.0 -1.0000020265579224 -1.2586349248886108 -1.0 -1.000000238418579 1.0 1.0 -1.0 1.0000003576278687 -1.0 0.9999994039535522 -1.2586350440979004 -1.0 -1.0000007152557373 -1.2586349248886108 -1.0 -0.9999996423721313 1.0000003576278687 -1.0 -0.9999999403953552 1.0 1.0 -1.0000009536743164 -1.2586348056793213 1.0 0.9999987483024597 -1.2586357593536377 1.0 1.0000004768371582 0.999999463558197 1.0 0.9999987483024597 -1.2586357593536377 1.0 0.9999994039535522 -1.2586350440979004 -1.0 0.9999987483024597 -1.2586357593536377 1.0 -1.0000009536743164 -1.2586348056793213 1.0 -1.0000007152557373 -1.2586349248886108 -1.0 -1.0000007152557373 -1.2586349248886108 -1.0 -1.0000009536743164 -1.2586348056793213 1.0 -0.9999999403953552 1.0 1.0 1.0 0.9999999403953552 -1.0 -0.9999996423721313 1.0000003576278687 -1.0 -0.9999999403953552 1.0 1.0 0.9999978542327881 -1.2586350440979004 -1.0 -1.0000020265579224 -1.2586349248886108 -1.0 -1.0 1.0000003576278687 -1.0 -1.0000022649765015 -1.2586348056793213 1.0 0.9999998807907104 0.999999463558197 1.0 0.9999971985816956 -1.2586357593536377 1.0 0.9999978542327881 -1.2586350440979004 -1.0 0.9999971985816956 -1.2586357593536377 1.0 -1.0000022649765015 -1.2586348056793213 1.0 -1.0000020265579224 -1.2586349248886108 -1.0 -1.0000020265579224 -1.2586349248886108 -1.0 -1.0000022649765015 -1.2586348056793213 1.0 -1.000000238418579 1.0 1.0</float_array>
				<technique_common>
				<accessor source="#id-mesh-6-positions-array" count="64" stride="3">
					<param name="X" type="float"/>
					<param name="Y" type="float"/>
					<param name="Z" type="float"/>
				</accessor>
				</technique_common>
			</source>
			<source id="id-mesh-6-normals">
				<float_array id="id-mesh-6-normals-array" count="192"> 2.638967977475204e-08 0.0 -0.9999999403953552 2.638967977475204e-08 0.0 -0.9999999403953552 2.638967977475204e-08 0.0 -0.9999999403953552 0.0 0.0 1.0 0.0 0.0 1.0 0.0 0.0 1.0 1.0 -2.6389673735138786e-07 -2.3841863594498136e-07 1.0 -2.6389673735138786e-07 -2.3841863594498136e-07 1.0 -2.6389673735138786e-07 -2.3841863594498136e-07 -5.960464477539063e-08 -1.0 -2.384185791015625e-07 -5.960464477539063e-08 -1.0 -2.384185791015625e-07 -5.960464477539063e-08 -1.0 -2.384185791015625e-07 -1.0 5.277934747027757e-07 -1.4901152667334827e-07 -1.0 5.277934747027757e-07 -1.4901152667334827e-07 -1.0 5.277934747027757e-07 -1.4901152667334827e-07 2.6822084464583895e-07 1.0 2.3841852225814364e-07 2.6822084464583895e-07 1.0 2.3841852225814364e-07 2.6822084464583895e-07 1.0 2.3841852225814364e-07 2.6389683327465718e-08 0.0 -1.0 2.6389683327465718e-08 0.0 -1.0 2.6389683327465718e-08 0.0 -1.0 0.0 0.0 1.0 0.0 0.0 1.0 0.0 0.0 1.0 1.0 -7.389108986899373e-07 -1.7881409064557374e-07 1.0 -7.389108986899373e-07 -1.7881409064557374e-07 1.0 -7.389108986899373e-07 -1.7881409064557374e-07 -5.960465188081798e-08 -1.0 -2.3841860752327193e-07 -5.960465188081798e-08 -1.0 -2.3841860752327193e-07 -5.960465188081798e-08 -1.0 -2.3841860752327193e-07 -1.0 9.500282089902612e-07 -1.1920914033680674e-07 -1.0 9.500282089902612e-07 -1.1920914033680674e-07 -1.0 9.500282089902612e-07 -1.1920914033680674e-07 -1.0555869067729873e-07 0.0 -1.0 -1.0555869067729873e-07 0.0 -1.0 -1.0555869067729873e-07 0.0 -1.0 0.0 0.0 0.9999999403953552 0.0 0.0 0.9999999403953552 0.0 0.0 0.9999999403953552 1.0 -7.916901836324541e-07 3.2782526204755413e-07 1.0 -7.916901836324541e-07 3.2782526204755413e-07 1.0 -7.916901836324541e-07 3.2782526204755413e-07 -4.768372150465439e-07 -1.0 -8.837762521807235e-08 -4.768372150465439e-07 -1.0 -8.837762521807235e-08 -4.768372150465439e-07 -1.0 -8.837762521807235e-08 -1.0 4.222348479743232e-07 -1.1920931797249068e-07 -1.0 4.222348479743232e-07 -1.1920931797249068e-07 -1.0 4.222348479743232e-07 -1.1920931797249068e-07 2.0861631355728605e-07 1.0 8.940701690107744e-08 2.0861631355728605e-07 1.0 8.940701690107744e-08 2.0861631355728605e-07 1.0 8.940701690107744e-08 -1.0555869067729873e-07 0.0 -1.0 -1.0555869067729873e-07 0.0 -1.0 -1.0555869067729873e-07 0.0 -1.0 0.0 0.0 1.0 1.0 -1.2139249747633585e-06 3.27825119939007e-07 1.0 -1.2139249747633585e-06 3.27825119939007e-07 1.0 -1.2139249747633585e-06 3.27825119939007e-07 -4.768372718899627e-07 -1.0 3.083167854356361e-08 -4.768372718899627e-07 -1.0 3.083167854356361e-08 -4.768372718899627e-07 -1.0 3.083167854356361e-08 -1.0 8.444696959486464e-07 -1.192093321833454e-07 -1.0 8.444696959486464e-07 -1.192093321833454e-07 -1.0 8.444696959486464e-07 -1.192093321833454e-07</float_array>
				<technique_common>
				<accessor source="#id-mesh-6-normals-array" count="64" stride="3">
					<param name="X" type="float"/>
					<param name="Y" type="float"/>
					<param name="Z" type="float"/>
				</accessor>
				</technique_common>
			</source>
			<source id="id-mesh-6-texcoord-0">
				<float_array id="id-mesh-6-texcoord-0-array" count="128"> 0.9930787682533264 0.012500003911554813 0.9377158880233765 0.02500000037252903 0.9377158880233765 0.012500005774199963 0.9377158880233765 0.19999998807907104 0.8823530077934265 0.1874999850988388 0.9377158880233765 0.1874999850988388 0.8823530077934265 0.11250000447034836 0.9377158880233765 0.10000000894069672 0.9377158880233765 0.11250000447034836 0.8823530077934265 0.03750000521540642 0.9377158880233765 0.025000007823109627 0.9377159476280212 0.037500008940696716 0.8719689846038818 0.20000001788139343 0.8166061043739319 0.1875000149011612 0.8719689846038818 0.1875000149011612 0.8823530077934265 0.1874999850988388 0.9377158880233765 0.17499999701976776 0.9377158880233765 0.1874999850988388 0.8823530077934265 0.13750000298023224 0.9377158880233765 0.125 0.9377158880233765 0.13750000298023224 0.9377158880233765 0.05000000819563866 0.8823530077934265 0.03750001639127731 0.9377158880233765 0.037500008940696716 0.9377158880233765 0.10000000149011612 0.8823530077934265 0.08750000596046448 0.9377159476280212 0.08750000596046448 0.8823530077934265 0.012500008568167686 0.9377158880233765 0.02500000223517418 0.8823530077934265 0.025000007823109627 0.9377158880233765 0.125 0.8823530077934265 0.11250000447034836 0.9377158880233765 0.11250000447034836 0.9930787682533264 0.012500003911554813 0.9930787682533264 0.02500000223517418 0.9377158880233765 0.02500000037252903 0.9377158880233765 0.19999998807907104 0.8823530077934265 0.19999998807907104 0.8823530077934265 0.1874999850988388 0.8823530077934265 0.11250000447034836 0.8823530077934265 0.10000000149011612 0.9377158880233765 0.10000000894069672 0.8823530077934265 0.03750000521540642 0.8823530077934265 0.025000007823109627 0.9377158880233765 0.025000007823109627 0.8719689846038818 0.20000001788139343 0.8166061043739319 0.20000001788139343 0.8166061043739319 0.1875000149011612 0.8823530077934265 0.1874999850988388 0.8823530077934265 0.17499999701976776 0.9377158880233765 0.17499999701976776 0.8823530077934265 0.13750000298023224 0.8823530077934265 0.125 0.9377158880233765 0.125 0.8823530077934265 0.050000011920928955 0.9377158880233765 0.10000000149011612 0.8823530077934265 0.10000000894069672 0.8823530077934265 0.08750000596046448 0.8823530077934265 0.012500008568167686 0.9377158880233765 0.012500003911554813 0.9377158880233765 0.02500000223517418 0.9377158880233765 0.125 0.8823530077934265 0.125 0.8823530077934265 0.11250000447034836</float_array>
				<technique_common>
				<accessor source="#id-mesh-6-texcoord-0-array" count="64" stride="2">
					<param name="S" type="float"/>
					<param name="T" type="float"/>
				</accessor>
				</technique_common>
			</source>
			<source id="id-mesh-6-texcoord-1">
				<float_array id="id-mesh-6-texcoord-1-array" count="128"> 1.0 0.0 0.0 1.0 0.0 0.0 1.0 0.0 0.0 1.0 0.0 0.0 1.0 0.0 0.0 1.0 0.0 0.0 1.0 0.0 0.0 1.0 0.0 0.0 0.0 0.0 1.0 1.0 0.0 1.0 1.0 0.0 0.0 1.0 0.0 0.0 1.0 0.0 0.0 1.0 0.0 0.0 1.0 0.0 0.0 1.0 0.0 0.0 1.0 0.0 0.0 1.0 0.0 0.0 1.0 0.0 0.0 1.0 0.0 0.0 0.0 0.0 1.0 1.0 0.0 1.0 1.0 0.0 1.0 1.0 0.0 1.0 1.0 0.0 1.0 1.0 0.0 1.0 1.0 0.0 1.0 1.0 0.0 1.0 1.0 0.0 1.0 1.0 0.0 1.0 0.0 0.0 1.0 0.0 1.0 1.0 1.0 0.0 1.0 1.0 0.0 1.0 1.0 0.0 1.0 1.0 0.0 1.0 1.0 1.0 1.0 0.0 1.0 1.0 0.0 1.0 1.0 0.0 1.0 1.0 0.0 1.0 0.0 0.0 1.0 0.0 1.0 1.0</float_array>
				<technique_common>
				<accessor source="#id-mesh-6-texcoord-1-array" count="64" stride="2">
					<param name="S" type="float"/>
					<param name="T" type="float"/>
				</accessor>
				</technique_common>
			</source>
			<vertices id="id-mesh-6-vertices">
				<input semantic="POSITION" source="#id-mesh-6-positions"/>
			</vertices>
			<triangles count="22" material="id-trimat-7">
				<input semantic="VERTEX" source="#id-mesh-6-vertices" offset="0"/>
				<input semantic="NORMAL" source="#id-mesh-6-normals" offset="0"/>
				<input semantic="TEXCOORD" source="#id-mesh-6-texcoord-0" offset="0" set="0"/>
				<input semantic="TEXCOORD" source="#id-mesh-6-texcoord-1" offset="0" set="1"/>
				<p> 0 1 2 3 4 5 6 7 8 9 10 11 12 13 14 15 16 17 18 19 20 21 22 23 24 25 26 27 28 29 30 31 32 33 34 35 36 37 38 39 40 41 42 43 44 45 46 47 48 49 50 51 52 53 21 54 22 55 56 57 58 59 60 61 62 63 </p>
			</triangles>
		</mesh>
	</geometry>
	<geometry id="id-mesh-8" name="Cube.016">
		<mesh>
			<source id="id-mesh-8-positions">
				<float_array id="id-mesh-8-positions-array" count="792"> -0.03424471616744995 -2.4834787845611572 -1.0 -2.0342442989349365 -2.167931079864502 -1.0 -0.03424473851919174 -2.167931079864502 -1.0 -2.0342445373535156 -2.167931079864502 1.0 -0.03424537181854248 -2.4834787845611572 1.0 -0.03424426168203354 -2.167931318283081 1.0 -0.03424426168203354 -2.167931318283081 1.0 -0.03424471616744995 -2.4834787845611572 -1.0 -0.03424473851919174 -2.167931079864502 -1.0 -0.03424537181854248 -2.4834787845611572 1.0 -2.0342445373535156 -2.4834787845611572 -1.0 -0.03424471616744995 -2.4834787845611572 -1.0 -2.034245014190674 -2.483478546142578 1.0 -2.0342442989349365 -2.167931079864502 -1.0 -2.0342445373535156 -2.4834787845611572 -1.0 -0.03424473851919174 -2.167931079864502 -1.0 -2.0342445373535156 -2.167931079864502 1.0 -0.03424426168203354 -2.167931318283081 1.0 0.9999995231628418 0.9999999403953552 -1.0 -1.000000238418579 1.0 1.0 0.9999998807907104 0.999999463558197 1.0 -0.13954544067382812 0.9991742372512817 -1.0 63.860443115234375 0.9366742372512817 -1.0 -0.139556884765625 0.9366742372512817 -1.0 -0.13953018188476562 0.9991742372512817 1.0 63.860435485839844 0.9366742372512817 1.0 63.86046600341797 0.9991742372512817 1.0 -0.13953018188476562 0.9991742372512817 1.0 63.860450744628906 0.9991742372512817 -1.0 -0.13954544067382812 0.9991742372512817 -1.0 63.86046600341797 0.9991742372512817 1.0 63.860443115234375 0.9366742372512817 -1.0 63.860450744628906 0.9991742372512817 -1.0 63.860435485839844 0.9366742372512817 1.0 -0.139556884765625 0.9366742372512817 -1.0 63.860443115234375 0.9366742372512817 -1.0 -0.13954544067382812 0.9991742372512817 -1.0 -0.13954734802246094 0.9366742372512817 1.0 -0.13953018188476562 0.9991742372512817 1.0 65.57717895507812 4.9977707862854 -1.0 63.57717514038086 -2.502228260040283 -1.0 63.57718276977539 4.997772693634033 -1.0 65.57717895507812 4.997769355773926 1.0 63.57717514038086 -2.502227306365967 1.0 65.57717895507812 -2.5022311210632324 1.0 65.57717895507812 4.997769355773926 1.0 65.57717895507812 -2.5022287368774414 -1.0 65.57717895507812 4.9977707862854 -1.0 65.57717895507812 -2.5022311210632324 1.0 63.57717514038086 -2.502228260040283 -1.0 65.57717895507812 -2.5022287368774414 -1.0 63.57717514038086 -2.502227306365967 1.0 63.57718276977539 4.997772693634033 -1.0 63.57717514038086 -2.502228260040283 -1.0 65.57717895507812 4.9977707862854 -1.0 63.57718276977539 4.997771263122559 1.0 65.57717895507812 4.997769355773926 1.0 -94.42280578613281 -2.5022287368774414 -1.0 -96.42280578613281 4.997772693634033 -1.0 -94.42280578613281 4.9977707862854 -1.0 -94.42280578613281 4.997769355773926 1.0 -96.42280578613281 -2.502227306365967 1.0 -94.42280578613281 -2.5022311210632324 1.0 -94.42280578613281 4.997769355773926 1.0 -94.42280578613281 -2.5022287368774414 -1.0 -94.42280578613281 4.9977707862854 -1.0 -94.42280578613281 -2.5022311210632324 1.0 -96.42280578613281 -2.502228260040283 -1.0 -94.42280578613281 -2.5022287368774414 -1.0 -96.42280578613281 -2.502227306365967 1.0 -96.42280578613281 4.997772693634033 -1.0 -96.42280578613281 -2.502228260040283 -1.0 -94.42280578613281 4.9977707862854 -1.0 -96.42280578613281 4.997771263122559 1.0 -94.42280578613281 4.997769355773926 1.0 -95.42278289794922 5.029021263122559 -1.0 64.57717895507812 4.966521263122559 -1.0 -95.42282104492188 4.966521263122559 -1.0 -95.42274475097656 5.029021263122559 1.0 64.57716369628906 4.966521263122559 1.0 64.57723999023438 5.029021263122559 1.0 -95.42274475097656 5.029021263122559 1.0 64.57719421386719 5.029021263122559 -1.0 -95.42278289794922 5.029021263122559 -1.0 64.57723999023438 5.029021263122559 1.0 64.57717895507812 4.966521263122559 -1.0 64.57719421386719 5.029021263122559 -1.0 64.57717895507812 4.966521263122559 -1.0 -95.42279052734375 4.966521263122559 1.0 -95.42282104492188 4.966521263122559 -1.0 -95.42278289794922 5.029021263122559 -1.0 -95.42279052734375 4.966521263122559 1.0 -95.42274475097656 5.029021263122559 1.0 -95.42280578613281 -2.4709787368774414 -1.0 64.57715606689453 -2.5334787368774414 -1.0 -95.42284393310547 -2.5334787368774414 -1.0 -95.42276763916016 -2.4709787368774414 1.0 64.57714080810547 -2.5334787368774414 1.0 64.57721710205078 -2.4709787368774414 1.0 -95.42276763916016 -2.4709787368774414 1.0 64.5771713256836 -2.4709787368774414 -1.0 -95.42280578613281 -2.4709787368774414 -1.0 64.57721710205078 -2.4709787368774414 1.0 64.57715606689453 -2.5334787368774414 -1.0 64.5771713256836 -2.4709787368774414 -1.0 64.57715606689453 -2.5334787368774414 -1.0 -95.42281341552734 -2.5334787368774414 1.0 -95.42284393310547 -2.5334787368774414 -1.0 -95.42280578613281 -2.4709787368774414 -1.0 -95.42281341552734 -2.5334787368774414 1.0 -95.42276763916016 -2.4709787368774414 1.0 -95.82222747802734 0.4831511974334717 -1.0 -37.719478607177734 0.4206513464450836 -1.0 -95.8222427368164 0.4206511974334717 -1.0 -95.82221221923828 0.4831511974334717 1.0 -37.719486236572266 0.4206513464450836 1.0 -37.71945571899414 0.48315131664276123 1.0 -95.82221221923828 0.4831511974334717 1.0 -37.71947479248047 0.4831513464450836 -1.0 -95.82222747802734 0.4831511974334717 -1.0 -37.71945571899414 0.48315131664276123 1.0 -37.719478607177734 0.4206513464450836 -1.0 -37.71947479248047 0.4831513464450836 -1.0 -37.719478607177734 0.4206513464450836 -1.0 -95.82222747802734 0.4206511974334717 1.0 -95.8222427368164 0.4206511974334717 -1.0 -95.82222747802734 0.4831511974334717 -1.0 -95.82222747802734 0.4206511974334717 1.0 -95.82221221923828 0.4831511974334717 1.0 -95.82222747802734 2.1636874675750732 -1.0 -43.03074264526367 2.1011874675750732 -1.0 -95.8222427368164 2.101187229156494 -1.0 -95.82221221923828 2.1636874675750732 1.0 -43.0307502746582 2.1011874675750732 1.0 -43.03071975708008 2.1636874675750732 1.0 -95.82221221923828 2.1636874675750732 1.0 -43.030738830566406 2.1636877059936523 -1.0 -95.82222747802734 2.1636874675750732 -1.0 -43.03071975708008 2.1636874675750732 1.0 -43.03074264526367 2.1011874675750732 -1.0 -43.030738830566406 2.1636877059936523 -1.0 -43.03074264526367 2.1011874675750732 -1.0 -95.82222747802734 2.101187229156494 1.0 -95.8222427368164 2.101187229156494 -1.0 -95.82222747802734 2.1636874675750732 -1.0 -95.82222747802734 2.101187229156494 1.0 -95.82221221923828 2.1636874675750732 1.0 -2.0342445373535156 -2.4834787845611572 -1.0 -2.034245014190674 -2.483478546142578 1.0 -0.03424426168203354 -2.167931318283081 1.0 -0.03424537181854248 -2.4834787845611572 1.0 -0.03424471616744995 -2.4834787845611572 -1.0 -0.03424537181854248 -2.4834787845611572 1.0 -2.034245014190674 -2.483478546142578 1.0 -2.0342445373535156 -2.4834787845611572 -1.0 -2.034245014190674 -2.483478546142578 1.0 -2.0342445373535156 -2.167931079864502 1.0 -2.0342442989349365 -2.167931079864502 -1.0 -0.03424473851919174 -2.167931079864502 -1.0 -2.0342442989349365 -2.167931079864502 -1.0 -2.0342445373535156 -2.167931079864502 1.0 0.9999995231628418 0.9999999403953552 -1.0 -1.0 1.0000003576278687 -1.0 -1.000000238418579 1.0 1.0 63.860450744628906 0.9991742372512817 -1.0 -0.13954734802246094 0.9366742372512817 1.0 -0.13953018188476562 0.9991742372512817 1.0 63.86046600341797 0.9991742372512817 1.0 63.860450744628906 0.9991742372512817 -1.0 63.86046600341797 0.9991742372512817 1.0 63.860435485839844 0.9366742372512817 1.0 63.860443115234375 0.9366742372512817 -1.0 63.860435485839844 0.9366742372512817 1.0 -0.13954734802246094 0.9366742372512817 1.0 -0.139556884765625 0.9366742372512817 -1.0 -0.13954544067382812 0.9991742372512817 -1.0 -0.139556884765625 0.9366742372512817 -1.0 -0.13954734802246094 0.9366742372512817 1.0 65.57717895507812 4.9977707862854 -1.0 65.57717895507812 -2.5022287368774414 -1.0 63.57717514038086 -2.502228260040283 -1.0 65.57717895507812 4.997769355773926 1.0 63.57718276977539 4.997771263122559 1.0 63.57717514038086 -2.502227306365967 1.0 65.57717895507812 -2.5022311210632324 1.0 65.57717895507812 -2.5022311210632324 1.0 63.57717514038086 -2.502227306365967 1.0 63.57717514038086 -2.502228260040283 -1.0 63.57717514038086 -2.502227306365967 1.0 63.57718276977539 4.997771263122559 1.0 63.57718276977539 4.997772693634033 -1.0 65.57717895507812 4.9977707862854 -1.0 63.57718276977539 4.997772693634033 -1.0 63.57718276977539 4.997771263122559 1.0 -94.42280578613281 -2.5022287368774414 -1.0 -96.42280578613281 -2.502228260040283 -1.0 -96.42280578613281 4.997772693634033 -1.0 -96.42280578613281 4.997771263122559 1.0 -94.42280578613281 -2.5022311210632324 1.0 -94.42280578613281 -2.5022311210632324 1.0 -96.42280578613281 -2.502227306365967 1.0 -96.42280578613281 -2.502228260040283 -1.0 -96.42280578613281 -2.502227306365967 1.0 -96.42280578613281 4.997771263122559 1.0 -96.42280578613281 4.997772693634033 -1.0 -94.42280578613281 4.9977707862854 -1.0 -96.42280578613281 4.997772693634033 -1.0 -96.42280578613281 4.997771263122559 1.0 64.57719421386719 5.029021263122559 -1.0 -95.42279052734375 4.966521263122559 1.0 -95.42274475097656 5.029021263122559 1.0 64.57723999023438 5.029021263122559 1.0 64.57719421386719 5.029021263122559 -1.0 64.57723999023438 5.029021263122559 1.0 64.57716369628906 4.966521263122559 1.0 64.57717895507812 4.966521263122559 -1.0 64.57717895507812 4.966521263122559 -1.0 64.57716369628906 4.966521263122559 1.0 -95.42279052734375 4.966521263122559 1.0 -95.42278289794922 5.029021263122559 -1.0 -95.42282104492188 4.966521263122559 -1.0 -95.42279052734375 4.966521263122559 1.0 64.5771713256836 -2.4709787368774414 -1.0 -95.42281341552734 -2.5334787368774414 1.0 -95.42276763916016 -2.4709787368774414 1.0 64.57721710205078 -2.4709787368774414 1.0 64.5771713256836 -2.4709787368774414 -1.0 64.57721710205078 -2.4709787368774414 1.0 64.57714080810547 -2.5334787368774414 1.0 64.57715606689453 -2.5334787368774414 -1.0 64.57715606689453 -2.5334787368774414 -1.0 64.57714080810547 -2.5334787368774414 1.0 -95.42281341552734 -2.5334787368774414 1.0 -95.42280578613281 -2.4709787368774414 -1.0 -95.42284393310547 -2.5334787368774414 -1.0 -95.42281341552734 -2.5334787368774414 1.0 -95.82222747802734 0.4831511974334717 -1.0 -37.71947479248047 0.4831513464450836 -1.0 -37.719478607177734 0.4206513464450836 -1.0 -95.82222747802734 0.4206511974334717 1.0 -95.82221221923828 0.4831511974334717 1.0 -37.71945571899414 0.48315131664276123 1.0 -37.71947479248047 0.4831513464450836 -1.0 -37.71945571899414 0.48315131664276123 1.0 -37.719486236572266 0.4206513464450836 1.0 -37.719478607177734 0.4206513464450836 -1.0 -37.719478607177734 0.4206513464450836 -1.0 -37.719486236572266 0.4206513464450836 1.0 -95.82222747802734 0.4206511974334717 1.0 -95.8222427368164 0.4206511974334717 -1.0 -43.030738830566406 2.1636877059936523 -1.0 -95.82222747802734 2.101187229156494 1.0 -95.82221221923828 2.1636874675750732 1.0 -43.03071975708008 2.1636874675750732 1.0 -43.030738830566406 2.1636877059936523 -1.0 -43.03071975708008 2.1636874675750732 1.0 -43.0307502746582 2.1011874675750732 1.0 -43.03074264526367 2.1011874675750732 -1.0 -43.03074264526367 2.1011874675750732 -1.0 -43.0307502746582 2.1011874675750732 1.0 -95.82222747802734 2.101187229156494 1.0 -95.82222747802734 2.1636874675750732 -1.0 -95.8222427368164 2.101187229156494 -1.0 -95.82222747802734 2.101187229156494 1.0</float_array>
				<technique_common>
				<accessor source="#id-mesh-8-positions-array" count="264" stride="3">
					<param name="X" type="float"/>
					<param name="Y" type="float"/>
					<param name="Z" type="float"/>
				</accessor>
				</technique_common>
			</source>
			<source id="id-mesh-8-normals">
				<float_array id="id-mesh-8-normals-array" count="792"> 0.0 0.0 -1.0 0.0 0.0 -1.0 0.0 0.0 -1.0 0.0 0.0 1.0 0.0 0.0 1.0 0.0 0.0 1.0 1.0 7.083474429236958e-08 -2.384188348969474e-07 1.0 7.083474429236958e-08 -2.384188348969474e-07 1.0 7.083474429236958e-08 -2.384188348969474e-07 0.0 -1.0 0.0 0.0 -1.0 0.0 0.0 -1.0 0.0 -1.0 1.5111412494661636e-06 -2.384183943604512e-07 -1.0 1.5111412494661636e-06 -2.384183943604512e-07 -1.0 1.5111412494661636e-06 -2.384183943604512e-07 1.1920927533992653e-07 1.0 0.0 1.1920927533992653e-07 1.0 0.0 1.1920927533992653e-07 1.0 0.0 2.682209014892578e-07 1.0 2.384185791015625e-07 2.682209014892578e-07 1.0 2.384185791015625e-07 2.682209014892578e-07 1.0 2.384185791015625e-07 0.0 0.0 -1.0 0.0 0.0 -1.0 0.0 0.0 -1.0 0.0 0.0 1.0 0.0 0.0 1.0 0.0 0.0 1.0 0.0 1.0 0.0 0.0 1.0 0.0 0.0 1.0 0.0 1.0 -0.0001220703125 -7.629379979334772e-06 1.0 -0.0001220703125 -7.629379979334772e-06 1.0 -0.0001220703125 -7.629379979334772e-06 0.0 -1.0 0.0 0.0 -1.0 0.0 0.0 -1.0 0.0 -1.0 0.000274658203125 7.62939453125e-06 -1.0 0.000274658203125 7.62939453125e-06 -1.0 0.000274658203125 7.62939453125e-06 0.0 0.0 -0.9999999403953552 0.0 0.0 -0.9999999403953552 0.0 0.0 -0.9999999403953552 0.0 0.0 1.0 0.0 0.0 1.0 0.0 0.0 1.0 1.0 0.0 0.0 1.0 0.0 0.0 1.0 0.0 0.0 -2.384185791015625e-07 -1.0 -1.1920928955078125e-06 -2.384185791015625e-07 -1.0 -1.1920928955078125e-06 -2.384185791015625e-07 -1.0 -1.1920928955078125e-06 -0.9999999403953552 1.0172524298468488e-06 -4.850637578233952e-13 -0.9999999403953552 1.0172524298468488e-06 -4.850637578233952e-13 -0.9999999403953552 1.0172524298468488e-06 -4.850637578233952e-13 9.5367431640625e-07 1.0 9.5367431640625e-07 9.5367431640625e-07 1.0 9.5367431640625e-07 9.5367431640625e-07 1.0 9.5367431640625e-07 0.0 0.0 -1.0 0.0 0.0 -1.0 0.0 0.0 -1.0 0.0 0.0 1.0 0.0 0.0 1.0 0.0 0.0 1.0 1.0 0.0 0.0 1.0 0.0 0.0 1.0 0.0 0.0 -2.384185791015625e-07 -1.0 -1.1920928955078125e-06 -2.384185791015625e-07 -1.0 -1.1920928955078125e-06 -2.384185791015625e-07 -1.0 -1.1920928955078125e-06 -0.9999999403953552 0.0 0.0 -0.9999999403953552 0.0 0.0 -0.9999999403953552 0.0 0.0 9.5367431640625e-07 1.0 9.5367431640625e-07 9.5367431640625e-07 1.0 9.5367431640625e-07 9.5367431640625e-07 1.0 9.5367431640625e-07 0.0 0.0 -1.0 0.0 0.0 -1.0 0.0 0.0 -1.0 0.0 0.0 1.0 0.0 0.0 1.0 0.0 0.0 1.0 0.0 1.0 0.0 0.0 1.0 0.0 0.0 1.0 0.0 1.0 -0.000244140625 -2.288818359375e-05 1.0 -0.000244140625 -2.288818359375e-05 1.0 -0.000244140625 -2.288818359375e-05 0.0 -1.0 -1.9712042842456867e-07 0.0 -1.0 -1.9712042842456867e-07 0.0 -1.0 -1.9712042842456867e-07 -0.9999995231628418 0.0009765620343387127 1.9073710063821636e-05 -0.9999995231628418 0.0009765620343387127 1.9073710063821636e-05 -0.9999995231628418 0.0009765620343387127 1.9073710063821636e-05 0.0 0.0 -1.0 0.0 0.0 -1.0 0.0 0.0 -1.0 0.0 0.0 1.0 0.0 0.0 1.0 0.0 0.0 1.0 0.0 1.0 0.0 0.0 1.0 0.0 0.0 1.0 0.0 1.0 -0.000244140625 -2.288818359375e-05 1.0 -0.000244140625 -2.288818359375e-05 1.0 -0.000244140625 -2.288818359375e-05 0.0 -1.0 8.898187076056274e-08 0.0 -1.0 8.898187076056274e-08 0.0 -1.0 8.898187076056274e-08 -0.9999998807907104 0.0004882811917923391 1.9073484509135596e-05 -0.9999998807907104 0.0004882811917923391 1.9073484509135596e-05 -0.9999998807907104 0.0004882811917923391 1.9073484509135596e-05 0.0 0.0 -1.0 0.0 0.0 -1.0 0.0 0.0 -1.0 0.0 0.0 1.0 0.0 0.0 1.0 0.0 0.0 1.0 -2.5646220702668643e-09 0.9999999403953552 0.0 -2.5646220702668643e-09 0.9999999403953552 0.0 -2.5646220702668643e-09 0.9999999403953552 0.0 1.0 0.0 -9.536752259009518e-06 1.0 0.0 -9.536752259009518e-06 1.0 0.0 -9.536752259009518e-06 2.5646216261776544e-09 -1.0 1.1988792181227836e-08 2.5646216261776544e-09 -1.0 1.1988792181227836e-08 2.5646216261776544e-09 -1.0 1.1988792181227836e-08 -1.0 0.000244140625 7.62939453125e-06 -1.0 0.000244140625 7.62939453125e-06 -1.0 0.000244140625 7.62939453125e-06 0.0 0.0 -1.0 0.0 0.0 -1.0 0.0 0.0 -1.0 0.0 0.0 1.0 0.0 0.0 1.0 0.0 0.0 1.0 -4.5162313888624794e-09 1.0 1.4451940444359934e-07 -4.5162313888624794e-09 1.0 1.4451940444359934e-07 -4.5162313888624794e-09 1.0 1.4451940444359934e-07 1.0 0.0 -9.536823199596256e-06 1.0 0.0 -9.536823199596256e-06 1.0 0.0 -9.536823199596256e-06 4.51623005659485e-09 -1.0 2.9247027910628276e-08 4.51623005659485e-09 -1.0 2.9247027910628276e-08 4.51623005659485e-09 -1.0 2.9247027910628276e-08 -1.0 0.00024413969367742538 7.629423635080457e-06 -1.0 0.00024413969367742538 7.629423635080457e-06 -1.0 0.00024413969367742538 7.629423635080457e-06 0.0 0.0 -1.0 0.0 0.0 1.0 1.0 -3.5181283237761818e-06 3.27825318890973e-07 1.0 -3.5181283237761818e-06 3.27825318890973e-07 1.0 -3.5181283237761818e-06 3.27825318890973e-07 -1.1920931797249068e-07 -1.0 3.536889323640935e-07 -1.1920931797249068e-07 -1.0 3.536889323640935e-07 -1.1920931797249068e-07 -1.0 3.536889323640935e-07 -1.0 0.0 -1.1920947429189255e-07 -1.0 0.0 -1.1920947429189255e-07 -1.0 0.0 -1.1920947429189255e-07 0.0 1.0 -2.0018946500499624e-08 0.0 1.0 -2.0018946500499624e-08 0.0 1.0 -2.0018946500499624e-08 2.0861631355728605e-07 1.0 1.192093463942001e-07 2.0861631355728605e-07 1.0 1.192093463942001e-07 2.0861631355728605e-07 1.0 1.192093463942001e-07 0.0 0.0 -1.0 0.0 0.0 1.0 0.0 1.0 -1.9687720897998418e-10 0.0 1.0 -1.9687720897998418e-10 0.0 1.0 -1.9687720897998418e-10 0.9999998807907104 -0.0004882811917923391 3.8146822589624207e-06 0.9999998807907104 -0.0004882811917923391 3.8146822589624207e-06 0.9999998807907104 -0.0004882811917923391 3.8146822589624207e-06 0.0 -1.0 2.036605017963211e-08 0.0 -1.0 2.036605017963211e-08 0.0 -1.0 2.036605017963211e-08 -1.0 0.00018310546875 4.768386133946478e-06 -1.0 0.00018310546875 4.768386133946478e-06 -1.0 0.00018310546875 4.768386133946478e-06 0.0 0.0 -1.0 0.0 0.0 -1.0 0.0 0.0 -1.0 0.0 0.0 0.9999999403953552 0.0 0.0 0.9999999403953552 0.0 0.0 0.9999999403953552 1.0 0.0 0.0 -1.9073413568548858e-06 -1.0 4.7683533921372145e-07 -1.9073413568548858e-06 -1.0 4.7683533921372145e-07 -1.9073413568548858e-06 -1.0 4.7683533921372145e-07 -1.0 1.017252770907362e-06 7.275958806805816e-13 -1.0 1.017252770907362e-06 7.275958806805816e-13 -1.0 1.017252770907362e-06 7.275958806805816e-13 9.53677954385057e-07 1.0 4.768389771925285e-07 9.53677954385057e-07 1.0 4.768389771925285e-07 9.53677954385057e-07 1.0 4.768389771925285e-07 0.0 0.0 -0.9999999403953552 0.0 0.0 -0.9999999403953552 0.0 0.0 -0.9999999403953552 0.0 0.0 1.0 1.0 0.0 0.0 -1.9073486328125e-06 -1.0 4.76837158203125e-07 -1.9073486328125e-06 -1.0 4.76837158203125e-07 -1.9073486328125e-06 -1.0 4.76837158203125e-07 -1.0 0.0 0.0 -1.0 0.0 0.0 -1.0 0.0 0.0 9.5367431640625e-07 1.0 4.76837158203125e-07 9.5367431640625e-07 1.0 4.76837158203125e-07 9.5367431640625e-07 1.0 4.76837158203125e-07 0.0 0.0 -1.0 0.0 0.0 1.0 0.0 1.0 -8.706438592298582e-08 0.0 1.0 -8.706438592298582e-08 0.0 1.0 -8.706438592298582e-08 0.9999992847442627 -0.0012207021936774254 7.629621904925443e-06 0.9999992847442627 -0.0012207021936774254 7.629621904925443e-06 0.9999992847442627 -0.0012207021936774254 7.629621904925443e-06 0.0 -1.0 0.0 0.0 -1.0 0.0 0.0 -1.0 0.0 -0.9999998807907104 0.0004882811917923391 1.5258787243510596e-05 -0.9999998807907104 0.0004882811917923391 1.5258787243510596e-05 -0.9999998807907104 0.0004882811917923391 1.5258787243510596e-05 0.0 0.0 -1.0 0.0 0.0 1.0 0.0 1.0 5.5986770775007244e-08 0.0 1.0 5.5986770775007244e-08 0.0 1.0 5.5986770775007244e-08 0.9999992847442627 -0.0012207021936774254 7.629389074281789e-06 0.9999992847442627 -0.0012207021936774254 7.629389074281789e-06 0.9999992847442627 -0.0012207021936774254 7.629389074281789e-06 0.0 -1.0 0.0 0.0 -1.0 0.0 0.0 -1.0 0.0 -0.9999997615814209 0.0007324217003770173 1.5258785424521193e-05 -0.9999997615814209 0.0007324217003770173 1.5258785424521193e-05 -0.9999997615814209 0.0007324217003770173 1.5258785424521193e-05 0.0 0.0 -0.9999999403953552 0.0 0.0 -0.9999999403953552 0.0 0.0 -0.9999999403953552 0.0 0.0 1.0 -2.0516977006224124e-09 0.9999999403953552 -5.530937041697825e-09 -2.0516977006224124e-09 0.9999999403953552 -5.530937041697825e-09 -2.0516977006224124e-09 0.9999999403953552 -5.530937041697825e-09 0.9999998807907104 -0.0004882814246229827 3.8146949918882456e-06 0.9999998807907104 -0.0004882814246229827 3.8146949918882456e-06 0.9999998807907104 -0.0004882814246229827 3.8146949918882456e-06 2.564622958445284e-09 -1.0 0.0 2.564622958445284e-09 -1.0 0.0 2.564622958445284e-09 -1.0 0.0 -1.0 0.000244140625 7.62939453125e-06 0.0 0.0 -1.0 0.0 0.0 1.0 0.0 1.0 2.0365952480005944e-07 0.0 1.0 2.0365952480005944e-07 0.0 1.0 2.0365952480005944e-07 0.9999998807907104 -0.0004882811917923391 3.814725914708106e-06 0.9999998807907104 -0.0004882811917923391 3.814725914708106e-06 0.9999998807907104 -0.0004882811917923391 3.814725914708106e-06 4.516232721130109e-09 -1.0 -1.445194470761635e-07 4.516232721130109e-09 -1.0 -1.445194470761635e-07 4.516232721130109e-09 -1.0 -1.445194470761635e-07 -1.0 0.00024413969367742538 7.629365427419543e-06 -1.0 0.00024413969367742538 7.629365427419543e-06 -1.0 0.00024413969367742538 7.629365427419543e-06</float_array>
				<technique_common>
				<accessor source="#id-mesh-8-normals-array" count="264" stride="3">
					<param name="X" type="float"/>
					<param name="Y" type="float"/>
					<param name="Z" type="float"/>
				</accessor>
				</technique_common>
			</source>
			<source id="id-mesh-8-texcoord-0">
				<float_array id="id-mesh-8-texcoord-0-array" count="528"> 0.9733898043632507 0.16249999403953552 0.9623172283172607 0.17499998211860657 0.9623172283172607 0.16249999403953552 0.962317168712616 0.21250000596046448 0.951244592666626 0.20000001788139343 0.962317168712616 0.20000000298023224 0.951244592666626 0.17499999701976776 0.962317168712616 0.1875 0.951244592666626 0.1875 0.8823530077934265 6.705521471417342e-09 0.9377158880233765 0.012500000186264515 0.8823530077934265 0.012500003911554813 0.951244592666626 0.1875000149011612 0.962317168712616 0.20000001788139343 0.951244592666626 0.20000001788139343 0.8823530673980713 0.07500001043081284 0.9377158880233765 0.08750000596046448 0.8823530077934265 0.08750000596046448 0.8166059851646423 0.20000006258487701 0.7612431049346924 0.21250005066394806 0.7612431049346924 0.20000006258487701 0.880622923374176 0.3999998867511749 0.8823527693748474 4.76837058727142e-08 0.8823530673980713 0.3999999761581421 0.8806226849555969 0.3999998867511749 0.8788923025131226 1.907348234908568e-07 0.880622386932373 0.0 0.42906519770622253 0.3999998867511749 0.48442786931991577 7.152556236178498e-08 0.4844281077384949 0.3999999761581421 0.9768500328063965 0.17500001192092896 0.975119948387146 0.16249999403953552 0.9768500328063965 0.16249999403953552 0.4844282269477844 0.3999999463558197 0.5397909879684448 0.0 0.5397911071777344 0.3999999761581421 0.975119948387146 0.2000001072883606 0.9768500328063965 0.21250011026859283 0.975119948387146 0.21250011026859283 0.8166062831878662 0.0937500149011612 0.8719689846038818 0.046875014901161194 0.8719689846038818 0.0937500149011612 0.8719688057899475 0.1406250149011612 0.8166061043739319 0.09375002980232239 0.8719689846038818 0.0937500149011612 0.8166061043739319 1.7881390590446244e-08 0.7612431049346924 0.046874988824129105 0.7612432241439819 0.0 0.8823530077934265 0.07500001043081284 0.9377158880233765 0.0625000149011612 0.9377159476280212 0.07500001043081284 0.8166061043739319 0.1875 0.8719689249992371 0.1406250298023224 0.8719688653945923 0.1875000149011612 0.8823530077934265 0.16249999403953552 0.9377158880233765 0.14999999105930328 0.9377158880233765 0.16249999403953552 0.8166061043739319 0.0 0.8719689846038818 0.0468749962747097 0.8166061043739319 0.046874985098838806 0.8166059851646423 0.1875000149011612 0.7612431049346924 0.14062504470348358 0.8166059851646423 0.1406250149011612 0.8166061043739319 0.04687502235174179 0.7612432241439819 0.09375 0.7612431049346924 0.046875014901161194 0.9377158880233765 0.062499962747097015 0.9930788278579712 0.050000015646219254 0.9930788278579712 0.062499962747097015 0.7612431645393372 0.1406250149011612 0.8166061043739319 0.0937500149011612 0.8166061043739319 0.1406250149011612 0.8719689846038818 0.21250000596046448 0.8166061043739319 0.20000001788139343 0.8719689846038818 0.20000000298023224 0.8737005591392517 0.9999996423721313 0.8754299283027649 9.53674117454284e-08 0.8754306435585022 0.9999998807907104 0.8736997842788696 0.9999997019767761 0.8719689846038818 4.768370729379967e-07 0.8736990690231323 0.0 0.26297563314437866 0.9999997019767761 0.31833794713020325 2.861022494471399e-07 0.3183385133743286 0.9999998807907104 0.9768500328063965 0.18750005960464478 0.975119948387146 0.17500004172325134 0.9768500328063965 0.17500004172325134 0.3737017512321472 0.9999999403953552 0.3183385133743286 1.907348234908568e-07 0.37370142340660095 0.0 0.978580117225647 0.17500001192092896 0.9768500328063965 0.1625000238418579 0.978580117225647 0.16249999403953552 0.8771622180938721 0.9999996423721313 0.8788915872573853 9.53674117454284e-08 0.8788923025131226 0.9999998807907104 0.87716144323349 0.9999997019767761 0.8754306435585022 4.768370729379967e-07 0.8771607279777527 0.0 0.20761214196681976 0.9999996423721313 0.26297444105148315 2.3841853646899835e-07 0.2629750370979309 0.9999998807907104 0.9768500328063965 0.2000000923871994 0.975119948387146 0.18750007450580597 0.9768500328063965 0.18750008940696716 0.4290649890899658 0.9999999403953552 0.3737017512321472 2.3841853646899835e-07 0.42906466126441956 0.0 0.9733898043632507 0.20000006258487701 0.975119948387146 0.21250008046627045 0.9733898043632507 0.21250012516975403 0.9948093295097351 0.3631421625614166 0.9965391755104065 2.38418529363571e-08 0.9965394735336304 0.3631422519683838 0.9948091506958008 0.363142192363739 0.9930787682533264 1.907348234908568e-07 0.9948089122772217 0.0 0.6505170464515686 9.53674117454284e-08 0.5951541066169739 0.3631421625614166 0.5951541662216187 0.0 0.978580117225647 0.1875000149011612 0.9768500328063965 0.17500001192092896 0.978580117225647 0.17500001192092896 0.5951541662216187 0.36314231157302856 0.5397911071777344 1.4305112472356996e-07 0.5951540470123291 0.0 0.9733898043632507 0.1875000149011612 0.975119948387146 0.20000003278255463 0.9733898639678955 0.20000006258487701 0.9948093295097351 0.3631421625614166 0.9965391755104065 2.38418529363571e-08 0.9965394735336304 0.3631422519683838 0.9948091506958008 0.363142192363739 0.9930787682533264 1.907348234908568e-07 0.9948089122772217 0.0 0.6505170464515686 9.53674117454284e-08 0.5951541066169739 0.3631421625614166 0.5951541662216187 0.0 0.03126657009124756 0.9999822378158569 1.767704452504404e-05 1.767704452504404e-05 0.03126657009124756 1.770684502844233e-05 0.5951541662216187 0.36314231157302856 0.5397911071777344 1.4305112472356996e-07 0.5951540470123291 0.0 0.9733898043632507 0.1875000149011612 0.975119948387146 0.20000003278255463 0.9733898639678955 0.20000006258487701 0.9733898043632507 0.17499999701976776 0.951244592666626 0.21250000596046448 0.951244592666626 0.17499999701976776 0.962317168712616 0.17499999701976776 0.962317168712616 0.1875 0.8823530077934265 6.705521471417342e-09 0.9377158880233765 0.0 0.9377158880233765 0.012500000186264515 0.951244592666626 0.1875000149011612 0.962317168712616 0.1875000149011612 0.962317168712616 0.20000001788139343 0.8823530673980713 0.07500001043081284 0.9377158880233765 0.07500001043081284 0.9377158880233765 0.08750000596046448 0.8166059851646423 0.20000006258487701 0.8166059851646423 0.21250005066394806 0.7612431049346924 0.21250005066394806 0.8806226849555969 0.0 0.8788926005363464 0.4000000059604645 0.42906519770622253 0.3999998867511749 0.4290649890899658 0.0 0.48442786931991577 7.152556236178498e-08 0.9768500328063965 0.17500001192092896 0.975119948387146 0.17500001192092896 0.975119948387146 0.16249999403953552 0.4844282269477844 0.3999999463558197 0.4844280779361725 6.053595313915139e-08 0.5397909879684448 0.0 0.975119948387146 0.2000001072883606 0.9768500328063965 0.2000001072883606 0.9768500328063965 0.21250011026859283 0.8166062831878662 0.0937500149011612 0.8166061043739319 0.04687502235174179 0.8719689846038818 0.046875014901161194 0.8719688057899475 0.1406250149011612 0.8166061043739319 0.1406250149011612 0.8166061043739319 0.09375002980232239 0.8166061043739319 0.046875014901161194 0.8823530077934265 0.07500001043081284 0.8823530077934265 0.0625000149011612 0.9377158880233765 0.0625000149011612 0.8166061043739319 0.1875 0.8166061043739319 0.1406250149011612 0.8719689249992371 0.1406250298023224 0.8823530077934265 0.16249999403953552 0.8823530673980713 0.14999999105930328 0.9377158880233765 0.14999999105930328 0.8166061043739319 0.0 0.8719689846038818 0.0 0.8719689846038818 0.0468749962747097 0.7612431049346924 0.1875000298023224 0.8166061043739319 0.0937500149011612 0.9377158880233765 0.062499962747097015 0.9377158880233765 0.050000015646219254 0.9930788278579712 0.050000015646219254 0.7612431645393372 0.1406250149011612 0.7612431049346924 0.09375002980232239 0.8166061043739319 0.0937500149011612 0.8719689846038818 0.21250000596046448 0.8166061043739319 0.21250000596046448 0.8166061043739319 0.20000001788139343 0.8736998438835144 0.0 0.8719696998596191 1.0 0.26297563314437866 0.9999997019767761 0.2629750370979309 0.0 0.31833794713020325 2.861022494471399e-07 0.9768500328063965 0.18750005960464478 0.975119948387146 0.18750007450580597 0.975119948387146 0.17500004172325134 0.3737017512321472 0.9999999403953552 0.31833887100219727 0.9999998807907104 0.3183385133743286 1.907348234908568e-07 0.978580117225647 0.17500001192092896 0.9768500328063965 0.17500001192092896 0.9768500328063965 0.1625000238418579 0.8771615028381348 0.0 0.8754313588142395 1.0 0.20761214196681976 0.9999996423721313 0.2076115608215332 0.0 0.26297444105148315 2.3841853646899835e-07 0.9768500328063965 0.2000000923871994 0.975119948387146 0.2000000923871994 0.975119948387146 0.18750007450580597 0.4290649890899658 0.9999999403953552 0.3737020790576935 0.9999998807907104 0.3737017512321472 2.3841853646899835e-07 0.9733898043632507 0.20000006258487701 0.975119948387146 0.2000000774860382 0.975119948387146 0.21250008046627045 0.9948093295097351 0.3631421625614166 0.994809091091156 0.0 0.9965391755104065 2.38418529363571e-08 0.9930790662765503 0.3631422817707062 0.6505170464515686 9.53674117454284e-08 0.6505169868469238 0.3631422817707062 0.5951541066169739 0.3631421625614166 0.978580117225647 0.1875000149011612 0.9768500328063965 0.1875 0.9768500328063965 0.17500001192092896 0.5951541662216187 0.36314231157302856 0.5397912263870239 0.3631422519683838 0.5397911071777344 1.4305112472356996e-07 0.975119948387146 0.18750005960464478 0.994809091091156 0.0 0.9930790662765503 0.3631422817707062 0.6505170464515686 9.53674117454284e-08 0.6505169868469238 0.3631422817707062 0.5951541066169739 0.3631421625614166 0.03126657009124756 0.9999822378158569 1.767704452504404e-05 0.9999822378158569 1.767704452504404e-05 1.767704452504404e-05 0.5951541662216187 0.36314231157302856 0.5397912263870239 0.3631422519683838 0.5397911071777344 1.4305112472356996e-07 0.9733898043632507 0.1875000149011612 0.975119948387146 0.18750005960464478 0.975119948387146 0.20000003278255463</float_array>
				<technique_common>
				<accessor source="#id-mesh-8-texcoord-0-array" count="264" stride="2">
					<param name="S" type="float"/>
					<param name="T" type="float"/>
				</accessor>
				</technique_common>
			</source>
			<source id="id-mesh-8-texcoord-1">
				<float_array id="id-mesh-8-texcoord-1-array" count="528"> 1.0 0.0 0.0 1.0 0.0 0.0 1.0 0.0 0.0 1.0 0.0 0.0 1.0 0.0 0.0 1.0 0.0 0.0 1.0 0.0 0.0 1.0 0.0 0.0 1.0 0.0 0.0 1.0 0.0 0.0 1.0 0.0 0.0 1.0 0.0 0.0 1.0 0.0 0.0 1.0 0.0 0.0 0.0 0.0 1.0 1.0 0.0 1.0 0.0 0.0 1.0 1.0 0.0 1.0 1.0 0.0 0.0 1.0 0.0 0.0 1.0 0.0 0.0 1.0 0.0 0.0 1.0 0.0 0.0 1.0 0.0 0.0 1.0 0.0 0.0 1.0 0.0 0.0 0.0 0.0 1.0 1.0 0.0 1.0 0.0 0.0 1.0 1.0 0.0 1.0 1.0 0.0 0.0 1.0 0.0 0.0 1.0 0.0 0.0 1.0 0.0 0.0 1.0 0.0 0.0 1.0 0.0 0.0 1.0 0.0 0.0 1.0 0.0 0.0 1.0 0.0 0.0 1.0 0.0 0.0 0.0 0.0 1.0 1.0 0.0 1.0 1.0 0.0 0.0 1.0 0.0 0.0 1.0 0.0 0.0 1.0 0.0 0.0 1.0 0.0 0.0 1.0 0.0 0.0 1.0 0.0 0.0 1.0 0.0 0.0 0.0 0.0 1.0 1.0 0.0 1.0 0.0 0.0 1.0 1.0 0.0 1.0 1.0 0.0 0.0 1.0 0.0 0.0 1.0 0.0 0.0 1.0 0.0 0.0 0.0 0.0 1.0 1.0 0.0 1.0 1.0 0.0 0.0 1.0 0.0 0.0 0.0 0.0 1.0 1.0 0.0 1.0 0.0 0.0 1.0 1.0 0.0 1.0 1.0 0.0 0.0 1.0 0.0 0.0 1.0 0.0 0.0 1.0 0.0 0.0 0.0 0.0 1.0 1.0 0.0 1.0 1.0 0.0 0.0 1.0 0.0 0.0 0.0 0.0 1.0 1.0 0.0 1.0 0.0 0.0 1.0 1.0 0.0 1.0 1.0 0.0 0.0 1.0 0.0 0.0 1.0 0.0 0.0 1.0 0.0 0.0 0.0 0.0 1.0 1.0 0.0 1.0 1.0 0.0 0.0 1.0 0.0 0.0 0.0 0.0 1.0 1.0 0.0 1.0 0.0 0.0 1.0 1.0 0.0 1.0 1.0 0.0 0.0 1.0 0.0 0.0 1.0 0.0 0.0 1.0 0.0 0.0 0.0 0.0 1.0 1.0 0.0 1.0 1.0 0.0 0.0 1.0 0.0 0.0 1.0 1.0 1.0 1.0 1.0 0.0 1.0 1.0 0.0 1.0 1.0 0.0 1.0 1.0 0.0 1.0 1.0 0.0 1.0 1.0 0.0 1.0 1.0 0.0 1.0 1.0 0.0 1.0 1.0 0.0 1.0 1.0 0.0 1.0 1.0 0.0 1.0 0.0 1.0 0.0 1.0 1.0 0.0 1.0 1.0 0.0 1.0 1.0 0.0 1.0 1.0 0.0 1.0 1.0 0.0 1.0 1.0 0.0 1.0 1.0 0.0 1.0 0.0 0.0 1.0 0.0 1.0 1.0 0.0 0.0 1.0 0.0 1.0 1.0 1.0 1.0 1.0 0.0 1.0 1.0 0.0 1.0 1.0 0.0 1.0 1.0 0.0 1.0 1.0 0.0 1.0 1.0 0.0 1.0 1.0 0.0 1.0 1.0 0.0 1.0 1.0 0.0 1.0 1.0 1.0 0.0 1.0 1.0 0.0 1.0 1.0 0.0 1.0 1.0 0.0 1.0 1.0 0.0 1.0 1.0 0.0 1.0 1.0 0.0 1.0 0.0 1.0 0.0 1.0 1.0 0.0 1.0 1.0 0.0 1.0 1.0 0.0 1.0 0.0 0.0 1.0 0.0 1.0 1.0 1.0 0.0 1.0 1.0 0.0 1.0 1.0 0.0 1.0 0.0 1.0 0.0 1.0 1.0 0.0 1.0 1.0 0.0 1.0 1.0 0.0 1.0 0.0 0.0 1.0 0.0 1.0 1.0 1.0 0.0 1.0 1.0 0.0 1.0 0.0 0.0 1.0 0.0 1.0 1.0 1.0 0.0 1.0 0.0 1.0 1.0 0.0 1.0 1.0 0.0 1.0 1.0 0.0 1.0 0.0 0.0 1.0 0.0 1.0 1.0 1.0 1.0 1.0 0.0 1.0 0.0 1.0 0.0 1.0 1.0 0.0 1.0 1.0 0.0 1.0 1.0 0.0 1.0 0.0 0.0 1.0 0.0 1.0 1.0 1.0 0.0 1.0 1.0 0.0 1.0</float_array>
				<technique_common>
				<accessor source="#id-mesh-8-texcoord-1-array" count="264" stride="2">
					<param name="S" type="float"/>
					<param name="T" type="float"/>
				</accessor>
				</technique_common>
			</source>
			<vertices id="id-mesh-8-vertices">
				<input semantic="POSITION" source="#id-mesh-8-positions"/>
			</vertices>
			<triangles count="98" material="id-trimat-9">
				<input semantic="VERTEX" source="#id-mesh-8-vertices" offset="0"/>
				<input semantic="NORMAL" source="#id-mesh-8-normals" offset="0"/>
				<input semantic="TEXCOORD" source="#id-mesh-8-texcoord-0" offset="0" set="0"/>
				<input semantic="TEXCOORD" source="#id-mesh-8-texcoord-1" offset="0" set="1"/>
				<p> 0 1 2 3 4 5 6 7 8 9 10 11 12 13 14 15 16 17 18 19 20 21 22 23 24 25 26 27 28 29 30 31 32 33 34 35 36 37 38 39 40 41 42 43 44 45 46 47 48 49 50 51 52 53 54 55 56 57 58 59 60 61 62 63 64 65 66 67 68 69 70 71 72 73 74 75 76 77 78 79 80 81 82 83 84 85 86 87 88 89 90 91 92 93 94 95 96 97 98 99 100 101 102 103 104 105 106 107 108 109 110 111 112 113 114 115 116 117 118 119 120 121 122 123 124 125 126 127 128 129 130 131 132 133 134 135 136 137 138 139 140 141 142 143 144 145 146 0 147 1 3 148 4 149 150 151 152 153 154 155 156 157 158 159 160 161 162 163 21 164 22 24 165 25 166 167 168 169 170 171 172 173 174 175 176 177 178 179 180 181 182 183 45 184 46 185 186 187 188 189 190 191 192 193 194 195 196 60 197 61 63 198 64 199 200 201 202 203 204 205 206 207 75 208 76 78 209 79 210 211 212 213 214 215 216 217 218 219 220 221 93 222 94 96 223 97 224 225 226 227 228 229 230 231 232 233 234 235 236 237 238 114 239 115 240 241 242 243 244 245 246 247 248 126 249 127 129 250 130 132 251 133 252 253 254 255 256 257 258 259 260 261 262 263 </p>
			</triangles>
		</mesh>
	</geometry>
	<geometry id="id-mesh-18" name="Cube.003">
		<mesh>
			<source id="id-mesh-18-positions">
				<float_array id="id-mesh-18-positions-array" count="354"> -95.42279052734375 2.1224918365478516 -1.0 -44.300846099853516 4.997771263122559 -1.0 -44.300846099853516 2.1224918365478516 -1.0 -44.300846099853516 4.997771263122559 -1.1903308629989624 -95.42279052734375 2.1224918365478516 -1.1903308629989624 -44.300846099853516 2.1224918365478516 -1.1903308629989624 -95.42279052734375 4.997771263122559 -1.0 -44.300846099853516 4.997771263122559 -1.1903308629989624 -44.300846099853516 4.997771263122559 -1.0 64.57717895507812 -2.5022287368774414 -1.0 -0.36345693469047546 -2.5022287368774414 -1.1903308629989624 -0.36345693469047546 -2.5022287368774414 -1.0 -95.42280578613281 -2.5022287368774414 -1.0 -95.42279815673828 0.4513894319534302 -1.1903308629989624 -95.42279815673828 0.4513894319534302 -1.0 64.57719421386719 4.997771263122559 -1.0 64.57719421386719 2.1224918365478516 -1.1903308629989624 64.57719421386719 2.1224918365478516 -1.0 64.57718658447266 0.4513894319534302 -1.0 64.57717895507812 -2.5022287368774414 -1.1903308629989624 64.57717895507812 -2.5022287368774414 -1.0 -95.42279815673828 0.4513894319534302 -1.0 -95.42279052734375 0.9608718156814575 -1.1903308629989624 -95.42279052734375 0.9608718156814575 -1.0 -44.30086135864258 -2.5022287368774414 -1.1903308629989624 -95.42279815673828 0.4513894319534302 -1.1903308629989624 -95.42280578613281 -2.5022287368774414 -1.1903308629989624 -44.30086135864258 -2.5022287368774414 -1.0 -95.42279815673828 0.4513894319534302 -1.0 -44.30085372924805 0.4513894319534302 -1.0 -95.42279052734375 2.1224918365478516 -1.0 -95.42279052734375 4.997771263122559 -1.1903308629989624 -95.42279052734375 4.997771263122559 -1.0 64.57719421386719 0.9608718156814575 -1.1903308629989624 64.57719421386719 0.9608718156814575 -1.0 -44.300846099853516 2.1224918365478516 -1.1903308629989624 -95.42279052734375 0.9608718156814575 -1.1903308629989624 -44.30084991455078 0.9608718156814575 -1.1903308629989624 -95.42279052734375 0.9608718156814575 -1.0 -44.30084991455078 0.9608718156814575 -1.0 -38.8569450378418 0.9608718156814575 -1.0 -38.85694122314453 2.1224918365478516 -1.0 -38.8569450378418 0.9608718156814575 -1.1903308629989624 -44.30084991455078 0.9608718156814575 -1.1903308629989624 -38.856956481933594 -2.5022287368774414 -1.0 -38.85694885253906 0.4513894319534302 -1.0 -38.856956481933594 -2.5022287368774414 -1.1903308629989624 -44.30085372924805 0.4513894319534302 -1.1903308629989624 -44.30086135864258 -2.5022287368774414 -1.0 -95.42280578613281 -2.5022287368774414 -1.1903308629989624 -95.42280578613281 -2.5022287368774414 -1.0 -38.85694122314453 4.997771263122559 -1.1903308629989624 -38.85694122314453 4.997771263122559 -1.0 -38.85694122314453 4.997771263122559 -1.1903308629989624 -38.85694122314453 2.1224918365478516 -1.1903308629989624 -38.85694122314453 4.997771263122559 -1.0 -0.36344167590141296 4.997771263122559 -1.0 -0.36344167590141296 2.1224918365478516 -1.0 -0.36344167590141296 4.997771263122559 -1.1903308629989624 -0.36344167590141296 2.1224918365478516 -1.1903308629989624 -0.36344167590141296 4.997771263122559 -1.1903308629989624 -0.36344167590141296 4.997771263122559 -1.0 -0.36345693469047546 -2.5022287368774414 -1.1903308629989624 -38.85694885253906 0.4513894319534302 -1.1903308629989624 -0.36345693469047546 -2.5022287368774414 -1.0 -0.3634493052959442 0.4513894319534302 -1.0 -0.363446980714798 0.9608718156814575 -1.1903308629989624 -0.363446980714798 0.9608718156814575 -1.0 -38.856956481933594 -2.5022287368774414 -1.0 -44.30086135864258 -2.5022287368774414 -1.1903308629989624 64.57719421386719 2.1224918365478516 -1.0 64.57719421386719 0.9608718156814575 -1.0 64.57719421386719 2.1224918365478516 -1.1903308629989624 64.57719421386719 0.9608718156814575 -1.1903308629989624 64.57717895507812 -2.5022287368774414 -1.0 64.57718658447266 0.4513894319534302 -1.0 64.57717895507812 -2.5022287368774414 -1.1903308629989624 -0.3634493052959442 0.4513894319534302 -1.1903308629989624 64.57719421386719 4.997771263122559 -1.1903308629989624 64.57719421386719 4.997771263122559 -1.0 64.57719421386719 4.997771263122559 -1.1903308629989624 64.57719421386719 4.997771263122559 -1.0 -38.856956481933594 -2.5022287368774414 -1.1903308629989624 64.57718658447266 0.4513894319534302 -1.1903308629989624 -95.42279815673828 0.4513894319534302 -1.0 -44.30084991455078 0.9608718156814575 -1.0 -44.30085372924805 0.4513894319534302 -1.0 64.57719421386719 0.9608718156814575 -1.0 64.57718658447266 0.4513894319534302 -1.1903308629989624 64.57718658447266 0.4513894319534302 -1.0 -95.42279052734375 2.1224918365478516 -1.1903308629989624 -95.42279052734375 4.997771263122559 -1.0 -95.42279052734375 4.997771263122559 -1.1903308629989624 -95.42279052734375 4.997771263122559 -1.1903308629989624 64.57717895507812 -2.5022287368774414 -1.1903308629989624 -95.42280578613281 -2.5022287368774414 -1.0 -95.42280578613281 -2.5022287368774414 -1.1903308629989624 -95.42279815673828 0.4513894319534302 -1.1903308629989624 64.57719421386719 4.997771263122559 -1.1903308629989624 64.57718658447266 0.4513894319534302 -1.0 64.57718658447266 0.4513894319534302 -1.1903308629989624 64.57717895507812 -2.5022287368774414 -1.1903308629989624 -95.42279815673828 0.4513894319534302 -1.0 -95.42279815673828 0.4513894319534302 -1.1903308629989624 -95.42279052734375 0.9608718156814575 -1.1903308629989624 -95.42280578613281 -2.5022287368774414 -1.0 64.57719421386719 2.1224918365478516 -1.0 64.57719421386719 2.1224918365478516 -1.1903308629989624 64.57719421386719 0.9608718156814575 -1.1903308629989624 -95.42279052734375 2.1224918365478516 -1.1903308629989624 -95.42279052734375 0.9608718156814575 -1.0 -95.42279052734375 2.1224918365478516 -1.0 -44.300846099853516 2.1224918365478516 -1.0 -95.42279052734375 0.9608718156814575 -1.1903308629989624 64.57718658447266 0.4513894319534302 -1.1903308629989624 -95.42279052734375 0.9608718156814575 -1.0 -95.42279052734375 0.9608718156814575 -1.1903308629989624 -95.42279052734375 2.1224918365478516 -1.1903308629989624</float_array>
				<technique_common>
				<accessor source="#id-mesh-18-positions-array" count="118" stride="3">
					<param name="X" type="float"/>
					<param name="Y" type="float"/>
					<param name="Z" type="float"/>
				</accessor>
				</technique_common>
			</source>
			<source id="id-mesh-18-normals">
				<float_array id="id-mesh-18-normals-array" count="354"> 0.0 0.0 -1.0 0.0 0.0 -1.0 0.0 0.0 -1.0 0.0 0.0 1.0 0.0 0.0 1.0 0.0 0.0 1.0 0.0 -1.0 0.0 0.0 -1.0 0.0 0.0 -1.0 0.0 0.0 1.0 0.0 0.0 1.0 0.0 0.0 1.0 0.0 1.0 -6.785722234781133e-06 0.0 1.0 -6.785722234781133e-06 0.0 1.0 -6.785722234781133e-06 0.0 -1.0 0.0 0.0 -1.0 0.0 0.0 -1.0 0.0 0.0 -1.0 0.0 0.0 -1.0 0.0 0.0 -1.0 0.0 0.0 1.0 0.0 0.0 1.0 0.0 0.0 1.0 0.0 0.0 0.0 0.0 1.0 0.0 0.0 1.0 0.0 0.0 1.0 0.0 0.0 -1.0 0.0 0.0 -1.0 0.0 0.0 -1.0 1.0 0.0 0.0 1.0 0.0 0.0 1.0 0.0 0.0 -1.0 0.0 0.0 -1.0 0.0 0.0 0.0 0.0 0.9999999403953552 0.0 0.0 0.9999999403953552 0.0 0.0 0.9999999403953552 0.0 0.0 -1.0 0.0 0.0 -1.0 0.0 0.0 -1.0 0.0 0.0 -1.0 0.0 0.0 1.0 0.0 0.0 1.0 0.0 0.0 -1.0 0.0 0.0 -1.0 0.0 0.0 1.0 0.0 0.0 1.0 0.0 1.0 0.0 0.0 1.0 0.0 0.0 1.0 0.0 0.0 -1.0 0.0 0.0 -1.0 0.0 0.0 0.0 1.0 0.0 0.0 1.0 0.0 0.0 -1.0 0.0 0.0 -1.0 0.0 0.0 -1.0 0.0 0.0 1.0 0.0 0.0 1.0 0.0 -1.0 0.0 0.0 -1.0 0.0 0.0 0.0 1.0 0.0 0.0 1.0 0.0 0.0 -1.0 0.0 0.0 -1.0 0.0 0.0 1.0 0.0 0.0 -1.0 0.0 1.0 0.0 0.0 1.0 0.0 0.0 0.0 -1.0 0.0 0.0 -1.0 0.0 0.0 1.0 0.0 0.0 1.0 0.0 0.0 -1.0 0.0 0.0 -1.0 0.0 0.0 1.0 0.0 0.0 1.0 0.0 -1.0 0.0 0.0 -1.0 0.0 0.0 0.0 1.0 0.0 0.0 -1.0 0.0 1.0 0.0 0.0 0.0 1.0 0.0 0.0 -0.9999999403953552 0.0 0.0 -0.9999999403953552 0.0 0.0 -0.9999999403953552 -1.0 1.966940726561006e-05 0.0 -1.0 1.966940726561006e-05 0.0 -1.0 1.966940726561006e-05 0.0 1.0 0.0 0.0 0.0 0.0 -1.0 0.0 0.0 1.0 0.0 -1.0 0.0 0.0 1.0 0.0 1.0 0.0 0.0 1.0 0.0 0.0 1.0 0.0 0.0 -1.0 0.0 0.0 -1.0 6.785733603464905e-06 0.0 -1.0 6.785733603464905e-06 0.0 -1.0 6.785733603464905e-06 0.0 1.0 -3.933890911866911e-05 0.0 1.0 -3.933890911866911e-05 0.0 1.0 -3.933890911866911e-05 0.0 0.0 0.0 -1.0 -0.9999999403953552 0.0 0.0 -0.9999999403953552 0.0 0.0 -0.9999999403953552 0.0 0.0 0.0 0.0 0.9999999403953552 0.0 0.0 -0.9999999403953552 0.0 0.0 -0.9999999403953552 0.0 0.0 -0.9999999403953552 0.0 0.0 1.0 -1.0 0.0 0.0 0.9999999403953552 0.0 0.0 0.9999999403953552 0.0 0.0 0.9999999403953552 0.0 0.0</float_array>
				<technique_common>
				<accessor source="#id-mesh-18-normals-array" count="118" stride="3">
					<param name="X" type="float"/>
					<param name="Y" type="float"/>
					<param name="Z" type="float"/>
				</accessor>
				</technique_common>
			</source>
			<source id="id-mesh-18-texcoord-0">
				<float_array id="id-mesh-18-texcoord-0-array" count="236"> 0.15570884943008423 0.9999997615814209 0.20761120319366455 0.49999985098838806 0.15570849180221558 0.49999988079071045 0.20761120319366455 0.49999985098838806 0.15570884943008423 0.9999997615814209 0.15570849180221558 0.49999988079071045 0.2076115608215332 0.9999997019767761 0.20761120319366455 0.49999985098838806 0.20761120319366455 0.49999985098838806 0.0 9.53674117454284e-08 8.90969076294823e-08 0.12500005960464478 8.90969076294823e-08 0.12500005960464478 7.127752610358584e-07 0.9999998211860657 0.10380613803863525 0.9999997615814209 0.10380613803863525 0.9999997615814209 0.2076108306646347 0.0 0.15570811927318573 2.38418529363571e-08 0.15570811927318573 2.38418529363571e-08 0.10380541533231735 4.76837058727142e-08 0.0 9.53674117454284e-08 0.0 9.53674117454284e-08 0.10380613803863525 0.9999997615814209 0.12975749373435974 0.9999997615814209 0.12975749373435974 0.9999997615814209 3.563876305179292e-07 0.4999999701976776 0.10380613803863525 0.9999997615814209 7.127752610358584e-07 0.9999998211860657 3.563876305179292e-07 0.4999999701976776 0.10380613803863525 0.9999997615814209 0.1038057804107666 0.49999991059303284 0.15570884943008423 0.9999997615814209 0.2076115608215332 0.9999997019767761 0.2076115608215332 0.9999997019767761 0.12975676357746124 3.576278118089249e-08 0.12975676357746124 3.576278118089249e-08 0.15570849180221558 0.49999988079071045 0.12975749373435974 0.9999997615814209 0.1297571361064911 0.49999988079071045 0.12975749373435974 0.9999997615814209 0.1297571361064911 0.49999988079071045 0.12975695729255676 0.2499999701976776 0.15570831298828125 0.24999995529651642 0.12975695729255676 0.2499999701976776 0.1297571361064911 0.49999988079071045 1.781938152589646e-07 0.2500000298023224 0.10380560159683228 0.2499999850988388 1.781938152589646e-07 0.2500000298023224 0.1038057804107666 0.49999991059303284 3.563876305179292e-07 0.4999999701976776 7.127752610358584e-07 0.9999998211860657 7.127752610358584e-07 0.9999998211860657 0.20761102437973022 0.24999992549419403 0.20761102437973022 0.24999992549419403 0.20761102437973022 0.24999992549419403 0.15570831298828125 0.24999995529651642 0.20761102437973022 0.24999992549419403 0.20761093497276306 0.12499996274709702 0.1557082235813141 0.1249999925494194 0.20761093497276306 0.12499996274709702 0.1557082235813141 0.1249999925494194 0.20761093497276306 0.12499996274709702 0.20761093497276306 0.12499996274709702 8.90969076294823e-08 0.12500005960464478 0.10380560159683228 0.2499999850988388 8.90969076294823e-08 0.12500005960464478 0.10380551218986511 0.1250000149011612 0.1297568678855896 0.125 0.1297568678855896 0.125 1.781938152589646e-07 0.2500000298023224 3.563876305179292e-07 0.4999999701976776 0.15570811927318573 2.38418529363571e-08 0.12975676357746124 3.576278118089249e-08 0.15570811927318573 2.38418529363571e-08 0.12975676357746124 3.576278118089249e-08 0.0 9.53674117454284e-08 0.10380541533231735 4.76837058727142e-08 0.0 9.53674117454284e-08 0.10380551218986511 0.1250000149011612 0.2076108306646347 0.0 0.2076108306646347 0.0 0.2076108306646347 0.0 0.2076108306646347 0.0 1.781938152589646e-07 0.2500000298023224 0.10380541533231735 4.76837058727142e-08 0.10380613803863525 0.9999997615814209 0.1297571361064911 0.49999988079071045 0.1038057804107666 0.49999991059303284 0.12975676357746124 3.576278118089249e-08 0.10380541533231735 4.76837058727142e-08 0.10380541533231735 4.76837058727142e-08 0.15570884943008423 0.9999997615814209 0.2076115608215332 0.9999997019767761 0.2076115608215332 0.9999997019767761 0.2076115608215332 0.9999997019767761 0.0 9.53674117454284e-08 7.127752610358584e-07 0.9999998211860657 7.127752610358584e-07 0.9999998211860657 0.10380613803863525 0.9999997615814209 0.2076108306646347 0.0 0.10380541533231735 4.76837058727142e-08 0.10380541533231735 4.76837058727142e-08 0.0 9.53674117454284e-08 0.10380613803863525 0.9999997615814209 0.10380613803863525 0.9999997615814209 0.12975749373435974 0.9999997615814209 7.127752610358584e-07 0.9999998211860657 0.15570811927318573 2.38418529363571e-08 0.15570811927318573 2.38418529363571e-08 0.12975676357746124 3.576278118089249e-08 0.15570884943008423 0.9999997615814209 0.12975749373435974 0.9999997615814209 0.15570884943008423 0.9999997615814209 0.15570849180221558 0.49999988079071045 0.12975749373435974 0.9999997615814209 0.10380541533231735 4.76837058727142e-08 0.12975749373435974 0.9999997615814209 0.12975749373435974 0.9999997615814209 0.15570884943008423 0.9999997615814209</float_array>
				<technique_common>
				<accessor source="#id-mesh-18-texcoord-0-array" count="118" stride="2">
					<param name="S" type="float"/>
					<param name="T" type="float"/>
				</accessor>
				</technique_common>
			</source>
			<source id="id-mesh-18-texcoord-1">
				<float_array id="id-mesh-18-texcoord-1-array" count="236"> 0.75 1.0 1.0 0.5 0.75 0.5 1.0 0.5 0.75 1.0 0.75 0.5 1.0 1.0 1.0 0.5 1.0 0.5 0.0 0.0 0.0 0.125 0.0 0.125 0.0 1.0 0.5 1.0 0.5 1.0 1.0 0.0 0.75 0.0 0.75 0.0 0.5 0.0 0.0 0.0 0.0 0.0 0.5 1.0 0.625 1.0 0.625 1.0 0.0 0.5 0.5 1.0 0.0 1.0 0.0 0.5 0.5 1.0 0.5 0.5 0.75 1.0 1.0 1.0 1.0 1.0 0.625 0.0 0.625 0.0 0.75 0.5 0.625 1.0 0.625 0.5 0.625 1.0 0.625 0.5 0.625 0.25 0.75 0.25 0.625 0.25 0.625 0.5 0.0 0.25 0.5 0.25 0.0 0.25 0.5 0.5 0.0 0.5 0.0 1.0 0.0 1.0 1.0 0.25 1.0 0.25 1.0 0.25 0.75 0.25 1.0 0.25 1.0 0.125 0.75 0.125 1.0 0.125 0.75 0.125 1.0 0.125 1.0 0.125 0.0 0.125 0.5 0.25 0.0 0.125 0.5 0.125 0.625 0.125 0.625 0.125 0.0 0.25 0.0 0.5 0.75 0.0 0.625 0.0 0.75 0.0 0.625 0.0 0.0 0.0 0.5 0.0 0.0 0.0 0.5 0.125 1.0 0.0 1.0 0.0 1.0 0.0 1.0 0.0 0.0 0.25 0.5 0.0 0.5 1.0 0.625 0.5 0.5 0.5 0.625 0.0 0.5 0.0 0.5 0.0 0.75 1.0 1.0 1.0 1.0 1.0 1.0 1.0 0.0 0.0 0.0 1.0 0.0 1.0 0.5 1.0 1.0 0.0 0.5 0.0 0.5 0.0 0.0 0.0 0.5 1.0 0.5 1.0 0.625 1.0 0.0 1.0 0.75 0.0 0.75 0.0 0.625 0.0 0.75 1.0 0.625 1.0 0.75 1.0 0.75 0.5 0.625 1.0 0.5 0.0 0.625 1.0 0.625 1.0 0.75 1.0</float_array>
				<technique_common>
				<accessor source="#id-mesh-18-texcoord-1-array" count="118" stride="2">
					<param name="S" type="float"/>
					<param name="T" type="float"/>
				</accessor>
				</technique_common>
			</source>
			<vertices id="id-mesh-18-vertices">
				<input semantic="POSITION" source="#id-mesh-18-positions"/>
			</vertices>
			<triangles count="64" material="id-trimat-19">
				<input semantic="VERTEX" source="#id-mesh-18-vertices" offset="0"/>
				<input semantic="NORMAL" source="#id-mesh-18-normals" offset="0"/>
				<input semantic="TEXCOORD" source="#id-mesh-18-texcoord-0" offset="0" set="0"/>
				<input semantic="TEXCOORD" source="#id-mesh-18-texcoord-1" offset="0" set="1"/>
				<p> 3 4 5 6 7 8 9 10 11 12 13 14 15 16 17 18 19 20 21 22 23 24 25 26 30 31 32 17 33 34 35 36 37 42 5 43 46 47 24 48 49 50 8 51 52 53 5 54 58 54 59 52 60 61 62 63 46 66 54 42 68 69 48 72 66 73 76 77 62 61 78 79 80 59 72 11 82 68 73 77 83 77 42 63 63 43 47 43 25 47 87 88 89 23 90 30 3 92 4 6 93 7 9 94 10 95 96 97 15 98 16 99 100 101 102 103 104 24 47 25 30 90 31 106 107 108 35 109 36 42 54 5 46 63 47 48 69 49 8 7 51 53 3 5 58 53 54 52 51 60 62 77 63 66 59 54 68 82 69 72 59 66 76 83 77 61 60 78 80 58 59 11 10 82 73 66 77 77 66 42 63 42 43 43 113 25 34 33 114 115 116 117 </p>
			</triangles>
			<triangles count="4" material="id-trimat-20">
				<input semantic="VERTEX" source="#id-mesh-18-vertices" offset="0"/>
				<input semantic="NORMAL" source="#id-mesh-18-normals" offset="0"/>
				<input semantic="TEXCOORD" source="#id-mesh-18-texcoord-0" offset="0" set="0"/>
				<input semantic="TEXCOORD" source="#id-mesh-18-texcoord-1" offset="0" set="1"/>
				<p> 74 65 75 65 71 75 74 64 65 65 67 71 </p>
			</triangles>
			<triangles count="4" material="id-trimat-21">
				<input semantic="VERTEX" source="#id-mesh-18-vertices" offset="0"/>
				<input semantic="NORMAL" source="#id-mesh-18-normals" offset="0"/>
				<input semantic="TEXCOORD" source="#id-mesh-18-texcoord-0" offset="0" set="0"/>
				<input semantic="TEXCOORD" source="#id-mesh-18-texcoord-1" offset="0" set="1"/>
				<p> 27 28 29 44 29 45 27 105 28 44 27 29 </p>
			</triangles>
			<triangles count="2" material="id-trimat-22">
				<input semantic="VERTEX" source="#id-mesh-18-vertices" offset="0"/>
				<input semantic="NORMAL" source="#id-mesh-18-normals" offset="0"/>
				<input semantic="TEXCOORD" source="#id-mesh-18-texcoord-0" offset="0" set="0"/>
				<input semantic="TEXCOORD" source="#id-mesh-18-texcoord-1" offset="0" set="1"/>
				<p> 0 1 2 0 91 1 </p>
			</triangles>
			<triangles count="22" material="id-trimat-23">
				<input semantic="VERTEX" source="#id-mesh-18-vertices" offset="0"/>
				<input semantic="NORMAL" source="#id-mesh-18-normals" offset="0"/>
				<input semantic="TEXCOORD" source="#id-mesh-18-texcoord-0" offset="0" set="0"/>
				<input semantic="TEXCOORD" source="#id-mesh-18-texcoord-1" offset="0" set="1"/>
				<p> 38 2 39 40 2 41 2 55 41 41 56 57 64 45 65 67 41 57 67 70 71 57 81 70 65 40 67 45 39 40 84 85 86 110 111 112 40 39 2 2 1 55 41 55 56 64 44 45 67 40 41 67 57 70 57 56 81 65 45 40 45 29 39 28 38 39 </p>
			</triangles>
		</mesh>
	</geometry>
	<geometry id="id-mesh-24" name="Cube.000">
		<mesh>
			<source id="id-mesh-24-positions">
				<float_array id="id-mesh-24-positions-array" count="168"> -43.055782318115234 2.1542065143585205 -1.0 -45.055782318115234 2.554206609725952 -1.0 -43.055782318115234 2.554206609725952 -1.0 -45.055782318115234 2.554206609725952 1.0 -43.055782318115234 2.1542065143585205 1.0 -43.055782318115234 2.554206371307373 1.0 -43.055782318115234 2.554206371307373 1.0 -43.055782318115234 2.1542065143585205 -1.0 -43.055782318115234 2.554206609725952 -1.0 -43.055782318115234 2.1542065143585205 1.0 -45.055782318115234 2.1542065143585205 -1.0 -43.055782318115234 2.1542065143585205 -1.0 -45.055782318115234 2.1542067527770996 1.0 -45.055782318115234 2.554206609725952 -1.0 -45.055782318115234 2.1542065143585205 -1.0 -43.055782318115234 2.554206609725952 -1.0 -45.055782318115234 2.554206609725952 1.0 -43.055782318115234 2.554206371307373 1.0 -43.09828186035156 3.3636741638183594 -1.0 -45.09828186035156 4.992761611938477 -1.0 -43.09828186035156 4.992761611938477 -1.0 -43.09828186035156 4.992761135101318 1.0 -45.09828186035156 3.3636746406555176 1.0 -43.09828186035156 3.363673686981201 1.0 -43.09828186035156 4.992761135101318 1.0 -43.09828186035156 3.3636741638183594 -1.0 -43.09828186035156 4.992761611938477 -1.0 -43.09828186035156 3.363673686981201 1.0 -45.09828186035156 3.3636744022369385 -1.0 -43.09828186035156 3.3636741638183594 -1.0 -45.09828186035156 3.3636746406555176 1.0 -45.09828186035156 4.992761611938477 -1.0 -45.09828186035156 3.3636744022369385 -1.0 -43.09828186035156 4.992761611938477 -1.0 -45.09828186035156 4.992761611938477 1.0 -43.09828186035156 4.992761135101318 1.0 -45.055782318115234 2.1542065143585205 -1.0 -45.055782318115234 2.1542067527770996 1.0 -43.055782318115234 2.1542065143585205 1.0 -43.055782318115234 2.1542065143585205 1.0 -45.055782318115234 2.1542067527770996 1.0 -45.055782318115234 2.1542065143585205 -1.0 -45.055782318115234 2.554206609725952 1.0 -43.055782318115234 2.554206609725952 -1.0 -45.055782318115234 2.554206609725952 -1.0 -45.055782318115234 2.554206609725952 1.0 -45.09828186035156 3.3636744022369385 -1.0 -45.09828186035156 4.992761611938477 1.0 -43.09828186035156 3.363673686981201 1.0 -43.09828186035156 3.363673686981201 1.0 -45.09828186035156 3.3636746406555176 1.0 -45.09828186035156 3.3636744022369385 -1.0 -45.09828186035156 4.992761611938477 1.0 -43.09828186035156 4.992761611938477 -1.0 -45.09828186035156 4.992761611938477 -1.0 -45.09828186035156 4.992761611938477 1.0</float_array>
				<technique_common>
				<accessor source="#id-mesh-24-positions-array" count="56" stride="3">
					<param name="X" type="float"/>
					<param name="Y" type="float"/>
					<param name="Z" type="float"/>
				</accessor>
				</technique_common>
			</source>
			<source id="id-mesh-24-normals">
				<float_array id="id-mesh-24-normals-array" count="168"> 0.0 0.0 -1.0 0.0 0.0 -1.0 0.0 0.0 -1.0 0.0 0.0 1.0 0.0 0.0 1.0 0.0 0.0 1.0 1.0 0.0 0.0 1.0 0.0 0.0 1.0 0.0 0.0 0.0 -1.0 0.0 0.0 -1.0 0.0 0.0 -1.0 0.0 -1.0 0.0 0.0 -1.0 0.0 0.0 -1.0 0.0 0.0 1.1920928955078125e-07 1.0 2.384185791015625e-07 1.1920928955078125e-07 1.0 2.384185791015625e-07 1.1920928955078125e-07 1.0 2.384185791015625e-07 0.0 0.0 -1.0 0.0 0.0 -1.0 0.0 0.0 -1.0 0.0 0.0 1.0 0.0 0.0 1.0 0.0 0.0 1.0 1.0 0.0 0.0 1.0 0.0 0.0 1.0 0.0 0.0 -1.1920928955078125e-07 -1.0 0.0 -1.1920928955078125e-07 -1.0 0.0 -1.1920928955078125e-07 -1.0 0.0 -1.0 0.0 0.0 -1.0 0.0 0.0 -1.0 0.0 0.0 2.384185791015625e-07 1.0 0.0 2.384185791015625e-07 1.0 0.0 2.384185791015625e-07 1.0 0.0 0.0 0.0 -1.0 0.0 0.0 1.0 1.0 0.0 0.0 -1.1920928955078125e-07 -1.0 2.384185791015625e-07 -1.1920928955078125e-07 -1.0 2.384185791015625e-07 -1.1920928955078125e-07 -1.0 2.384185791015625e-07 -1.0 0.0 0.0 0.0 1.0 0.0 0.0 1.0 0.0 0.0 1.0 0.0 0.0 0.0 -1.0 0.0 0.0 1.0 1.0 0.0 0.0 -4.76837158203125e-07 -1.0 0.0 -4.76837158203125e-07 -1.0 0.0 -4.76837158203125e-07 -1.0 0.0 -1.0 0.0 0.0 0.0 1.0 0.0 0.0 1.0 0.0 0.0 1.0 0.0</float_array>
				<technique_common>
				<accessor source="#id-mesh-24-normals-array" count="56" stride="3">
					<param name="X" type="float"/>
					<param name="Y" type="float"/>
					<param name="Z" type="float"/>
				</accessor>
				</technique_common>
			</source>
			<source id="id-mesh-24-texcoord-0">
				<float_array id="id-mesh-24-texcoord-0-array" count="112"> 0.9623172283172607 0.1875000149011612 0.9733898043632507 0.17500001192092896 0.9733898043632507 0.1875000149011612 0.9733898043632507 0.21250000596046448 0.9623172283172607 0.20000000298023224 0.9733898043632507 0.20000000298023224 0.9733898043632507 0.20000000298023224 0.9623172283172607 0.1875000149011612 0.9733898043632507 0.1875000149011612 0.9377158880233765 0.025000007823109627 0.9930787086486816 0.03750000521540642 0.9377158880233765 0.03750000521540642 0.962317168712616 0.17499999701976776 0.951244592666626 0.16250000894069672 0.962317168712616 0.16249999403953552 0.9930787682533264 0.037500008940696716 0.9377158880233765 0.04999998211860657 0.9377158880233765 0.037500008940696716 0.9377158880233765 0.14999999105930328 0.9828113913536072 0.13750000298023224 0.9828113913536072 0.14999999105930328 0.9828113913536072 0.07500001043081284 0.9377159476280212 0.08750000596046448 0.9377158880233765 0.07500001043081284 0.9377158880233765 0.10000000149011612 0.9828113913536072 0.11250000447034836 0.9377158880233765 0.11250000447034836 0.8823530077934265 0.0625000149011612 0.9377159476280212 0.050000015646219254 0.9377159476280212 0.0625000149011612 0.9828113913536072 0.125 0.9377158880233765 0.11250001192092896 0.9828113913536072 0.11250000447034836 0.8823530673980713 0.17499999701976776 0.9377158880233765 0.16249999403953552 0.9377158880233765 0.17499999701976776 0.9623172283172607 0.17500001192092896 0.9623172283172607 0.21250000596046448 0.9623172283172607 0.20000001788139343 0.9377158880233765 0.025000007823109627 0.9930787086486816 0.025000007823109627 0.9930787086486816 0.03750000521540642 0.951244592666626 0.17500001192092896 0.9930787682533264 0.037500008940696716 0.9930788278579712 0.04999998211860657 0.9377158880233765 0.04999998211860657 0.9377158880233765 0.13750000298023224 0.9828113913536072 0.08750000596046448 0.9828113913536072 0.10000000894069672 0.8823530077934265 0.0625000149011612 0.8823530077934265 0.050000015646219254 0.9377159476280212 0.050000015646219254 0.9377158880233765 0.125 0.8823530673980713 0.17499999701976776 0.8823530077934265 0.16249999403953552 0.9377158880233765 0.16249999403953552</float_array>
				<technique_common>
				<accessor source="#id-mesh-24-texcoord-0-array" count="56" stride="2">
					<param name="S" type="float"/>
					<param name="T" type="float"/>
				</accessor>
				</technique_common>
			</source>
			<source id="id-mesh-24-texcoord-1">
				<float_array id="id-mesh-24-texcoord-1-array" count="112"> 1.0 0.0 0.0 1.0 0.0 0.0 1.0 0.0 0.0 1.0 0.0 0.0 1.0 0.0 0.0 1.0 0.0 0.0 1.0 0.0 0.0 1.0 0.0 0.0 1.0 0.0 0.0 1.0 0.0 0.0 1.0 0.0 0.0 1.0 0.0 0.0 1.0 0.0 0.0 1.0 0.0 0.0 0.0 0.0 1.0 1.0 0.0 1.0 1.0 0.0 0.0 1.0 0.0 0.0 1.0 0.0 0.0 1.0 0.0 0.0 1.0 0.0 0.0 1.0 0.0 0.0 1.0 0.0 0.0 1.0 0.0 0.0 1.0 1.0 1.0 1.0 1.0 1.0 1.0 0.0 1.0 1.0 0.0 1.0 1.0 1.0 1.0 0.0 1.0 1.0 0.0 1.0 1.0 1.0 1.0 0.0 1.0 1.0 1.0 0.0 1.0 1.0 0.0 1.0 1.0 1.0 1.0 0.0 1.0 1.0 0.0 1.0</float_array>
				<technique_common>
				<accessor source="#id-mesh-24-texcoord-1-array" count="56" stride="2">
					<param name="S" type="float"/>
					<param name="T" type="float"/>
				</accessor>
				</technique_common>
			</source>
			<vertices id="id-mesh-24-vertices">
				<input semantic="POSITION" source="#id-mesh-24-positions"/>
			</vertices>
			<triangles count="24" material="id-trimat-25">
				<input semantic="VERTEX" source="#id-mesh-24-vertices" offset="0"/>
				<input semantic="NORMAL" source="#id-mesh-24-normals" offset="0"/>
				<input semantic="TEXCOORD" source="#id-mesh-24-texcoord-0" offset="0" set="0"/>
				<input semantic="TEXCOORD" source="#id-mesh-24-texcoord-1" offset="0" set="1"/>
				<p> 0 1 2 3 4 5 6 7 8 9 10 11 12 13 14 15 16 17 18 19 20 21 22 23 24 25 26 27 28 29 30 31 32 33 34 35 0 36 1 3 37 4 6 38 7 39 40 41 12 42 13 43 44 45 18 46 19 21 47 22 24 48 25 49 50 51 30 52 31 53 54 55 </p>
			</triangles>
		</mesh>
	</geometry>
</library_geometries>
<library_visual_scenes>
	<visual_scene id="id-scene-1" name="scene">
		<node id="BathroomWalls" name="BathroomWalls" type="NODE">
			<matrix sid="transform"> 7.549790126404332e-09 3.200000047683716 0.0 -3.9928677082061768 -0.10000000149011612 2.4159328404493863e-07 0.0 -1.5422813892364502 0.0 0.0 2.0 2.0 0.0 0.0 0.0 1.0  </matrix>
			<instance_geometry url="#id-mesh-4">
				<bind_material>
					<technique_common>
						<instance_material symbol="id-trimat-5" target="#id-material-3"/>
					</technique_common>
				</bind_material>
			</instance_geometry>
		</node>
		<node id="BedroomWalls" name="BedroomWalls" type="NODE">
			<matrix sid="transform"> 7.549790126404332e-09 3.200000047683716 0.0 -3.9928677082061768 -0.10000000149011612 2.4159328404493863e-07 0.0 -1.4516533613204956 0.0 0.0 2.0 2.0 0.0 0.0 0.0 1.0  </matrix>
			<instance_geometry url="#id-mesh-6">
				<bind_material>
					<technique_common>
						<instance_material symbol="id-trimat-7" target="#id-material-3"/>
					</technique_common>
				</bind_material>
			</instance_geometry>
		</node>
		<node id="Flat" name="Flat" type="NODE">
			<matrix sid="transform"> 7.549790126404332e-09 3.200000047683716 0.0 -3.9928677082061768 -0.10000000149011612 2.4159328404493863e-07 0.0 -1.5422813892364502 0.0 0.0 2.0 2.0 0.0 0.0 0.0 1.0  </matrix>
			<instance_geometry url="#id-mesh-8">
				<bind_material>
					<technique_common>
						<instance_material symbol="id-trimat-9" target="#id-material-3"/>
					</technique_common>
				</bind_material>
			</instance_geometry>
		</node>
		<node id="Floor" name="Floor" type="NODE">
			<matrix sid="transform"> 7.549790126404332e-09 3.200000047683716 0.0 -3.9928677082061768 -0.10000000149011612 2.4159328404493863e-07 0.0 -1.5422813892364502 0.0 0.0 2.0 2.0 0.0 0.0 0.0 1.0  </matrix>
			<instance_geometry url="#id-mesh-18">
				<bind_material>
					<technique_common>
						<instance_material symbol="id-trimat-19" target="#id-material-3"/>
						<instance_material symbol="id-trimat-20" target="#id-material-17"/>
						<instance_material symbol="id-trimat-21" target="#id-material-13"/>
						<instance_material symbol="id-trimat-22" target="#id-material-11"/>
						<instance_material symbol="id-trimat-23" target="#id-material-15"/>
					</technique_common>
				</bind_material>
			</instance_geometry>
		</node>
		<node id="KitchenWalls" name="KitchenWalls" type="NODE">
			<matrix sid="transform"> 7.549790126404332e-09 3.200000047683716 0.0 -3.9928677082061768 -0.10000000149011612 2.4159328404493863e-07 0.0 -1.5422813892364502 0.0 0.0 2.0 2.0 0.0 0.0 0.0 1.0  </matrix>
			<instance_geometry url="#id-mesh-24">
				<bind_material>
					<technique_common>
						<instance_material symbol="id-trimat-25" target="#id-material-3"/>
					</technique_common>
				</bind_material>
			</instance_geometry>
		</node>
	</visual_scene>
</library_visual_scenes>
<scene>
	<instance_visual_scene url="#id-scene-1" />
</scene>
</COLLADA>
