[gd_scene load_steps=3 format=2]

[ext_resource path="res://models/bed/bed.dae" type="PackedScene" id=1]

[sub_resource type="BoxShape" id=1]

extents = Vector3( 1.768, 1, 1.007 )

[node name="Bed" type="Spatial"]

[node name="Spatial" type="Spatial" parent="."]
transform = Transform( 1, 0, 0, 0, 1, 0, 0, 0, 1.63812, 0, 0, 0 )

[node name="StaticBody" type="StaticBody" parent="Spatial"]

[node name="Scene Root" parent="Spatial/StaticBody" instance=ExtResource( 1 )]

[node name="CollisionShape" type="CollisionShape" parent="Spatial/StaticBody"]
transform = Transform( 1, 0, 0, 0, 1, 0, 0, 0, 1, 0.109962, 0.956063, -0.0503036 )
shape = SubResource( 1 )

