<?xml version="1.0" encoding="utf-8"?>
<COLLADA xmlns="http://www.collada.org/2005/11/COLLADASchema" version="1.4.1">
<asset>
	<contributor>
		<author>Anonymous</author>
		<authoring_tool>Collada Exporter for Blender 2.6+, by Juan Linietsky (juan@codenix.com)</authoring_tool>
	</contributor>
	<created>2019-01-26T23:27:52Z</created>
	<modified>2019-01-26T23:27:52Z</modified>
	<unit meter="1.0" name="meter"/>
	<up_axis>Z_UP</up_axis>
</asset>
<library_effects>
	<effect id="id-fx-2" name="Wood-fx">
		<profile_COMMON>
			<technique sid="common">
				<blinn>
					<emission>
						<color>  0.0 0.0 0.0 1.0 </color>
					</emission>
					<ambient>
						<color>  0.0 0.0 0.0 1.0 </color>
					</ambient>
					<diffuse>
						<color>  0.640000066757203 0.21589496457420232 0.07709605212652759 1.0 </color>
					</diffuse>
					<specular>
						<color>  0.5 0.5 0.5 1.0 </color>
					</specular>
					<shininess>
						<float>50</float>
					</shininess>
					<reflective>
						<color>  1.0 1.0 1.0 1.0 </color>
					</reflective>
					<index_of_refraction>
						<float>4.0</float>
					</index_of_refraction>
				</blinn>
				<extra>
					<technique profile="FCOLLADA">
					</technique>
					<technique profile="GOOGLEEARTH">
						<double_sided>0</double_sided>
					</technique>
				</extra>
			</technique>
		</profile_COMMON>
	</effect>
	<effect id="id-fx-4" name="Top-fx">
		<profile_COMMON>
			<technique sid="common">
				<blinn>
					<emission>
						<color>  0.0 0.0 0.0 1.0 </color>
					</emission>
					<ambient>
						<color>  0.0 0.0 0.0 1.0 </color>
					</ambient>
					<diffuse>
						<color>  0.6400000190734865 0.6400000190734865 0.6400000190734865 1.0 </color>
					</diffuse>
					<specular>
						<color>  0.5 0.5 0.5 1.0 </color>
					</specular>
					<shininess>
						<float>50</float>
					</shininess>
					<reflective>
						<color>  1.0 1.0 1.0 1.0 </color>
					</reflective>
					<index_of_refraction>
						<float>4.0</float>
					</index_of_refraction>
				</blinn>
				<extra>
					<technique profile="FCOLLADA">
					</technique>
					<technique profile="GOOGLEEARTH">
						<double_sided>0</double_sided>
					</technique>
				</extra>
			</technique>
		</profile_COMMON>
	</effect>
</library_effects>
<library_materials>
	<material id="id-material-3" name="Wood">
		<instance_effect url="#id-fx-2"/>
	</material>
	<material id="id-material-5" name="Top">
		<instance_effect url="#id-fx-4"/>
	</material>
</library_materials>
<library_geometries>
	<geometry id="id-mesh-6" name="Cube.002">
		<mesh>
			<source id="id-mesh-6-positions">
				<float_array id="id-mesh-6-positions-array" count="729"> 0.9560271501541138 -1.0 0.896905243396759 -0.9560271501541138 -1.0 -0.9560271501541138 0.9560271501541138 -1.0 -0.9560271501541138 -0.9560271501541138 1.0 0.9567933082580566 0.9560271501541138 1.0 1.0439728498458862 0.9560271501541138 1.0 0.9336549639701843 1.039446234703064 0.9560271501541138 0.9085789322853088 1.1855794191360474 -0.9560271501541138 0.9805678129196167 1.039446234703064 -0.9560271501541138 0.9085789322853088 -1.0 -0.9560271501541138 0.9573222398757935 -1.0 0.9560271501541138 1.0439728498458862 -1.0 0.9560271501541138 0.9573222398757935 -1.0 -0.9560271501541138 0.9205789566040039 -1.0 0.9560271501541138 -0.9560271501541138 -1.0 -0.9560271501541138 -0.9560271501541138 -0.9560271501541138 -1.0 0.9567933082580566 0.9560271501541138 -1.0 1.0439728498458862 -0.9560271501541138 -1.0 1.0439728498458862 1.0439728498458862 -1.0 1.0879456996917725 1.181052803993225 1.0 1.0879456996917725 1.0439728498458862 1.0 1.0879456996917725 -0.9560271501541138 1.0 -0.9560271501541138 0.9560271501541138 1.0 0.896905243396759 0.9560271501541138 1.0 -0.9560271501541138 1.0 0.9560271501541138 0.8963763117790222 1.0 -0.9560271501541138 -0.9560271501541138 1.0 0.9560271501541138 -0.9560271501541138 1.0439728498458862 1.0 1.0439728498458862 1.181052803993225 1.0 1.0273568630218506 1.0439728498458862 1.0 0.9598277807235718 1.2250256538391113 -0.9560271501541138 1.0439728498458862 1.2250256538391113 0.9560271501541138 1.0439728498458862 1.0439728498458862 -1.0 1.0439728498458862 1.181052803993225 -1.0 1.0273568630218506 1.181052803993225 -1.0 1.0439728498458862 -0.9560271501541138 1.0 1.0879456996917725 0.9560271501541138 -1.0 1.0879456996917725 0.9560271501541138 1.0 1.0879456996917725 -0.9560271501541138 -0.9560271501541138 -1.0 -0.9560271501541138 -1.0 -0.9560271501541138 -1.0 -0.9560271501541138 -0.9560271501541138 -0.9560271501541138 -1.0 0.9567933082580566 -1.0 -0.9560271501541138 0.9205789566040039 -0.9560271501541138 -1.0 0.9200435876846313 -0.9560271501541138 0.9560271501541138 -1.0 -1.0 0.9560271501541138 -0.9560271501541138 -0.9560271501541138 1.0 -0.9560271501541138 -0.9560271501541138 1.0 0.9567933082580566 -1.0 0.9560271501541138 0.9205789566040039 -1.0 0.9560271501541138 0.9573222398757935 0.9560271501541138 -0.9560271501541138 -1.0 1.0 -0.9560271501541138 -0.9560271501541138 0.9560271501541138 -1.0 -0.9560271501541138 0.9560271501541138 -1.0 0.9336549639701843 0.9560271501541138 -1.0 0.896905243396759 1.0 -0.9560271501541138 0.8963763117790222 0.9560271501541138 0.9560271501541138 -1.0 0.9560271501541138 1.0 -0.9560271501541138 1.0 0.9560271501541138 -0.9560271501541138 1.0439728498458862 1.0 0.9598277807235718 1.039446234703064 0.9560271501541138 0.9085789322853088 1.0 0.9560271501541138 0.8963763117790222 -1.0 -0.9560271501541138 1.0439728498458862 -0.9560271501541138 -1.0 1.0439728498458862 -0.9560271501541138 -1.0 1.0879456996917725 -1.0 0.9560271501541138 1.0439728498458862 -0.9560271501541138 1.0 1.0879456996917725 -0.9560271501541138 1.0 1.0439728498458862 0.9560271501541138 1.0 1.0879456996917725 0.9560271501541138 -1.0 1.0879456996917725 1.0439728498458862 -1.0 1.0879456996917725 1.1855794191360474 0.9560271501541138 0.9805678129196167 1.181052803993225 1.0 1.0273568630218506 1.2250256538391113 0.9560271501541138 1.0439728498458862 1.1855794191360474 -0.9560271501541138 0.9805678129196167 1.2250256538391113 -0.9560271501541138 1.0439728498458862 1.181052803993225 -1.0 1.0273568630218506 1.181052803993225 1.0 1.0879456996917725 1.2250256538391113 0.9560271501541138 1.0439728498458862 1.181052803993225 1.0 1.0439728498458862 1.181052803993225 -1.0 1.0879456996917725 1.181052803993225 -1.0 1.0439728498458862 1.2250256538391113 -0.9560271501541138 1.0439728498458862 -0.9560271501541138 -0.9560271501541138 -1.0 -1.0 0.9560271501541138 -0.9560271501541138 -0.9560271501541138 0.9560271501541138 -1.0 -0.9560271501541138 -1.0 0.9200435876846313 -1.0 -0.9560271501541138 -0.9560271501541138 -0.9560271501541138 -1.0 -0.9560271501541138 -0.9560271501541138 1.0 0.9200435876846313 -1.0 0.9560271501541138 -0.9560271501541138 -1.0 0.9560271501541138 0.9205789566040039 -0.9560271501541138 0.9560271501541138 -1.0 0.9560271501541138 1.0 -0.9560271501541138 0.9560271501541138 0.9560271501541138 -1.0 -0.9560271501541138 1.0 0.9200435876846313 1.0 0.9560271501541138 0.8963763117790222 0.9560271501541138 1.0 -0.9560271501541138 0.9560271501541138 1.0 0.896905243396759 0.9560271501541138 0.9560271501541138 -1.0 1.0 -0.9560271501541138 -0.9560271501541138 0.9560271501541138 -0.9560271501541138 -1.0 1.039446234703064 -0.9560271501541138 0.9085789322853088 1.0 0.9560271501541138 0.8963763117790222 1.039446234703064 0.9560271501541138 0.9085789322853088 0.9560271501541138 -1.0 -0.9560271501541138 1.0 -0.9560271501541138 0.8963763117790222 0.9560271501541138 -1.0 0.896905243396759 0.9560271501541138 -0.9560271501541138 -1.0 -0.9560271501541138 -1.0 -0.9560271501541138 -0.9560271501541138 -0.9560271501541138 -1.0 0.9560271501541138 -1.0 0.9336549639701843 -0.9560271501541138 -1.0 0.9200435876846313 0.9560271501541138 -1.0 0.896905243396759 -0.9560271501541138 1.0 1.0879456996917725 -1.0 -0.9560271501541138 1.0439728498458862 -0.9560271501541138 -1.0 1.0879456996917725 0.9560271501541138 1.0 1.0879456996917725 -0.9560271501541138 1.0 1.0439728498458862 -0.9560271501541138 1.0 1.0879456996917725 1.0439728498458862 1.0 1.0879456996917725 -0.9560271501541138 -1.0 1.0879456996917725 0.9560271501541138 -1.0 1.0439728498458862 0.9560271501541138 -1.0 1.0879456996917725 -0.9560271501541138 -1.0 1.0439728498458862 -1.0 -0.9560271501541138 0.9573222398757935 -0.9560271501541138 -1.0 0.9567933082580566 -0.9560271501541138 1.0 1.0439728498458862 -1.0 0.9560271501541138 0.9573222398757935 -1.0 0.9560271501541138 1.0439728498458862 1.0439728498458862 -1.0 0.9598278403282166 1.2250256538391113 -0.9560271501541138 1.0439728498458862 1.1855794191360474 0.9560271501541138 0.9805678129196167 1.2250256538391113 0.9560271501541138 1.0439728498458862 1.181052803993225 -1.0 1.0879456996917725 1.2250256538391113 0.9560271501541138 1.0439728498458862 1.181052803993225 1.0 1.0879456996917725 1.2250256538391113 -0.9560271501541138 1.0439728498458862 1.181052803993225 -1.0 1.0439728498458862 1.181052803993225 -1.0 1.0273568630218506 1.2250256538391113 0.9560271501541138 1.0439728498458862 1.181052803993225 1.0 1.0273568630218506 1.181052803993225 1.0 1.0439728498458862 1.1855794191360474 -0.9560271501541138 0.9805678129196167 1.0439728498458862 -1.0 0.9598278403282166 1.039446234703064 -0.9560271501541138 0.9085789322853088 1.181052803993225 -1.0 1.0879456996917725 1.181052803993225 1.0 1.0879456996917725 1.181052803993225 1.0 1.0439728498458862 1.0439728498458862 1.0 0.9598277807235718 1.1855794191360474 0.9560271501541138 0.9805678129196167 1.039446234703064 0.9560271501541138 0.9085789322853088 0.9560271501541138 0.9560271501541138 -1.0 -0.9560271501541138 -0.9560271501541138 -1.0 -0.9560271501541138 0.9560271501541138 -1.0 -0.9560271501541138 -1.0 -0.9560271501541138 -0.9560271501541138 1.0 1.0439728498458862 1.039446234703064 0.9560271501541138 0.9085789322853088 1.1855794191360474 0.9560271501541138 0.9805678129196167 1.1855794191360474 -0.9560271501541138 0.9805678129196167 -1.0 -0.9560271501541138 1.0439728498458862 -1.0 -0.9560271501541138 0.9205789566040039 -1.0 0.9560271501541138 0.9205789566040039 -1.0 0.9560271501541138 -0.9560271501541138 1.181052803993225 -1.0 1.0879456996917725 -0.9560271501541138 1.0 -0.9560271501541138 0.9560271501541138 1.0 0.896905243396759 1.0 -0.9560271501541138 0.8963763117790222 -0.9560271501541138 -1.0 1.0879456996917725 -0.9560271501541138 -1.0 0.9567933082580566 -1.0 -0.9560271501541138 0.9573222398757935 -1.0 -0.9560271501541138 0.9205789566040039 -0.9560271501541138 1.0 0.9567933082580566 -0.9560271501541138 1.0 0.9200435876846313 -1.0 0.9560271501541138 0.9205789566040039 1.0 -0.9560271501541138 0.8963763117790222 1.039446234703064 -0.9560271501541138 0.9085789322853088 1.0439728498458862 -1.0 0.9598278403282166 1.0439728498458862 -1.0 0.9598278403282166 0.9560271501541138 -1.0 0.9336549639701843 1.0 -0.9560271501541138 0.8963763117790222 0.9560271501541138 1.0 0.896905243396759 0.9560271501541138 1.0 0.9336549639701843 1.0 0.9560271501541138 0.8963763117790222 0.9560271501541138 1.0 0.9336549639701843 1.0439728498458862 1.0 0.9598277807235718 1.0 0.9560271501541138 0.8963763117790222 1.0439728498458862 1.0 1.0879456996917725 -0.9560271501541138 -0.9560271501541138 -1.0 -1.0 -0.9560271501541138 -0.9560271501541138 -1.0 0.9560271501541138 -0.9560271501541138 -0.9560271501541138 -1.0 0.9200435876846313 -1.0 -0.9560271501541138 0.9205789566040039 -1.0 -0.9560271501541138 -0.9560271501541138 -1.0 0.9560271501541138 0.9205789566040039 -0.9560271501541138 1.0 0.9200435876846313 -0.9560271501541138 1.0 -0.9560271501541138 -1.0 0.9560271501541138 -0.9560271501541138 -0.9560271501541138 0.9560271501541138 -1.0 -0.9560271501541138 1.0 -0.9560271501541138 0.9560271501541138 1.0 -0.9560271501541138 1.0 0.9560271501541138 0.8963763117790222 1.0 0.9560271501541138 -0.9560271501541138 0.9560271501541138 1.0 -0.9560271501541138 0.9560271501541138 0.9560271501541138 -1.0 1.0 0.9560271501541138 -0.9560271501541138 1.0 -0.9560271501541138 -0.9560271501541138 1.039446234703064 -0.9560271501541138 0.9085789322853088 1.0 -0.9560271501541138 0.8963763117790222 1.0 0.9560271501541138 0.8963763117790222 0.9560271501541138 -1.0 -0.9560271501541138 1.0 -0.9560271501541138 -0.9560271501541138 1.0 -0.9560271501541138 0.8963763117790222 0.9560271501541138 -0.9560271501541138 -1.0 0.9560271501541138 -1.0 -0.9560271501541138 -0.9560271501541138 -1.0 -0.9560271501541138 -0.9560271501541138 1.0 1.0879456996917725 -1.0 0.9560271501541138 1.0439728498458862 -1.0 -0.9560271501541138 1.0439728498458862 0.9560271501541138 1.0 1.0439728498458862 1.0439728498458862 -1.0 1.0879456996917725 -0.9560271501541138 -1.0 1.0439728498458862 -0.9560271501541138 -1.0 1.0439728498458862 -1.0 -0.9560271501541138 1.0439728498458862 -1.0 -0.9560271501541138 0.9573222398757935 -0.9560271501541138 1.0 1.0439728498458862 -0.9560271501541138 1.0 0.9567933082580566 -1.0 0.9560271501541138 0.9573222398757935 1.2250256538391113 -0.9560271501541138 1.0439728498458862 1.1855794191360474 -0.9560271501541138 0.9805678129196167 1.1855794191360474 0.9560271501541138 0.9805678129196167 1.181052803993225 -1.0 1.0879456996917725 1.2250256538391113 -0.9560271501541138 1.0439728498458862 1.2250256538391113 0.9560271501541138 1.0439728498458862 1.181052803993225 -1.0 1.0439728498458862 1.181052803993225 1.0 1.0273568630218506 1.1855794191360474 -0.9560271501541138 0.9805678129196167 1.181052803993225 -1.0 1.0273568630218506 1.0439728498458862 -1.0 0.9598278403282166 1.0439728498458862 1.0 0.9598277807235718 1.181052803993225 1.0 1.0273568630218506 1.1855794191360474 0.9560271501541138 0.9805678129196167 0.9560271501541138 -0.9560271501541138 -1.0</float_array>
				<technique_common>
				<accessor source="#id-mesh-6-positions-array" count="243" stride="3">
					<param name="X" type="float"/>
					<param name="Y" type="float"/>
					<param name="Z" type="float"/>
				</accessor>
				</technique_common>
			</source>
			<source id="id-mesh-6-normals">
				<float_array id="id-mesh-6-normals-array" count="729"> 0.0 -0.9999999403953552 0.0 0.0 -0.9999999403953552 0.0 0.0 -0.9999999403953552 0.0 0.0 1.0 0.0 0.0 1.0 0.0 0.0 1.0 0.0 0.441913902759552 0.0 -0.8970574736595154 0.441913902759552 0.0 -0.8970574736595154 0.441913902759552 0.0 -0.8970574736595154 -1.0 0.0 0.0 -1.0 0.0 0.0 -1.0 0.0 0.0 -1.0 0.0 0.0 -1.0 0.0 0.0 -1.0 0.0 0.0 0.0 -1.0 0.0 0.0 -1.0 0.0 0.0 -1.0 0.0 0.0 0.0 1.0 0.0 0.0 1.0 0.0 0.0 1.0 0.0 0.9999999403953552 0.0 0.0 0.9999999403953552 0.0 0.0 0.9999999403953552 0.0 1.0 0.0 0.0 1.0 0.0 0.0 1.0 0.0 0.0 0.0 1.0 0.0 0.0 1.0 0.0 0.0 1.0 0.0 0.0 0.0 1.0 0.0 0.0 1.0 0.0 -1.0 0.0 0.0 -1.0 0.0 0.0 -1.0 0.0 0.0 0.0 0.9999999403953552 0.0 0.0 0.9999999403953552 0.0 0.0 0.9999999403953552 -0.5773502588272095 -0.5773502588272095 -0.5773502588272095 -0.5773502588272095 -0.5773502588272095 -0.5773502588272095 -0.5773502588272095 -0.5773502588272095 -0.5773502588272095 -0.7071079611778259 -0.7071055769920349 0.0 -0.7071079611778259 -0.7071055769920349 0.0 -0.7071079611778259 -0.7071055769920349 0.0 -0.5773502588272095 0.5773502588272095 -0.5773502588272095 -0.5773502588272095 0.5773502588272095 -0.5773502588272095 -0.5773502588272095 0.5773502588272095 -0.5773502588272095 -0.7071051597595215 0.7071084380149841 0.0 -0.7071051597595215 0.7071084380149841 0.0 -0.7071051597595215 0.7071084380149841 0.0 0.5773502588272095 -0.5773502588272095 -0.5773502588272095 0.5773502588272095 -0.5773502588272095 -0.5773502588272095 0.5773502588272095 -0.5773502588272095 -0.5773502588272095 0.7071056365966797 -0.7071079611778259 0.0 0.7071056365966797 -0.7071079611778259 0.0 0.7071056365966797 -0.7071079611778259 0.0 0.5773502588272095 0.5773502588272095 -0.5773502588272095 0.5773502588272095 0.5773502588272095 -0.5773502588272095 0.5773502588272095 0.5773502588272095 -0.5773502588272095 0.2004901021718979 0.7346937656402588 -0.6480963230133057 0.2004901021718979 0.7346937656402588 -0.6480963230133057 0.2004901021718979 0.7346937656402588 -0.6480963230133057 -0.7071054577827454 -0.7071081399917603 0.0 -0.7071054577827454 -0.7071081399917603 0.0 -0.7071054577827454 -0.7071081399917603 0.0 -0.7071054577827454 0.7071081399917603 0.0 -0.7071054577827454 0.7071081399917603 0.0 -0.7071054577827454 0.7071081399917603 0.0 0.0 1.0 0.0 0.0 -1.0 0.0 0.0 -1.0 0.0 0.7120834589004517 0.5446840524673462 -0.4430082440376282 0.7120834589004517 0.5446840524673462 -0.4430082440376282 0.7120834589004517 0.5446840524673462 -0.4430082440376282 0.7120834589004517 -0.5446840524673462 -0.4430082440376282 0.7120834589004517 -0.5446840524673462 -0.4430082440376282 0.7120834589004517 -0.5446840524673462 -0.4430082440376282 0.7071067094802856 0.7071067094802856 0.0 0.7071067094802856 0.7071067094802856 0.0 0.7071067094802856 0.7071067094802856 0.0 0.7071067094802856 -0.7071067094802856 0.0 0.7071067094802856 -0.7071067094802856 0.0 0.7071067094802856 -0.7071067094802856 0.0 -0.7071070671081543 0.0 -0.7071064710617065 -0.7071070671081543 0.0 -0.7071064710617065 -0.7071070671081543 0.0 -0.7071064710617065 -0.7071068286895752 -0.7071067690849304 0.0 -0.7071068286895752 -0.7071067690849304 0.0 -0.7071068286895752 -0.7071067690849304 0.0 -0.7071065306663513 0.7071069478988647 0.0 -0.7071065306663513 0.7071069478988647 0.0 -0.7071065306663513 0.7071069478988647 0.0 0.0 0.7071074843406677 -0.7071061134338379 0.0 0.7071074843406677 -0.7071061134338379 0.0 0.7071074843406677 -0.7071061134338379 0.0 1.0 0.0 0.7071083784103394 0.707105278968811 0.0 0.7071083784103394 0.707105278968811 0.0 0.7071083784103394 0.707105278968811 0.0 0.7071070671081543 0.0 -0.7071064710617065 0.7071070671081543 0.0 -0.7071064710617065 0.7071070671081543 0.0 -0.7071064710617065 0.29553112387657166 0.0 -0.9553331136703491 0.29553112387657166 0.0 -0.9553331136703491 0.29553112387657166 0.0 -0.9553331136703491 0.7071079015731812 -0.7071056962013245 0.0 0.7071079015731812 -0.7071056962013245 0.0 0.7071079015731812 -0.7071056962013245 0.0 0.0 -0.7071074843406677 -0.7071061134338379 0.0 -0.7071074843406677 -0.7071061134338379 0.0 -0.7071074843406677 -0.7071061134338379 0.0 -1.0 0.0 0.0 -1.0 0.0 0.0 -1.0 0.0 -0.7071083188056946 0.0 0.7071053385734558 -0.7071083188056946 0.0 0.7071053385734558 -0.7071083188056946 0.0 0.7071053385734558 0.0 0.9999999403953552 0.0 0.0 0.9999999403953552 0.0 0.0 0.9999999403953552 0.0 0.0 0.0 0.9999999403953552 0.0 -0.9999999403953552 0.0 0.0 -0.9999999403953552 0.0 0.0 -0.9999999403953552 0.0 -0.7071073055267334 -0.7071062922477722 0.0 -0.7071073055267334 -0.7071062922477722 0.0 -0.7071073055267334 -0.7071062922477722 0.0 -0.7071067690849304 0.7071067690849304 0.0 -0.7071067690849304 0.7071067690849304 0.0 -0.7071067690849304 0.7071067690849304 0.0 0.0 -1.0 0.0 0.8490910530090332 0.0 -0.5282465815544128 0.8490910530090332 0.0 -0.5282465815544128 0.8490910530090332 0.0 -0.5282465815544128 0.7071083188056946 0.0 0.7071053385734558 0.7071083188056946 0.0 0.7071053385734558 0.7071083188056946 0.0 0.7071053385734558 0.7071104049682617 -0.7071031928062439 0.0 0.7071104049682617 -0.7071031928062439 0.0 0.7071104049682617 -0.7071031928062439 0.0 0.7071104049682617 0.7071031928062439 0.0 0.7071104049682617 0.7071031928062439 0.0 0.7071104049682617 0.7071031928062439 0.0 0.31247982382774353 -0.707107424736023 -0.6343149542808533 0.31247982382774353 -0.707107424736023 -0.6343149542808533 0.31247982382774353 -0.707107424736023 -0.6343149542808533 0.0 -1.0 0.0 0.0 1.0 0.0 0.0 1.0 0.0 0.3124803602695465 0.7071064114570618 -0.6343158483505249 0.3124803602695465 0.7071064114570618 -0.6343158483505249 0.3124803602695465 0.7071064114570618 -0.6343158483505249 0.0 0.0 -1.0 0.0 0.0 -1.0 0.0 0.0 -1.0 0.0 -1.0 0.0 0.0 1.0 0.0 0.4419126808643341 0.0 -0.8970580697059631 0.4419126808643341 0.0 -0.8970580697059631 0.4419126808643341 0.0 -0.8970580697059631 -1.0 0.0 0.0 -0.9999999403953552 0.0 0.0 -0.9999999403953552 0.0 0.0 -0.9999999403953552 0.0 0.0 0.0 0.0 1.0 0.0 1.0 0.0 0.0 1.0 0.0 1.0 0.0 0.0 0.0 0.0 0.9999999403953552 -0.7071051597595215 -0.7071084380149841 0.0 -0.7071051597595215 -0.7071084380149841 0.0 -0.7071051597595215 -0.7071084380149841 0.0 -0.7071079611778259 0.7071055769920349 0.0 -0.7071079611778259 0.7071055769920349 0.0 -0.7071079611778259 0.7071055769920349 0.0 0.20048731565475464 -0.7346951365470886 -0.6480956673622131 0.20048731565475464 -0.7346951365470886 -0.6480956673622131 0.20048731565475464 -0.7346951365470886 -0.6480956673622131 0.19208455085754395 -0.7392652034759521 -0.6454381942749023 0.19208455085754395 -0.7392652034759521 -0.6454381942749023 0.19208455085754395 -0.7392652034759521 -0.6454381942749023 0.7071051597595215 0.7071083784103394 0.0 0.7071051597595215 0.7071083784103394 0.0 0.7071051597595215 0.7071083784103394 0.0 0.19208335876464844 0.7392653822898865 -0.6454383730888367 0.19208335876464844 0.7392653822898865 -0.6454383730888367 0.19208335876464844 0.7392653822898865 -0.6454383730888367 0.0 1.0 0.0 -0.7071061134338379 0.0 -0.7071074843406677 -0.7071061134338379 0.0 -0.7071074843406677 -0.7071061134338379 0.0 -0.7071074843406677 -0.7071065306663513 -0.7071069478988647 0.0 -0.7071065306663513 -0.7071069478988647 0.0 -0.7071065306663513 -0.7071069478988647 0.0 -1.0 0.0 0.0 -0.7071068286895752 0.7071067690849304 0.0 -0.7071068286895752 0.7071067690849304 0.0 -0.7071068286895752 0.7071067690849304 0.0 0.0 0.7071064710617065 -0.7071070671081543 0.0 0.7071064710617065 -0.7071070671081543 0.0 0.7071064710617065 -0.7071070671081543 0.7071067690849304 0.7071068286895752 0.0 0.7071067690849304 0.7071068286895752 0.0 0.7071067690849304 0.7071068286895752 0.0 0.7071061134338379 0.0 -0.7071074843406677 0.7071061134338379 0.0 -0.7071074843406677 0.7071061134338379 0.0 -0.7071074843406677 0.295528382062912 0.0 -0.9553340077400208 0.295528382062912 0.0 -0.9553340077400208 0.295528382062912 0.0 -0.9553340077400208 0.7071067690849304 -0.7071068286895752 0.0 0.7071067690849304 -0.7071068286895752 0.0 0.7071067690849304 -0.7071068286895752 0.0 0.0 -0.7071064710617065 -0.7071070671081543 0.0 -0.7071064710617065 -0.7071070671081543 0.0 -0.7071064710617065 -0.7071070671081543 -0.7071051001548767 0.0 0.7071084976196289 -0.7071051001548767 0.0 0.7071084976196289 -0.7071051001548767 0.0 0.7071084976196289 0.0 0.9999999403953552 0.0 0.0 0.0 0.9999999403953552 0.0 -0.9999999403953552 0.0 -0.7071067690849304 -0.7071067690849304 0.0 -0.7071067690849304 -0.7071067690849304 0.0 -0.7071067690849304 -0.7071067690849304 0.0 -0.7071073055267334 0.7071062922477722 0.0 -0.7071073055267334 0.7071062922477722 0.0 -0.7071073055267334 0.7071062922477722 0.0 0.8490914106369019 0.0 -0.528245747089386 0.8490914106369019 0.0 -0.528245747089386 0.8490914106369019 0.0 -0.528245747089386 0.7071051001548767 0.0 0.7071084976196289 0.7071051001548767 0.0 0.7071084976196289 0.7071051001548767 0.0 0.7071084976196289 0.0 0.0 1.0 0.0 0.0 1.0 0.31247901916503906 -0.7071079015731812 -0.6343147158622742 0.31247901916503906 -0.7071079015731812 -0.6343147158622742 0.31247901916503906 -0.7071079015731812 -0.6343147158622742 0.312479168176651 0.7071074843406677 -0.6343152523040771 0.312479168176651 0.7071074843406677 -0.6343152523040771 0.312479168176651 0.7071074843406677 -0.6343152523040771 0.0 0.0 -1.0</float_array>
				<technique_common>
				<accessor source="#id-mesh-6-normals-array" count="243" stride="3">
					<param name="X" type="float"/>
					<param name="Y" type="float"/>
					<param name="Z" type="float"/>
				</accessor>
				</technique_common>
			</source>
			<vertices id="id-mesh-6-vertices">
				<input semantic="POSITION" source="#id-mesh-6-positions"/>
			</vertices>
			<triangles count="92" material="id-trimat-7">
				<input semantic="VERTEX" source="#id-mesh-6-vertices" offset="0"/>
				<input semantic="NORMAL" source="#id-mesh-6-normals" offset="0"/>
				<p> 3 4 5 6 7 8 9 10 11 15 16 17 18 19 20 27 28 29 30 31 30 32 33 34 35 36 37 38 39 40 41 42 43 44 45 46 47 48 49 50 51 52 53 54 55 56 57 58 59 60 61 62 63 64 65 66 67 68 27 4 69 32 70 71 72 73 74 75 76 77 78 79 80 81 82 83 84 85 11 12 9 92 93 94 5 95 3 99 100 101 102 103 104 108 109 110 111 112 113 114 115 116 117 118 119 36 120 37 121 122 123 124 125 126 127 128 129 130 16 111 29 4 27 131 132 133 134 135 136 137 138 139 140 141 142 143 144 145 70 34 146 27 147 148 149 150 151 152 153 154 3 156 4 157 158 159 9 160 10 15 111 16 18 164 19 27 148 28 30 31 31 32 130 33 35 168 36 169 170 171 172 173 174 175 176 177 178 179 180 181 182 183 184 185 186 68 187 27 69 16 32 188 189 190 11 194 12 198 199 200 5 166 95 204 205 206 207 208 209 213 214 215 111 15 112 216 217 218 117 219 118 36 220 120 121 221 122 222 223 224 225 226 227 130 32 16 29 5 4 228 229 230 231 232 233 30 30 234 31 31 235 236 237 238 70 32 34 27 187 147 239 240 241 152 242 153 </p>
			</triangles>
			<triangles count="16" material="id-trimat-8">
				<input semantic="VERTEX" source="#id-mesh-6-vertices" offset="0"/>
				<input semantic="NORMAL" source="#id-mesh-6-normals" offset="0"/>
				<p> 0 1 2 12 13 14 21 22 23 24 25 26 86 87 88 89 90 91 96 97 98 105 106 107 113 112 155 161 162 163 165 95 166 24 167 25 191 192 193 195 196 197 201 202 203 210 211 212 </p>
			</triangles>
		</mesh>
	</geometry>
</library_geometries>
<library_visual_scenes>
	<visual_scene id="id-scene-1" name="scene">
		<node id="Cube" name="Cube" type="NODE">
			<matrix sid="transform"> 1.0 0.0 0.0 0.0 0.0 1.0 0.0 0.0 0.0 0.0 1.0 0.0 0.0 0.0 0.0 1.0  </matrix>
			<instance_geometry url="#id-mesh-6">
				<bind_material>
					<technique_common>
						<instance_material symbol="id-trimat-7" target="#id-material-5"/>
						<instance_material symbol="id-trimat-8" target="#id-material-3"/>
					</technique_common>
				</bind_material>
			</instance_geometry>
		</node>
	</visual_scene>
</library_visual_scenes>
<scene>
	<instance_visual_scene url="#id-scene-1" />
</scene>
</COLLADA>
